time,gFx,gFy,gFz,ax,ay,az,wx,wy,wz,P
0.006,0.02,0.06,0.98,-0.03,-0.01,-0.10,-0.01,-0.09,0.00,1011.38
0.006,0.02,0.06,0.98,-0.03,-0.01,-0.10,-0.01,-0.09,0.00,1011.38
0.006,0.02,0.06,0.98,-0.03,-0.01,-0.10,0.00,-0.00,0.00,1011.38
0.007,0.02,0.06,0.98,-0.03,-0.01,-0.10,0.00,-0.00,0.00,1011.38
0.007,0.02,0.06,0.98,-0.02,-0.01,-0.14,0.00,-0.00,0.00,1011.38
0.008,0.02,0.06,0.98,0.01,-0.01,-0.19,0.00,-0.00,0.00,1011.38
0.008,0.02,0.06,0.98,0.01,-0.01,-0.19,0.00,-0.00,0.00,1011.37
0.059,0.02,0.06,0.98,0.01,-0.01,-0.19,-0.00,-0.00,0.00,1011.37
0.061,0.01,0.06,0.98,0.01,-0.01,-0.19,-0.00,-0.00,0.00,1011.37
0.064,0.01,0.06,0.98,-0.01,-0.01,-0.15,-0.00,-0.00,0.00,1011.37
0.105,0.01,0.06,0.98,-0.01,-0.01,-0.15,-0.00,-0.00,0.00,1011.38
0.12,0.02,0.06,0.98,-0.01,-0.01,-0.15,-0.00,-0.00,0.00,1011.38
0.121,0.01,0.06,0.98,-0.01,-0.01,-0.15,-0.00,-0.00,0.00,1011.38
0.121,0.01,0.06,0.98,-0.01,-0.01,-0.15,-0.00,0.00,0.00,1011.38
0.122,0.01,0.06,0.98,-0.01,-0.01,-0.15,-0.00,0.00,-0.00,1011.38
0.123,0.01,0.06,0.98,-0.01,-0.01,-0.15,-0.00,0.00,-0.00,1011.38
0.123,0.01,0.06,0.98,-0.01,-0.01,-0.15,-0.00,0.00,-0.00,1011.38
0.177,0.01,0.06,0.98,-0.01,-0.01,-0.15,-0.00,0.00,-0.00,1011.38
0.177,0.01,0.06,0.98,-0.01,-0.01,-0.15,-0.00,-0.00,-0.00,1011.38
0.178,0.01,0.06,0.98,-0.02,-0.01,-0.16,-0.00,-0.00,-0.00,1011.38
0.204,0.01,0.06,0.98,-0.02,-0.01,-0.16,-0.00,-0.00,-0.00,1011.38
0.237,0.01,0.06,0.98,-0.02,-0.01,-0.16,-0.00,-0.00,-0.00,1011.38
0.238,0.02,0.06,0.98,-0.02,-0.01,-0.16,-0.00,-0.00,-0.00,1011.38
0.238,0.02,0.06,0.98,-0.02,-0.01,-0.16,-0.00,-0.00,-0.00,1011.38
0.239,0.02,0.06,0.98,-0.02,-0.01,-0.16,0.00,-0.00,0.00,1011.38
0.239,0.02,0.06,0.98,-0.03,-0.01,-0.15,0.00,-0.00,0.00,1011.38
0.24,0.02,0.06,0.98,-0.00,-0.01,-0.16,0.00,-0.00,0.00,1011.38
0.294,0.02,0.06,0.98,-0.00,-0.01,-0.16,0.00,-0.00,0.00,1011.38
0.296,0.02,0.06,0.98,-0.00,-0.01,-0.16,0.00,0.00,0.00,1011.38
0.297,0.02,0.06,0.98,0.01,-0.01,-0.16,0.00,0.00,0.00,1011.38
0.303,0.02,0.06,0.98,0.01,-0.01,-0.16,0.00,0.00,0.00,1011.37
0.355,0.01,0.06,0.98,0.01,-0.01,-0.16,0.00,0.00,0.00,1011.37
0.356,0.02,0.06,0.98,0.01,-0.01,-0.16,0.00,0.00,0.00,1011.37
0.357,0.02,0.06,0.98,0.01,-0.01,-0.16,0.00,0.00,-0.00,1011.37
0.358,0.02,0.06,0.98,0.01,-0.01,-0.16,0.00,-0.00,0.00,1011.37
0.358,0.02,0.06,0.98,-0.01,-0.00,-0.15,0.00,-0.00,0.00,1011.37
0.359,0.02,0.06,0.98,-0.02,-0.00,-0.15,0.00,-0.00,0.00,1011.37
0.403,0.02,0.06,0.98,-0.02,-0.00,-0.15,0.00,-0.00,0.00,1011.37
0.414,0.02,0.06,0.98,-0.02,-0.00,-0.15,0.00,-0.00,0.00,1011.37
0.415,0.02,0.06,0.98,-0.02,-0.00,-0.15,-0.00,-0.00,0.00,1011.37
0.415,0.02,0.06,0.98,0.00,-0.00,-0.16,-0.00,-0.00,0.00,1011.37
0.474,0.01,0.06,0.98,0.00,-0.00,-0.16,-0.00,-0.00,0.00,1011.37
0.475,0.01,0.06,0.98,0.00,-0.00,-0.16,-0.00,-0.00,0.00,1011.37
0.476,0.01,0.06,0.98,0.00,-0.00,-0.16,-0.00,-0.00,0.00,1011.37
0.476,0.01,0.06,0.98,0.00,-0.00,-0.16,-0.00,-0.00,0.00,1011.37
0.477,0.01,0.06,0.98,-0.00,-0.01,-0.16,-0.00,-0.00,0.00,1011.37
0.478,0.01,0.06,0.98,-0.03,-0.01,-0.16,-0.00,-0.00,0.00,1011.37
0.503,0.01,0.06,0.98,-0.03,-0.01,-0.16,-0.00,-0.00,0.00,1011.39
0.532,0.02,0.06,0.98,-0.03,-0.01,-0.16,-0.00,-0.00,0.00,1011.39
0.533,0.02,0.06,0.98,-0.03,-0.01,-0.16,0.00,-0.00,0.00,1011.39
0.534,0.02,0.06,0.98,-0.01,-0.01,-0.15,0.00,-0.00,0.00,1011.39
0.592,0.02,0.06,0.98,-0.01,-0.01,-0.15,0.00,-0.00,0.00,1011.39
0.593,0.01,0.06,0.98,-0.01,-0.01,-0.15,0.00,-0.00,0.00,1011.39
0.594,0.01,0.06,0.98,-0.01,-0.01,-0.15,-0.00,-0.00,0.00,1011.39
0.595,0.01,0.06,0.98,-0.01,-0.01,-0.15,-0.00,-0.00,0.00,1011.39
0.596,0.01,0.06,0.98,0.01,-0.01,-0.15,-0.00,-0.00,0.00,1011.39
0.596,0.01,0.06,0.98,-0.01,-0.01,-0.15,-0.00,-0.00,0.00,1011.39
0.603,0.01,0.06,0.98,-0.01,-0.01,-0.15,-0.00,-0.00,0.00,1011.38
0.65,0.02,0.06,0.98,-0.01,-0.01,-0.15,-0.00,-0.00,0.00,1011.38
0.651,0.02,0.06,0.98,-0.01,-0.01,-0.15,-0.00,-0.00,0.00,1011.38
0.652,0.02,0.06,0.98,-0.01,-0.00,-0.15,-0.00,-0.00,0.00,1011.38
0.702,0.02,0.06,0.98,-0.01,-0.00,-0.15,-0.00,-0.00,0.00,1011.39
0.71,0.02,0.06,0.98,-0.01,-0.00,-0.15,-0.00,-0.00,0.00,1011.39
0.71,0.01,0.06,0.98,-0.01,-0.00,-0.15,-0.00,-0.00,0.00,1011.39
0.711,0.01,0.06,0.98,-0.01,-0.00,-0.15,-0.00,0.00,0.00,1011.39
0.711,0.01,0.06,0.98,-0.01,-0.00,-0.15,-0.00,-0.00,0.00,1011.39
0.712,0.01,0.06,0.98,0.02,-0.00,-0.15,-0.00,-0.00,0.00,1011.39
0.712,0.01,0.06,0.98,-0.05,-0.02,-0.14,-0.00,-0.00,0.00,1011.39
0.768,0.01,0.06,0.98,-0.05,-0.02,-0.14,-0.00,-0.00,0.00,1011.39
0.769,0.01,0.06,0.98,-0.05,-0.02,-0.14,-0.00,-0.00,-0.00,1011.39
0.769,0.01,0.06,0.98,-0.04,-0.01,-0.15,-0.00,-0.00,-0.00,1011.39
0.802,0.01,0.06,0.98,-0.04,-0.01,-0.15,-0.00,-0.00,-0.00,1011.39
0.827,0.02,0.06,0.98,-0.04,-0.01,-0.15,-0.00,-0.00,-0.00,1011.39
0.828,0.02,0.06,0.98,-0.04,-0.01,-0.15,-0.00,-0.00,-0.00,1011.39
0.829,0.02,0.06,0.98,-0.04,-0.01,-0.15,0.00,0.00,0.00,1011.39
0.829,0.02,0.06,0.98,-0.04,-0.01,-0.15,0.00,-0.00,0.00,1011.39
0.83,0.02,0.06,0.98,0.04,0.00,-0.16,0.00,-0.00,0.00,1011.39
0.83,0.02,0.06,0.98,0.01,0.00,-0.16,0.00,-0.00,0.00,1011.39
0.885,0.01,0.06,0.98,0.01,0.00,-0.16,0.00,-0.00,0.00,1011.39
0.887,0.01,0.06,0.98,0.01,0.00,-0.16,-0.00,-0.00,0.00,1011.39
0.887,0.01,0.06,0.98,-0.05,-0.00,-0.16,-0.00,-0.00,0.00,1011.39
0.901,0.01,0.06,0.98,-0.05,-0.00,-0.16,-0.00,-0.00,0.00,1011.40
0.946,0.01,0.06,0.98,-0.05,-0.00,-0.16,-0.00,-0.00,0.00,1011.40
0.947,0.02,0.06,0.98,-0.05,-0.00,-0.16,-0.00,-0.00,0.00,1011.40
0.948,0.02,0.06,0.98,-0.05,-0.00,-0.16,0.00,-0.00,-0.00,1011.40
0.948,0.02,0.06,0.98,-0.05,-0.00,-0.16,-0.00,-0.00,0.00,1011.40
0.949,0.02,0.06,0.98,-0.05,-0.01,-0.15,-0.00,-0.00,0.00,1011.40
0.949,0.02,0.06,0.98,0.02,-0.01,-0.15,-0.00,-0.00,0.00,1011.40
1.001,0.02,0.06,0.98,0.02,-0.01,-0.15,-0.00,-0.00,0.00,1011.39
1.003,0.02,0.06,0.98,0.02,-0.01,-0.15,-0.00,-0.00,0.00,1011.39
1.005,0.02,0.06,0.98,0.02,-0.01,-0.15,-0.00,-0.00,0.00,1011.39
1.006,0.02,0.06,0.98,0.04,0.00,-0.15,-0.00,-0.00,0.00,1011.39
1.063,0.02,0.06,0.98,0.04,0.00,-0.15,-0.00,-0.00,-0.00,1011.39
1.066,0.01,0.06,0.98,0.04,0.00,-0.15,-0.00,-0.00,-0.00,1011.39
1.066,0.01,0.06,0.98,0.04,0.00,-0.15,-0.00,-0.00,-0.00,1011.39
1.067,0.01,0.06,0.98,0.04,0.00,-0.15,0.00,-0.00,0.00,1011.39
1.069,0.01,0.06,0.98,-0.03,-0.01,-0.14,0.00,-0.00,0.00,1011.39
1.069,0.01,0.06,0.98,-0.04,-0.01,-0.15,0.00,-0.00,0.00,1011.39
1.1,0.01,0.06,0.98,-0.04,-0.01,-0.15,0.00,-0.00,0.00,1011.39
1.123,0.02,0.06,0.98,-0.04,-0.01,-0.15,0.00,-0.00,0.00,1011.39
1.125,0.02,0.06,0.98,-0.04,-0.01,-0.15,0.00,-0.00,0.00,1011.39
1.126,0.02,0.06,0.98,-0.02,-0.00,-0.14,0.00,-0.00,0.00,1011.39
1.182,0.02,0.06,0.98,-0.02,-0.00,-0.14,0.00,-0.00,0.00,1011.39
1.183,0.02,0.06,0.98,-0.02,-0.00,-0.14,0.00,-0.00,0.00,1011.39
1.183,0.02,0.06,0.98,-0.02,-0.00,-0.14,-0.00,-0.00,0.00,1011.39
1.184,0.02,0.06,0.98,-0.02,-0.00,-0.14,-0.00,-0.00,0.00,1011.39
1.185,0.02,0.06,0.98,0.00,0.00,-0.14,-0.00,-0.00,0.00,1011.39
1.186,0.02,0.06,0.98,-0.00,0.00,-0.14,-0.00,-0.00,0.00,1011.39
1.2,0.02,0.06,0.98,-0.00,0.00,-0.14,-0.00,-0.00,0.00,1011.39
1.24,0.01,0.06,0.98,-0.00,0.00,-0.14,-0.00,-0.00,0.00,1011.39
1.242,0.01,0.06,0.98,-0.00,0.00,-0.14,-0.00,-0.00,-0.00,1011.39
1.242,0.01,0.06,0.98,-0.03,-0.01,-0.15,-0.00,-0.00,-0.00,1011.39
1.3,0.02,0.06,0.98,-0.03,-0.01,-0.15,-0.00,-0.00,-0.00,1011.39
1.302,0.02,0.06,0.98,-0.03,-0.01,-0.15,-0.00,-0.00,-0.00,1011.39
1.302,0.02,0.06,0.98,-0.03,-0.01,-0.15,-0.00,-0.00,0.00,1011.39
1.303,0.02,0.06,0.98,-0.03,-0.01,-0.15,-0.00,-0.00,0.00,1011.39
1.303,0.02,0.06,0.98,-0.00,-0.00,-0.15,-0.00,-0.00,0.00,1011.39
1.304,0.02,0.06,0.98,0.01,0.00,-0.15,-0.00,-0.00,0.00,1011.39
1.304,0.02,0.06,0.98,0.01,0.00,-0.15,-0.00,-0.00,0.00,1011.40
1.358,0.02,0.06,0.98,0.01,0.00,-0.15,-0.00,-0.00,0.00,1011.40
1.36,0.02,0.06,0.98,0.01,0.00,-0.15,-0.00,0.00,0.00,1011.40
1.361,0.02,0.06,0.98,-0.01,0.00,-0.15,-0.00,0.00,0.00,1011.40
1.399,0.02,0.06,0.98,-0.01,0.00,-0.15,-0.00,0.00,0.00,1011.40
1.418,0.02,0.06,0.98,-0.01,0.00,-0.15,-0.00,0.00,0.00,1011.40
1.42,0.02,0.06,0.98,-0.01,0.00,-0.15,-0.00,0.00,0.00,1011.40
1.421,0.02,0.06,0.98,-0.01,0.00,-0.15,0.00,-0.00,0.00,1011.40
1.422,0.02,0.06,0.98,-0.01,0.00,-0.15,0.00,-0.00,0.00,1011.40
1.423,0.02,0.06,0.98,-0.01,0.00,-0.15,0.00,-0.00,0.00,1011.40
1.423,0.02,0.06,0.98,-0.01,0.01,-0.15,0.00,-0.00,0.00,1011.40
1.476,0.01,0.06,0.98,-0.01,0.01,-0.15,0.00,-0.00,0.00,1011.40
1.479,0.01,0.06,0.98,-0.01,0.01,-0.15,-0.00,-0.00,-0.00,1011.40
1.48,0.01,0.06,0.98,-0.04,-0.01,-0.15,-0.00,-0.00,-0.00,1011.40
1.5,0.01,0.06,0.98,-0.04,-0.01,-0.15,-0.00,-0.00,-0.00,1011.39
1.537,0.02,0.06,0.98,-0.04,-0.01,-0.15,-0.00,-0.00,-0.00,1011.39
1.539,0.02,0.07,0.98,-0.04,-0.01,-0.15,-0.00,-0.00,-0.00,1011.39
1.54,0.02,0.07,0.98,-0.04,-0.01,-0.15,-0.00,-0.00,0.00,1011.39
1.54,0.02,0.07,0.98,-0.04,-0.01,-0.15,-0.00,-0.00,0.00,1011.39
1.541,0.02,0.07,0.98,-0.02,-0.01,-0.16,-0.00,-0.00,0.00,1011.39
1.605,0.01,0.06,0.98,-0.02,-0.01,-0.16,-0.00,-0.00,0.00,1011.39
1.607,0.01,0.06,0.98,-0.02,-0.01,-0.16,-0.00,-0.00,0.00,1011.39
1.608,0.01,0.06,0.98,0.02,0.02,-0.15,-0.00,-0.00,0.00,1011.39
1.609,0.01,0.06,0.98,0.02,0.02,-0.15,-0.00,-0.00,0.00,1011.39
1.656,0.01,0.06,0.98,0.02,0.02,-0.15,-0.00,-0.00,0.00,1011.39
1.658,0.02,0.06,0.98,0.02,0.02,-0.15,-0.00,-0.00,0.00,1011.39
1.659,0.02,0.06,0.98,0.02,0.02,-0.15,-0.00,-0.00,0.00,1011.39
1.66,0.02,0.06,0.98,0.02,0.02,-0.15,-0.00,-0.00,0.00,1011.39
1.661,0.02,0.06,0.98,-0.05,-0.00,-0.15,-0.00,-0.00,0.00,1011.39
1.662,0.02,0.06,0.98,-0.04,-0.02,-0.16,-0.00,-0.00,0.00,1011.39
1.7,0.02,0.06,0.98,-0.04,-0.02,-0.16,-0.00,-0.00,0.00,1011.39
1.715,0.02,0.06,0.98,-0.04,-0.02,-0.16,-0.00,-0.00,0.00,1011.39
1.716,0.02,0.06,0.98,-0.04,-0.02,-0.16,0.00,-0.00,0.00,1011.39
1.717,0.02,0.06,0.98,0.02,0.00,-0.15,0.00,-0.00,0.00,1011.39
1.786,0.01,0.06,0.98,0.02,0.00,-0.15,0.00,-0.00,0.00,1011.39
1.787,0.01,0.06,0.98,0.02,0.00,-0.15,0.00,-0.00,0.00,1011.39
1.787,0.01,0.06,0.98,0.02,0.00,-0.15,-0.00,-0.00,0.00,1011.39
1.788,0.01,0.06,0.98,0.02,0.00,-0.15,0.00,-0.00,-0.00,1011.39
1.788,0.01,0.06,0.98,0.00,-0.01,-0.15,0.00,-0.00,-0.00,1011.39
1.789,0.01,0.06,0.98,-0.07,-0.01,-0.14,0.00,-0.00,-0.00,1011.39
1.802,0.01,0.06,0.98,-0.07,-0.01,-0.14,0.00,-0.00,-0.00,1011.38
1.833,0.02,0.06,0.98,-0.07,-0.01,-0.14,0.00,-0.00,-0.00,1011.38
1.834,0.02,0.06,0.98,-0.07,-0.01,-0.14,-0.00,0.00,0.00,1011.38
1.835,0.02,0.06,0.98,-0.04,0.00,-0.15,-0.00,0.00,0.00,1011.38
1.891,0.02,0.06,0.98,-0.04,0.00,-0.15,-0.00,0.00,0.00,1011.38
1.893,0.01,0.06,0.98,-0.04,0.00,-0.15,-0.00,0.00,0.00,1011.38
1.894,0.01,0.06,0.98,-0.04,0.00,-0.15,-0.00,-0.00,0.00,1011.38
1.894,0.01,0.06,0.98,-0.04,0.00,-0.15,-0.00,-0.00,0.00,1011.38
1.895,0.01,0.06,0.98,0.01,0.01,-0.15,-0.00,-0.00,0.00,1011.38
1.895,0.01,0.06,0.98,-0.03,-0.00,-0.15,-0.00,-0.00,0.00,1011.38
1.899,0.01,0.06,0.98,-0.03,-0.00,-0.15,-0.00,-0.00,0.00,1011.38
1.951,0.02,0.06,0.98,-0.03,-0.00,-0.15,-0.00,-0.00,0.00,1011.38
1.953,0.02,0.06,0.98,-0.03,-0.00,-0.15,0.00,-0.00,0.00,1011.38
1.954,0.02,0.06,0.98,-0.05,-0.01,-0.16,0.00,-0.00,0.00,1011.38
2.002,0.02,0.06,0.98,-0.05,-0.01,-0.16,0.00,-0.00,0.00,1011.38
2.013,0.02,0.06,0.98,-0.05,-0.01,-0.16,0.00,-0.00,0.00,1011.38
2.015,0.02,0.06,0.98,-0.05,-0.01,-0.16,0.00,-0.00,0.00,1011.38
2.016,0.02,0.06,0.98,-0.05,-0.01,-0.16,-0.00,-0.00,0.00,1011.38
2.017,0.02,0.06,0.98,-0.05,-0.01,-0.16,0.00,-0.00,-0.00,1011.38
2.018,0.02,0.06,0.98,-0.00,0.00,-0.15,0.00,-0.00,-0.00,1011.38
2.019,0.02,0.06,0.98,0.01,0.01,-0.14,0.00,-0.00,-0.00,1011.38
2.069,0.01,0.06,0.98,0.01,0.01,-0.14,0.00,-0.00,-0.00,1011.38
2.072,0.01,0.06,0.98,0.01,0.01,-0.14,-0.00,-0.00,0.00,1011.38
2.073,0.01,0.06,0.98,-0.03,-0.01,-0.15,-0.00,-0.00,0.00,1011.38
2.1,0.01,0.06,0.98,-0.03,-0.01,-0.15,-0.00,-0.00,0.00,1011.38
2.13,0.02,0.06,0.98,-0.03,-0.01,-0.15,-0.00,-0.00,0.00,1011.38
2.132,0.02,0.06,0.98,-0.03,-0.01,-0.15,-0.00,-0.00,0.00,1011.38
2.133,0.02,0.06,0.98,-0.03,-0.01,-0.15,-0.00,-0.00,-0.00,1011.38
2.135,0.02,0.06,0.98,-0.03,-0.01,-0.15,0.00,0.00,0.00,1011.38
2.137,0.02,0.06,0.98,-0.04,-0.02,-0.15,0.00,0.00,0.00,1011.38
2.138,0.02,0.06,0.98,0.01,-0.01,-0.16,0.00,0.00,0.00,1011.38
2.186,0.01,0.06,0.98,0.01,-0.01,-0.16,0.00,0.00,0.00,1011.38
2.188,0.01,0.06,0.98,0.01,-0.01,-0.16,-0.00,-0.00,0.00,1011.38
2.19,0.01,0.06,0.98,-0.01,-0.01,-0.15,-0.00,-0.00,0.00,1011.38
2.201,0.01,0.06,0.98,-0.01,-0.01,-0.15,-0.00,-0.00,0.00,1011.39
2.247,0.02,0.06,0.98,-0.01,-0.01,-0.15,-0.00,-0.00,0.00,1011.39
2.249,0.02,0.06,0.98,-0.01,-0.01,-0.15,-0.00,-0.00,0.00,1011.39
2.251,0.02,0.06,0.98,-0.01,-0.01,-0.15,0.00,-0.00,0.00,1011.39
2.253,0.02,0.06,0.98,-0.01,-0.01,-0.15,0.00,0.00,0.00,1011.39
2.254,0.02,0.06,0.98,-0.04,-0.02,-0.14,0.00,0.00,0.00,1011.39
2.256,0.02,0.06,0.98,-0.01,-0.01,-0.14,0.00,0.00,0.00,1011.39
2.298,0.02,0.06,0.98,-0.01,-0.01,-0.14,0.00,0.00,0.00,1011.39
2.305,0.01,0.06,0.98,-0.01,-0.01,-0.14,0.00,0.00,0.00,1011.39
2.306,0.01,0.06,0.98,-0.01,-0.01,-0.14,-0.00,-0.00,-0.00,1011.39
2.307,0.01,0.06,0.98,-0.01,-0.00,-0.14,-0.00,-0.00,-0.00,1011.39
2.365,0.01,0.06,0.98,-0.01,-0.00,-0.14,-0.00,-0.00,-0.00,1011.39
2.367,0.02,0.06,0.98,-0.01,-0.00,-0.14,-0.00,-0.00,-0.00,1011.39
2.368,0.02,0.06,0.98,-0.01,-0.00,-0.14,-0.00,-0.00,-0.00,1011.39
2.368,0.02,0.06,0.98,-0.01,-0.00,-0.14,0.00,-0.00,0.00,1011.39
2.369,0.02,0.06,0.98,-0.05,-0.01,-0.15,0.00,-0.00,0.00,1011.39
2.37,0.02,0.06,0.98,-0.04,-0.01,-0.15,0.00,-0.00,0.00,1011.39
2.398,0.02,0.06,0.98,-0.04,-0.01,-0.15,0.00,-0.00,0.00,1011.39
2.423,0.02,0.06,0.98,-0.04,-0.01,-0.15,0.00,-0.00,0.00,1011.39
2.425,0.02,0.06,0.98,-0.04,-0.01,-0.15,-0.00,-0.00,0.00,1011.39
2.426,0.02,0.06,0.98,0.00,-0.00,-0.15,-0.00,-0.00,0.00,1011.39
2.483,0.01,0.06,0.98,0.00,-0.00,-0.15,-0.00,-0.00,0.00,1011.39
2.485,0.02,0.06,0.98,0.00,-0.00,-0.15,-0.00,-0.00,0.00,1011.39
2.486,0.02,0.06,0.98,0.00,-0.00,-0.15,0.00,0.00,0.00,1011.39
2.487,0.02,0.06,0.98,0.00,-0.00,-0.15,0.00,0.00,0.00,1011.39
2.488,0.02,0.06,0.98,-0.02,0.00,-0.15,0.00,0.00,0.00,1011.39
2.489,0.02,0.06,0.98,-0.04,-0.00,-0.14,0.00,0.00,0.00,1011.39
2.502,0.02,0.06,0.98,-0.04,-0.00,-0.14,0.00,0.00,0.00,1011.39
2.541,0.02,0.06,0.98,-0.04,-0.00,-0.14,0.00,0.00,0.00,1011.39
2.543,0.02,0.06,0.98,-0.04,-0.00,-0.14,-0.00,-0.00,-0.00,1011.39
2.543,0.02,0.06,0.98,-0.01,-0.01,-0.14,-0.00,-0.00,-0.00,1011.39
2.598,0.02,0.06,0.98,-0.01,-0.01,-0.14,-0.00,-0.00,-0.00,1011.38
2.602,0.02,0.06,0.98,-0.01,-0.01,-0.14,0.00,-0.00,0.00,1011.38
2.606,0.02,0.06,0.98,-0.01,-0.01,-0.14,0.00,-0.00,0.00,1011.38
2.61,0.01,0.06,0.98,-0.01,-0.01,-0.14,0.00,-0.00,0.00,1011.38
2.612,0.01,0.06,0.98,-0.01,-0.01,-0.14,-0.00,-0.00,0.00,1011.38
2.613,0.01,0.06,0.98,-0.00,-0.01,-0.15,-0.00,-0.00,0.00,1011.38
2.615,0.01,0.06,0.98,-0.03,-0.00,-0.15,-0.00,-0.00,0.00,1011.38
2.659,0.02,0.06,0.99,-0.03,-0.00,-0.15,-0.00,-0.00,0.00,1011.38
2.662,0.02,0.06,0.99,-0.03,-0.00,-0.15,-0.00,-0.00,0.00,1011.38
2.663,0.02,0.06,0.99,-0.03,0.00,-0.13,-0.00,-0.00,0.00,1011.38
2.698,0.02,0.06,0.99,-0.03,0.00,-0.13,-0.00,-0.00,0.00,1011.39
2.719,0.02,0.06,0.98,-0.03,0.00,-0.13,-0.00,-0.00,0.00,1011.39
2.72,0.02,0.06,0.98,-0.03,0.00,-0.13,-0.00,-0.00,0.00,1011.39
2.722,0.02,0.06,0.98,-0.03,0.00,-0.13,0.00,-0.00,0.00,1011.39
2.723,0.02,0.06,0.98,-0.03,0.00,-0.13,-0.00,0.00,-0.00,1011.39
2.723,0.02,0.06,0.98,-0.02,-0.00,-0.13,-0.00,0.00,-0.00,1011.39
2.725,0.02,0.06,0.98,-0.02,-0.01,-0.15,-0.00,0.00,-0.00,1011.39
2.777,0.01,0.06,0.98,-0.02,-0.01,-0.15,-0.00,0.00,-0.00,1011.39
2.779,0.01,0.06,0.98,-0.02,-0.01,-0.15,-0.00,-0.00,0.00,1011.39
2.779,0.01,0.06,0.98,-0.04,-0.01,-0.16,-0.00,-0.00,0.00,1011.39
2.796,0.01,0.06,0.98,-0.04,-0.01,-0.16,-0.00,-0.00,0.00,1011.39
2.838,0.02,0.06,0.98,-0.04,-0.01,-0.16,-0.00,-0.00,0.00,1011.39
2.839,0.02,0.06,0.98,-0.04,-0.01,-0.16,-0.00,-0.00,0.00,1011.39
2.84,0.02,0.06,0.98,-0.04,-0.01,-0.16,-0.00,-0.00,0.00,1011.39
2.841,0.02,0.06,0.98,-0.04,-0.01,-0.16,0.00,-0.00,0.00,1011.39
2.841,0.02,0.06,0.98,-0.04,-0.01,-0.15,0.00,-0.00,0.00,1011.39
2.842,0.02,0.06,0.98,-0.01,-0.00,-0.15,0.00,-0.00,0.00,1011.39
2.896,0.01,0.06,0.98,-0.01,-0.00,-0.15,0.00,-0.00,0.00,1011.39
2.899,0.01,0.06,0.98,-0.01,-0.00,-0.15,-0.00,-0.00,0.00,1011.39
2.9,0.01,0.06,0.98,-0.03,-0.00,-0.15,-0.00,-0.00,0.00,1011.39
2.9,0.01,0.06,0.98,-0.03,-0.00,-0.15,-0.00,-0.00,0.00,1011.38
2.955,0.02,0.06,0.98,-0.03,-0.00,-0.15,-0.00,-0.00,0.00,1011.38
2.958,0.02,0.06,0.98,-0.03,-0.00,-0.15,-0.00,-0.00,0.00,1011.38
2.959,0.02,0.06,0.98,-0.03,-0.00,-0.15,-0.00,-0.00,0.00,1011.38
2.96,0.02,0.06,0.98,-0.03,-0.00,-0.15,-0.00,-0.00,0.00,1011.38
2.96,0.02,0.06,0.98,-0.04,-0.01,-0.15,-0.00,-0.00,0.00,1011.38
2.962,0.02,0.06,0.98,-0.02,-0.00,-0.16,-0.00,-0.00,0.00,1011.38
3.007,0.02,0.06,0.98,-0.02,-0.00,-0.16,-0.00,-0.00,0.00,1011.38
3.03,0.02,0.06,0.98,-0.02,-0.00,-0.16,-0.00,-0.00,0.00,1011.38
3.032,0.02,0.06,0.98,-0.02,-0.00,-0.16,-0.00,-0.00,-0.00,1011.38
3.033,0.02,0.06,0.98,-0.02,0.00,-0.16,-0.00,-0.00,-0.00,1011.38
3.072,0.01,0.06,0.98,-0.02,0.00,-0.16,-0.00,-0.00,-0.00,1011.38
3.075,0.02,0.06,0.98,-0.02,0.00,-0.16,-0.00,-0.00,-0.00,1011.38
3.076,0.02,0.06,0.98,-0.02,0.00,-0.16,-0.00,-0.00,0.00,1011.38
3.076,0.02,0.06,0.98,-0.02,0.00,-0.16,-0.00,-0.00,0.00,1011.38
3.077,0.02,0.06,0.98,-0.04,-0.01,-0.15,-0.00,-0.00,0.00,1011.38
3.078,0.02,0.06,0.98,-0.02,-0.01,-0.15,-0.00,-0.00,0.00,1011.38
3.094,0.02,0.06,0.98,-0.02,-0.01,-0.15,-0.00,-0.00,0.00,1011.37
3.146,0.02,0.06,0.98,-0.02,-0.01,-0.15,-0.00,-0.00,0.00,1011.37
3.149,0.02,0.06,0.98,-0.02,-0.01,-0.15,0.00,-0.00,-0.00,1011.37
3.15,0.02,0.06,0.98,-0.01,-0.01,-0.15,0.00,-0.00,-0.00,1011.37
3.191,0.01,0.06,0.98,-0.01,-0.01,-0.15,0.00,-0.00,-0.00,1011.37
3.193,0.02,0.06,0.98,-0.01,-0.01,-0.15,0.00,-0.00,-0.00,1011.37
3.194,0.02,0.06,0.98,-0.01,-0.01,-0.15,-0.00,-0.00,0.00,1011.37
3.194,0.02,0.06,0.98,-0.01,-0.01,-0.15,0.00,0.00,0.00,1011.37
3.195,0.02,0.06,0.98,-0.03,0.00,-0.16,0.00,0.00,0.00,1011.37
3.195,0.02,0.06,0.98,-0.03,0.00,-0.16,0.00,0.00,0.00,1011.37
3.196,0.02,0.06,0.98,-0.03,0.00,-0.16,0.00,0.00,0.00,1011.37
3.249,0.02,0.06,0.98,-0.03,0.00,-0.16,0.00,0.00,0.00,1011.37
3.25,0.02,0.06,0.98,-0.03,0.00,-0.16,-0.00,0.00,0.00,1011.37
3.252,0.02,0.06,0.98,-0.02,-0.00,-0.16,-0.00,0.00,0.00,1011.37
3.294,0.02,0.06,0.98,-0.02,-0.00,-0.16,-0.00,0.00,0.00,1011.38
3.314,0.02,0.06,0.98,-0.02,-0.00,-0.16,-0.00,0.00,0.00,1011.38
3.316,0.02,0.06,0.98,-0.02,-0.00,-0.16,-0.00,0.00,0.00,1011.38
3.317,0.02,0.06,0.98,-0.02,-0.00,-0.16,-0.00,0.00,0.00,1011.38
3.318,0.02,0.06,0.98,-0.02,-0.00,-0.16,0.00,0.00,-0.00,1011.38
3.319,0.02,0.06,0.98,-0.02,0.00,-0.15,0.00,0.00,-0.00,1011.38
3.32,0.02,0.06,0.98,-0.02,0.00,-0.15,0.00,0.00,-0.00,1011.38
3.366,0.01,0.06,0.98,-0.02,0.00,-0.15,0.00,0.00,-0.00,1011.38
3.368,0.01,0.06,0.98,-0.02,0.00,-0.15,-0.00,-0.00,0.00,1011.38
3.37,0.01,0.06,0.98,-0.04,0.00,-0.15,-0.00,-0.00,0.00,1011.38
3.394,0.01,0.06,0.98,-0.04,0.00,-0.15,-0.00,-0.00,0.00,1011.37
3.443,0.02,0.06,0.98,-0.04,0.00,-0.15,-0.00,-0.00,0.00,1011.37
3.447,0.02,0.06,0.98,-0.04,0.00,-0.15,-0.00,-0.00,0.00,1011.37
3.449,0.02,0.06,0.98,-0.04,0.00,-0.15,-0.00,0.00,-0.00,1011.37
3.45,0.02,0.06,0.98,-0.04,0.00,-0.15,-0.00,-0.00,0.00,1011.37
3.451,0.02,0.06,0.98,-0.03,0.00,-0.15,-0.00,-0.00,0.00,1011.37
3.454,0.02,0.06,0.98,-0.02,0.00,-0.14,-0.00,-0.00,0.00,1011.37
3.484,0.02,0.06,0.98,-0.02,0.00,-0.14,-0.00,-0.00,0.00,1011.37
3.486,0.02,0.06,0.98,-0.02,0.00,-0.14,-0.00,-0.00,0.00,1011.37
3.487,0.02,0.06,0.98,-0.03,-0.00,-0.15,-0.00,-0.00,0.00,1011.37
3.494,0.02,0.06,0.98,-0.03,-0.00,-0.15,-0.00,-0.00,0.00,1011.37
3.545,0.02,0.06,0.98,-0.03,-0.00,-0.15,-0.00,-0.00,0.00,1011.37
3.546,0.02,0.06,0.98,-0.03,-0.00,-0.15,-0.00,-0.00,0.00,1011.37
3.548,0.02,0.06,0.98,-0.03,-0.00,-0.15,0.00,0.00,0.00,1011.37
3.548,0.02,0.06,0.98,-0.03,-0.00,-0.15,-0.00,0.00,0.00,1011.37
3.549,0.02,0.06,0.98,-0.03,0.01,-0.15,-0.00,0.00,0.00,1011.37
3.55,0.02,0.06,0.98,-0.03,0.00,-0.15,-0.00,0.00,0.00,1011.37
3.596,0.02,0.06,0.98,-0.03,0.00,-0.15,-0.00,0.00,0.00,1011.38
3.604,0.02,0.06,0.98,-0.03,0.00,-0.15,-0.00,0.00,0.00,1011.38
3.606,0.02,0.06,0.98,-0.03,0.00,-0.15,0.00,-0.00,-0.00,1011.38
3.607,0.02,0.06,0.98,-0.03,0.01,-0.14,0.00,-0.00,-0.00,1011.38
3.664,0.02,0.06,0.98,-0.03,0.01,-0.14,0.00,-0.00,-0.00,1011.38
3.667,0.02,0.06,0.98,-0.03,0.01,-0.14,0.00,-0.00,-0.00,1011.38
3.669,0.02,0.06,0.98,-0.03,0.01,-0.14,-0.00,0.00,0.00,1011.38
3.67,0.02,0.06,0.98,-0.03,0.01,-0.14,-0.00,-0.00,0.00,1011.38
3.671,0.02,0.06,0.98,-0.03,-0.00,-0.14,-0.00,-0.00,0.00,1011.38
3.673,0.02,0.06,0.98,-0.02,0.00,-0.15,-0.00,-0.00,0.00,1011.38
3.702,0.02,0.06,0.98,-0.02,0.00,-0.15,-0.00,-0.00,0.00,1011.38
3.731,0.02,0.06,0.98,-0.02,0.00,-0.15,-0.00,-0.00,0.00,1011.38
3.736,0.02,0.06,0.98,-0.02,0.00,-0.15,0.00,-0.00,0.00,1011.38
3.737,0.02,0.06,0.98,-0.03,0.00,-0.15,0.00,-0.00,0.00,1011.38
3.781,0.01,0.06,0.98,-0.03,0.00,-0.15,0.00,-0.00,0.00,1011.38
3.783,0.02,0.06,0.98,-0.03,0.00,-0.15,0.00,-0.00,0.00,1011.38
3.783,0.02,0.06,0.98,-0.03,0.00,-0.15,-0.00,-0.00,0.00,1011.38
3.784,0.02,0.06,0.98,-0.03,0.00,-0.15,-0.00,-0.00,0.00,1011.38
3.785,0.02,0.06,0.98,-0.05,0.01,-0.15,-0.00,-0.00,0.00,1011.38
3.785,0.02,0.06,0.98,-0.04,0.01,-0.15,-0.00,-0.00,0.00,1011.38
3.791,0.02,0.06,0.98,-0.04,0.01,-0.15,-0.00,-0.00,0.00,1011.38
3.846,0.02,0.06,0.98,-0.04,0.01,-0.15,-0.00,-0.00,0.00,1011.38
3.848,0.02,0.06,0.98,-0.04,0.01,-0.15,-0.00,-0.00,0.00,1011.38
3.849,0.02,0.06,0.98,-0.03,-0.00,-0.15,-0.00,-0.00,0.00,1011.38
3.891,0.02,0.06,0.98,-0.03,-0.00,-0.15,-0.00,-0.00,0.00,1011.38
3.899,0.02,0.06,0.98,-0.03,-0.00,-0.15,-0.00,-0.00,0.00,1011.38
3.9,0.01,0.06,0.98,-0.03,-0.00,-0.15,-0.00,-0.00,0.00,1011.38
3.901,0.01,0.06,0.98,-0.03,-0.00,-0.15,0.00,0.00,0.00,1011.38
3.901,0.01,0.06,0.98,-0.03,-0.00,-0.15,0.00,-0.00,0.00,1011.38
3.902,0.01,0.06,0.98,-0.03,-0.01,-0.15,0.00,-0.00,0.00,1011.38
3.903,0.01,0.06,0.98,-0.05,-0.00,-0.16,0.00,-0.00,0.00,1011.38
3.959,0.02,0.06,0.98,-0.05,-0.00,-0.16,0.00,-0.00,0.00,1011.38
3.963,0.02,0.06,0.98,-0.05,-0.00,-0.16,0.00,0.00,0.00,1011.38
3.965,0.02,0.06,0.98,-0.02,-0.00,-0.15,0.00,0.00,0.00,1011.38
4.004,0.02,0.06,0.98,-0.02,-0.00,-0.15,0.00,0.00,0.00,1011.38
4.017,0.02,0.06,0.98,-0.02,-0.00,-0.15,0.00,0.00,0.00,1011.38
4.02,0.01,0.06,0.98,-0.02,-0.00,-0.15,0.00,0.00,0.00,1011.38
4.021,0.01,0.06,0.98,-0.02,-0.00,-0.15,-0.00,-0.00,0.00,1011.38
4.022,0.01,0.06,0.98,-0.02,-0.00,-0.15,0.00,0.00,0.00,1011.38
4.023,0.01,0.06,0.98,-0.02,-0.01,-0.14,0.00,0.00,0.00,1011.38
4.024,0.01,0.06,0.98,-0.04,-0.02,-0.13,0.00,0.00,0.00,1011.38
4.077,0.01,0.06,0.98,-0.04,-0.02,-0.13,0.00,-0.00,0.00,1011.38
4.079,0.01,0.06,0.98,-0.04,-0.02,-0.13,0.00,-0.00,0.00,1011.38
4.091,0.01,0.06,0.98,-0.04,-0.02,-0.13,0.00,-0.00,0.00,1011.39
4.137,0.02,0.06,0.98,-0.04,-0.02,-0.13,0.00,-0.00,0.00,1011.39
4.142,0.02,0.06,0.98,-0.04,-0.02,-0.13,0.00,-0.00,0.00,1011.39
4.145,0.02,0.06,0.98,-0.04,-0.02,-0.13,0.00,-0.00,0.00,1011.39
4.146,0.02,0.06,0.98,-0.04,-0.02,-0.13,-0.00,-0.00,-0.00,1011.39
4.147,0.02,0.06,0.98,-0.04,-0.01,-0.15,-0.00,-0.00,-0.00,1011.39
4.148,0.02,0.06,0.98,-0.02,0.01,-0.14,-0.00,-0.00,-0.00,1011.39
4.192,0.02,0.06,0.98,-0.02,0.01,-0.14,-0.00,-0.00,-0.00,1011.38
4.194,0.01,0.06,0.98,-0.02,0.01,-0.14,-0.00,-0.00,-0.00,1011.38
4.195,0.01,0.06,0.98,-0.02,0.01,-0.14,-0.00,-0.00,-0.00,1011.38
4.197,0.01,0.06,0.98,-0.02,-0.00,-0.14,-0.00,-0.00,-0.00,1011.38
4.265,0.01,0.06,0.98,-0.02,-0.00,-0.14,-0.00,-0.00,-0.00,1011.38
4.269,0.02,0.06,0.98,-0.02,-0.00,-0.14,-0.00,-0.00,-0.00,1011.38
4.271,0.02,0.06,0.98,-0.02,-0.00,-0.14,-0.00,-0.00,0.00,1011.38
4.272,0.02,0.06,0.98,-0.02,-0.00,-0.14,-0.00,0.00,-0.00,1011.38
4.274,0.02,0.06,0.98,-0.05,-0.00,-0.15,-0.00,0.00,-0.00,1011.38
4.276,0.02,0.06,0.98,-0.05,-0.00,-0.16,-0.00,0.00,-0.00,1011.38
4.291,0.02,0.06,0.98,-0.05,-0.00,-0.16,-0.00,0.00,-0.00,1011.39
4.311,0.02,0.06,0.98,-0.05,-0.00,-0.16,-0.00,0.00,-0.00,1011.39
4.313,0.02,0.06,0.98,-0.05,-0.00,-0.16,-0.00,-0.00,0.00,1011.39
4.314,0.02,0.06,0.98,-0.02,0.01,-0.15,-0.00,-0.00,0.00,1011.39
4.375,0.01,0.06,0.98,-0.02,0.01,-0.15,-0.00,-0.00,0.00,1011.39
4.379,0.02,0.06,0.98,-0.02,0.01,-0.15,-0.00,-0.00,0.00,1011.39
4.381,0.02,0.06,0.98,-0.02,0.01,-0.15,0.00,0.00,0.00,1011.39
4.382,0.02,0.06,0.98,-0.02,0.01,-0.15,-0.00,0.00,0.00,1011.39
4.383,0.02,0.06,0.98,-0.03,0.01,-0.14,-0.00,0.00,0.00,1011.39
4.385,0.02,0.06,0.98,-0.04,-0.01,-0.15,-0.00,0.00,0.00,1011.39
4.391,0.02,0.06,0.98,-0.04,-0.01,-0.15,-0.00,0.00,0.00,1011.39
4.431,0.02,0.06,0.98,-0.04,-0.01,-0.15,-0.00,0.00,0.00,1011.39
4.433,0.02,0.06,0.98,-0.04,-0.01,-0.15,-0.00,0.00,0.00,1011.39
4.435,0.02,0.06,0.98,-0.01,-0.00,-0.15,-0.00,0.00,0.00,1011.39
4.49,0.01,0.06,0.98,-0.01,-0.00,-0.15,-0.00,0.00,0.00,1011.39
4.492,0.02,0.06,0.98,-0.01,-0.00,-0.15,-0.00,0.00,0.00,1011.39
4.493,0.02,0.06,0.98,-0.01,-0.00,-0.15,0.00,-0.00,0.00,1011.39
4.494,0.02,0.06,0.98,-0.01,-0.00,-0.15,0.00,0.00,-0.00,1011.39
4.495,0.02,0.06,0.98,-0.02,0.01,-0.14,0.00,0.00,-0.00,1011.39
4.495,0.02,0.06,0.98,-0.05,0.01,-0.14,0.00,0.00,-0.00,1011.39
4.496,0.02,0.06,0.98,-0.05,0.01,-0.14,0.00,0.00,-0.00,1011.39
4.549,0.02,0.06,0.98,-0.05,0.01,-0.14,0.00,0.00,-0.00,1011.39
4.551,0.02,0.06,0.98,-0.05,0.01,-0.14,0.00,0.00,-0.00,1011.39
4.552,0.02,0.06,0.98,-0.03,-0.00,-0.14,0.00,0.00,-0.00,1011.39
4.59,0.02,0.06,0.98,-0.03,-0.00,-0.14,0.00,0.00,-0.00,1011.39
4.607,0.02,0.06,0.98,-0.03,-0.00,-0.14,-0.00,-0.00,-0.00,1011.39
4.61,0.01,0.06,0.98,-0.03,-0.00,-0.14,-0.00,-0.00,-0.00,1011.39
4.611,0.01,0.06,0.98,-0.03,-0.00,-0.14,-0.00,-0.00,-0.00,1011.39
4.612,0.01,0.06,0.98,-0.03,-0.00,-0.14,-0.00,0.00,-0.00,1011.39
4.616,0.01,0.06,0.98,-0.01,0.00,-0.15,-0.00,0.00,-0.00,1011.39
4.617,0.01,0.06,0.98,-0.05,-0.01,-0.15,-0.00,0.00,-0.00,1011.39
4.667,0.02,0.06,0.98,-0.05,-0.01,-0.15,-0.00,0.00,-0.00,1011.39
4.669,0.02,0.06,0.98,-0.05,-0.01,-0.15,-0.00,-0.00,0.00,1011.39
4.669,0.02,0.06,0.98,-0.04,-0.01,-0.16,-0.00,-0.00,0.00,1011.39
4.69,0.02,0.06,0.98,-0.04,-0.01,-0.16,-0.00,-0.00,0.00,1011.40
4.728,0.02,0.06,0.98,-0.04,-0.01,-0.16,-0.00,-0.00,0.00,1011.40
4.731,0.02,0.06,0.98,-0.04,-0.01,-0.16,-0.00,-0.00,0.00,1011.40
4.737,0.02,0.06,0.98,-0.04,-0.01,-0.16,-0.00,-0.00,0.00,1011.40
4.739,0.02,0.06,0.98,-0.04,-0.01,-0.16,-0.00,-0.00,0.00,1011.40
4.741,0.02,0.06,0.98,-0.03,-0.00,-0.15,-0.00,-0.00,0.00,1011.40
4.743,0.02,0.06,0.98,-0.03,0.00,-0.15,-0.00,-0.00,0.00,1011.40
4.785,0.01,0.06,0.98,-0.03,0.00,-0.15,-0.00,-0.00,0.00,1011.40
4.789,0.01,0.06,0.98,-0.03,0.00,-0.15,-0.00,-0.00,-0.00,1011.40
4.79,0.01,0.06,0.98,-0.04,0.00,-0.15,-0.00,-0.00,-0.00,1011.40
4.791,0.01,0.06,0.98,-0.04,0.00,-0.15,-0.00,-0.00,-0.00,1011.40
4.844,0.02,0.06,0.98,-0.04,0.00,-0.15,-0.00,-0.00,-0.00,1011.40
4.846,0.02,0.06,0.98,-0.04,0.00,-0.15,-0.00,-0.00,-0.00,1011.40
4.847,0.02,0.06,0.98,-0.04,0.00,-0.15,0.00,-0.00,0.00,1011.40
4.847,0.02,0.06,0.98,-0.04,0.00,-0.15,-0.00,-0.00,-0.00,1011.40
4.848,0.02,0.06,0.98,-0.05,0.00,-0.15,-0.00,-0.00,-0.00,1011.40
4.848,0.02,0.06,0.98,-0.03,0.00,-0.14,-0.00,-0.00,-0.00,1011.40
4.889,0.02,0.06,0.98,-0.03,0.00,-0.14,-0.00,-0.00,-0.00,1011.39
4.904,0.02,0.06,0.98,-0.03,0.00,-0.14,-0.00,-0.00,-0.00,1011.39
4.908,0.02,0.06,0.98,-0.03,0.00,-0.14,0.00,0.01,0.00,1011.39
4.909,0.02,0.06,0.98,-0.02,-0.00,-0.15,0.00,0.01,0.00,1011.39
4.963,0.01,0.06,0.99,-0.02,-0.00,-0.15,0.00,0.01,0.00,1011.39
4.965,0.02,0.06,0.98,-0.02,-0.00,-0.15,0.00,0.01,0.00,1011.39
4.966,0.02,0.06,0.98,-0.02,-0.00,-0.15,-0.00,-0.02,-0.00,1011.39
4.967,0.02,0.06,0.98,-0.02,-0.00,-0.15,0.00,0.00,-0.00,1011.39
4.967,0.02,0.06,0.98,-0.04,-0.00,-0.14,0.00,0.00,-0.00,1011.39
4.968,0.02,0.06,0.98,-0.04,0.00,-0.13,0.00,0.00,-0.00,1011.39
4.988,0.02,0.06,0.98,-0.04,0.00,-0.13,0.00,0.00,-0.00,1011.39
5.021,0.02,0.06,0.99,-0.04,0.00,-0.13,0.00,0.00,-0.00,1011.39
5.022,0.02,0.06,0.99,-0.04,0.00,-0.13,-0.00,-0.00,-0.00,1011.39
5.023,0.02,0.06,0.99,-0.02,0.01,-0.13,-0.00,-0.00,-0.00,1011.39
5.095,0.02,0.06,0.99,-0.02,0.01,-0.13,-0.00,0.00,0.00,1011.39
5.099,0.01,0.06,0.98,-0.02,0.01,-0.13,-0.00,0.00,0.00,1011.39
5.101,0.02,0.06,0.98,-0.02,0.01,-0.13,-0.00,0.00,0.00,1011.39
5.103,0.02,0.06,0.98,-0.02,0.01,-0.13,0.00,-0.00,-0.00,1011.39
5.105,0.02,0.06,0.98,-0.04,0.01,-0.13,0.00,-0.00,-0.00,1011.39
5.106,0.02,0.06,0.98,-0.04,0.01,-0.15,0.00,-0.00,-0.00,1011.39
5.108,0.02,0.06,0.98,-0.04,0.01,-0.15,0.00,-0.00,-0.00,1011.39
5.139,0.02,0.06,0.98,-0.04,0.01,-0.15,0.00,-0.00,-0.00,1011.39
5.14,0.02,0.06,0.98,-0.04,0.01,-0.15,0.00,0.00,-0.02,1011.39
5.141,0.02,0.06,0.98,-0.03,-0.00,-0.15,0.00,0.00,-0.02,1011.39
5.187,0.02,0.06,0.98,-0.03,-0.00,-0.15,0.00,0.00,-0.02,1011.39
5.199,0.02,0.06,0.99,-0.03,-0.00,-0.15,0.00,0.00,-0.02,1011.39
5.202,0.01,0.06,0.98,-0.03,-0.00,-0.15,0.00,0.00,-0.02,1011.39
5.203,0.01,0.06,0.98,-0.03,-0.00,-0.15,-0.01,-0.04,-0.07,1011.39
5.205,0.01,0.06,0.98,-0.03,-0.00,-0.15,-0.00,-0.00,-0.03,1011.39
5.206,0.01,0.06,0.98,-0.02,-0.03,-0.14,-0.00,-0.00,-0.03,1011.39
5.213,0.01,0.06,0.98,-0.06,-0.03,-0.13,-0.00,-0.00,-0.03,1011.39
5.257,0.02,0.07,0.98,-0.06,-0.03,-0.13,-0.00,-0.00,-0.03,1011.39
5.259,0.02,0.07,0.98,-0.06,-0.03,-0.13,0.00,0.02,-0.00,1011.39
5.26,0.02,0.07,0.98,-0.05,0.03,-0.16,0.00,0.02,-0.00,1011.39
5.287,0.02,0.07,0.98,-0.05,0.03,-0.16,0.00,0.02,-0.00,1011.39
5.317,0.02,0.06,0.98,-0.05,0.03,-0.16,0.00,0.02,-0.00,1011.39
5.32,0.01,0.06,0.98,-0.05,0.03,-0.16,0.00,0.02,-0.00,1011.39
5.322,0.01,0.06,0.98,-0.05,0.03,-0.16,-0.00,-0.02,-0.00,1011.39
5.323,0.01,0.06,0.98,-0.05,0.03,-0.16,-0.00,-0.01,-0.00,1011.39
5.323,0.01,0.06,0.98,0.00,0.04,-0.16,-0.00,-0.01,-0.00,1011.39
5.325,0.01,0.06,0.98,-0.03,0.00,-0.15,-0.00,-0.01,-0.00,1011.39
5.376,0.02,0.06,0.98,-0.03,0.00,-0.15,-0.00,-0.01,-0.00,1011.39
5.378,0.02,0.06,0.98,-0.03,0.00,-0.15,-0.00,-0.01,0.00,1011.39
5.379,0.02,0.06,0.98,-0.05,-0.00,-0.16,-0.00,-0.01,0.00,1011.39
5.387,0.02,0.06,0.98,-0.05,-0.00,-0.16,-0.00,-0.01,0.00,1011.38
5.435,0.02,0.06,0.98,-0.05,-0.00,-0.16,-0.00,-0.01,0.00,1011.38
5.438,0.02,0.06,0.98,-0.05,-0.00,-0.16,-0.00,-0.01,0.00,1011.38
5.438,0.02,0.06,0.98,-0.05,-0.00,-0.16,0.00,0.01,-0.00,1011.38
5.439,0.02,0.06,0.98,-0.05,-0.00,-0.16,0.00,0.02,0.00,1011.38
5.439,0.02,0.06,0.98,-0.04,-0.00,-0.16,0.00,0.02,0.00,1011.38
5.44,0.02,0.06,0.98,-0.01,0.00,-0.15,0.00,0.02,0.00,1011.38
5.487,0.02,0.06,0.98,-0.01,0.00,-0.15,0.00,0.02,0.00,1011.37
5.495,0.02,0.06,0.98,-0.01,0.00,-0.15,0.00,0.02,0.00,1011.37
5.496,0.02,0.06,0.98,-0.01,0.00,-0.15,-0.00,-0.02,-0.09,1011.37
5.497,0.02,0.06,0.98,0.00,-0.03,-0.14,-0.00,-0.02,-0.09,1011.37
5.553,0.02,0.04,0.98,0.00,-0.03,-0.14,-0.00,-0.02,-0.09,1011.37
5.555,0.01,0.08,0.98,0.00,-0.03,-0.14,-0.00,-0.02,-0.09,1011.37
5.556,0.01,0.08,0.98,0.00,-0.03,-0.14,-0.00,0.00,-0.13,1011.37
5.557,0.01,0.08,0.98,0.00,-0.03,-0.14,-0.00,0.00,-0.02,1011.37
5.557,0.01,0.08,0.98,0.00,-0.15,-0.14,-0.00,0.00,-0.02,1011.37
5.558,0.01,0.08,0.98,-0.06,0.01,-0.15,-0.00,0.00,-0.02,1011.37
5.585,0.01,0.08,0.98,-0.06,0.01,-0.15,-0.00,0.00,-0.02,1011.37
5.613,0.01,0.07,0.98,-0.06,0.01,-0.15,-0.00,0.00,-0.02,1011.37
5.616,0.01,0.07,0.98,-0.06,0.01,-0.15,0.00,0.02,-0.00,1011.37
5.617,0.01,0.07,0.98,-0.07,0.13,-0.16,0.00,0.02,-0.00,1011.37
5.671,0.01,0.06,0.98,-0.07,0.13,-0.16,0.00,0.02,-0.00,1011.37
5.674,0.01,0.06,0.98,-0.07,0.13,-0.16,0.00,0.02,-0.00,1011.37
5.674,0.01,0.06,0.98,-0.07,0.13,-0.16,0.00,-0.01,0.00,1011.37
5.675,0.01,0.06,0.98,-0.07,0.13,-0.16,-0.00,-0.02,-0.03,1011.37
5.675,0.01,0.06,0.98,-0.03,0.04,-0.15,-0.00,-0.02,-0.03,1011.37
5.676,0.01,0.06,0.98,-0.05,-0.02,-0.15,-0.00,-0.02,-0.03,1011.37
5.685,0.01,0.06,0.98,-0.05,-0.02,-0.15,-0.00,-0.02,-0.03,1011.37
5.73,0.02,0.06,0.98,-0.05,-0.02,-0.15,-0.00,-0.02,-0.03,1011.37
5.731,0.02,0.06,0.98,-0.05,-0.02,-0.15,-0.00,0.02,-0.02,1011.37
5.732,0.02,0.06,0.98,-0.03,-0.01,-0.15,-0.00,0.02,-0.02,1011.37
5.787,0.02,0.06,0.98,-0.03,-0.01,-0.15,-0.00,0.02,-0.02,1011.37
5.79,0.02,0.06,0.98,-0.03,-0.01,-0.15,-0.00,0.02,-0.02,1011.37
5.791,0.01,0.06,0.98,-0.03,-0.01,-0.15,-0.00,0.02,-0.02,1011.37
5.794,0.01,0.06,0.98,-0.03,-0.01,-0.15,-0.00,0.00,0.00,1011.37
5.795,0.01,0.06,0.98,-0.03,-0.01,-0.15,-0.00,0.01,0.00,1011.37
5.796,0.01,0.06,0.98,-0.01,0.01,-0.15,-0.00,0.01,0.00,1011.37
5.797,0.01,0.06,0.98,-0.02,0.00,-0.15,-0.00,0.01,0.00,1011.37
5.848,0.01,0.06,0.98,-0.02,0.00,-0.15,-0.00,0.01,0.00,1011.37
5.85,0.01,0.06,0.98,-0.02,0.00,-0.15,0.00,0.03,-0.00,1011.37
5.851,0.01,0.06,0.98,-0.04,-0.00,-0.15,0.00,0.03,-0.00,1011.37
5.885,0.01,0.06,0.98,-0.04,-0.00,-0.15,0.00,0.03,-0.00,1011.38
5.913,0.02,0.06,0.98,-0.04,-0.00,-0.15,0.00,0.03,-0.00,1011.38
5.917,0.02,0.06,0.98,-0.04,-0.00,-0.15,0.00,0.03,-0.00,1011.38
5.919,0.02,0.06,0.98,-0.04,-0.00,-0.15,0.00,0.04,-0.03,1011.38
5.922,0.02,0.06,0.98,-0.04,-0.00,-0.15,-0.00,0.03,-0.05,1011.38
5.923,0.02,0.06,0.98,-0.02,-0.01,-0.14,-0.00,0.03,-0.05,1011.38
5.924,0.02,0.06,0.98,0.01,-0.00,-0.15,-0.00,0.03,-0.05,1011.38
5.965,0.01,0.06,0.99,0.01,-0.00,-0.15,-0.00,0.03,-0.05,1011.38
5.967,0.01,0.06,0.99,0.01,-0.00,-0.15,-0.02,-0.04,-0.05,1011.38
5.968,0.01,0.06,0.99,-0.05,-0.03,-0.13,-0.02,-0.04,-0.05,1011.38
5.984,0.01,0.06,0.99,-0.05,-0.03,-0.13,-0.02,-0.04,-0.05,1011.37
6.025,-0.00,0.06,0.98,-0.05,-0.03,-0.13,-0.02,-0.04,-0.05,1011.37
6.027,0.00,0.07,0.98,-0.05,-0.03,-0.13,-0.02,-0.04,-0.05,1011.37
6.028,0.00,0.07,0.98,-0.05,-0.03,-0.13,-0.00,-0.04,0.08,1011.37
6.029,0.00,0.07,0.98,-0.05,-0.03,-0.13,0.01,-0.05,0.16,1011.37
6.029,0.00,0.07,0.98,-0.16,0.00,-0.14,0.01,-0.05,0.16,1011.37
6.03,0.00,0.07,0.98,-0.16,0.10,-0.14,0.01,-0.05,0.16,1011.37
6.084,0.00,0.07,0.98,-0.16,0.10,-0.14,-0.01,-0.05,0.13,1011.37
6.086,0.02,0.07,0.98,-0.16,0.10,-0.14,-0.01,-0.05,0.13,1011.37
6.092,0.02,0.07,0.98,-0.16,0.10,-0.14,-0.01,-0.05,0.13,1011.37
6.093,0.02,0.07,0.98,-0.02,0.06,-0.14,-0.01,-0.05,0.13,1011.37
6.145,0.02,0.05,0.98,-0.02,0.06,-0.14,-0.01,-0.05,0.13,1011.37
6.147,0.01,0.05,0.99,-0.02,0.06,-0.14,-0.01,-0.05,0.13,1011.37
6.148,0.01,0.05,0.99,-0.02,0.06,-0.14,-0.04,-0.06,0.04,1011.37
6.149,0.01,0.05,0.99,-0.02,0.06,-0.14,-0.02,-0.04,0.00,1011.37
6.15,0.01,0.05,0.99,-0.00,-0.11,-0.16,-0.02,-0.04,0.00,1011.37
6.15,0.01,0.05,0.99,-0.15,-0.13,-0.10,-0.02,-0.04,0.00,1011.37
6.184,0.01,0.05,0.99,-0.15,-0.13,-0.10,-0.02,-0.04,0.00,1011.37
6.208,0.02,0.07,0.99,-0.15,-0.13,-0.10,-0.02,-0.04,0.00,1011.37
6.212,0.02,0.07,0.99,-0.15,-0.13,-0.10,-0.03,0.02,0.02,1011.37
6.214,0.02,0.07,0.99,-0.03,0.09,-0.12,-0.03,0.02,0.02,1011.37
6.261,0.04,0.07,0.98,-0.03,0.09,-0.12,-0.03,0.02,0.02,1011.37
6.263,0.04,0.06,1.01,-0.03,0.09,-0.12,-0.03,0.02,0.02,1011.37
6.265,0.04,0.06,1.01,-0.03,0.09,-0.12,0.03,0.03,0.05,1011.37
6.266,0.04,0.06,1.01,-0.03,0.09,-0.12,0.08,0.01,0.05,1011.37
6.267,0.04,0.06,1.01,0.10,0.09,-0.13,0.08,0.01,0.05,1011.37
6.268,0.04,0.06,1.01,0.15,0.01,0.06,0.08,0.01,0.05,1011.37
6.283,0.04,0.06,1.01,0.15,0.01,0.06,0.08,0.01,0.05,1011.39
6.32,0.06,0.04,0.99,0.15,0.01,0.06,0.08,0.01,0.05,1011.39
6.323,0.06,0.04,0.99,0.15,0.01,0.06,0.06,0.18,-0.04,1011.39
6.324,0.06,0.04,0.99,0.41,-0.16,-0.09,0.06,0.18,-0.04,1011.39
6.38,-0.02,0.06,1.01,0.41,-0.16,-0.09,0.06,0.18,-0.04,1011.39
6.383,-0.02,0.05,1.01,0.41,-0.16,-0.09,0.06,0.18,-0.04,1011.39
6.384,-0.02,0.05,1.01,0.41,-0.16,-0.09,0.01,-0.05,0.13,1011.39
6.385,-0.02,0.05,1.01,0.41,-0.16,-0.09,-0.17,-0.14,0.12,1011.39
6.386,-0.02,0.05,1.01,-0.30,-0.05,0.06,-0.17,-0.14,0.12,1011.39
6.388,-0.02,0.05,1.01,-0.37,-0.10,0.13,-0.17,-0.14,0.12,1011.39
6.39,-0.02,0.05,1.01,-0.37,-0.10,0.13,-0.17,-0.14,0.12,1011.39
6.439,0.07,0.05,1.03,-0.37,-0.10,0.13,-0.17,-0.14,0.12,1011.39
6.442,0.07,0.05,1.03,-0.37,-0.10,0.13,-0.13,-0.04,-0.05,1011.39
6.443,0.07,0.05,1.03,0.44,-0.09,0.33,-0.13,-0.04,-0.05,1011.39
6.5,0.07,0.05,1.03,0.44,-0.09,0.33,-0.13,-0.04,-0.05,1011.38
6.503,0.00,0.06,1.05,0.44,-0.09,0.33,-0.13,-0.04,-0.05,1011.38
6.505,-0.03,0.08,1.02,0.44,-0.09,0.33,-0.13,-0.04,-0.05,1011.38
6.505,-0.03,0.08,1.02,0.44,-0.09,0.33,0.09,-0.01,0.04,1011.38
6.506,-0.03,0.08,1.02,0.44,-0.09,0.33,0.12,-0.03,0.11,1011.38
6.507,-0.03,0.08,1.02,-0.19,0.08,0.50,0.12,-0.03,0.11,1011.38
6.508,-0.03,0.08,1.02,-0.54,0.23,0.20,0.12,-0.03,0.11,1011.38
6.555,0.03,0.07,1.01,-0.54,0.23,0.20,0.12,-0.03,0.11,1011.38
6.557,0.03,0.07,1.01,-0.54,0.23,0.20,0.18,0.03,-0.02,1011.38
6.557,0.03,0.07,1.01,0.07,0.08,0.12,0.18,0.03,-0.02,1011.38
6.581,0.03,0.07,1.01,0.07,0.08,0.12,0.18,0.03,-0.02,1011.37
6.613,0.03,0.07,1.01,0.07,0.08,0.12,0.12,0.25,-0.05,1011.37
6.625,0.01,0.05,0.99,0.07,0.08,0.12,0.12,0.25,-0.05,1011.37
6.626,-0.03,0.06,0.97,0.07,0.08,0.12,0.12,0.25,-0.05,1011.37
6.628,-0.03,0.06,0.97,0.07,0.08,0.12,-0.02,0.19,-0.00,1011.37
6.629,-0.03,0.06,0.97,-0.09,-0.15,-0.09,-0.02,0.19,-0.00,1011.37
6.675,0.01,0.09,0.98,-0.09,-0.15,-0.09,-0.02,0.19,-0.00,1011.37
6.676,0.01,0.09,0.98,-0.09,-0.15,-0.09,-0.13,0.11,0.03,1011.37
6.676,0.01,0.09,0.98,-0.38,-0.11,-0.27,-0.13,0.11,0.03,1011.37
6.681,0.01,0.09,0.98,-0.38,-0.11,-0.27,-0.13,0.11,0.03,1011.37
6.736,0.00,0.05,1.00,-0.38,-0.11,-0.27,-0.13,0.11,0.03,1011.37
6.738,0.02,0.06,1.00,-0.38,-0.11,-0.27,-0.13,0.11,0.03,1011.37
6.739,0.02,0.06,1.00,-0.38,-0.11,-0.27,-0.07,0.10,-0.04,1011.37
6.74,0.02,0.06,1.00,-0.38,-0.11,-0.27,-0.11,-0.04,0.04,1011.37
6.742,0.02,0.06,1.00,0.07,0.21,-0.17,-0.11,-0.04,0.04,1011.37
6.743,0.02,0.06,1.00,0.05,-0.17,-0.01,-0.11,-0.04,0.04,1011.37
6.781,0.02,0.06,1.00,0.05,-0.17,-0.01,-0.11,-0.04,0.04,1011.37
6.794,0.02,0.08,1.00,0.05,-0.17,-0.01,-0.11,-0.04,0.04,1011.37
6.795,0.02,0.08,1.00,0.05,-0.17,-0.01,-0.07,-0.12,0.05,1011.37
6.796,0.02,0.08,1.00,0.23,-0.02,0.03,-0.07,-0.12,0.05,1011.37
6.854,-0.04,0.04,0.98,0.23,-0.02,0.03,-0.07,-0.12,0.05,1011.37
6.856,-0.00,0.06,0.98,0.23,-0.02,0.03,-0.07,-0.12,0.05,1011.37
6.856,-0.00,0.06,0.98,0.23,-0.02,0.03,-0.03,-0.08,0.09,1011.37
6.857,-0.00,0.06,0.98,0.23,-0.02,0.03,-0.07,-0.21,0.04,1011.37
6.858,-0.00,0.06,0.98,0.17,0.18,0.01,-0.07,-0.21,0.04,1011.37
6.858,-0.00,0.06,0.98,-0.35,-0.10,-0.22,-0.07,-0.21,0.04,1011.37
6.883,-0.00,0.06,0.98,-0.35,-0.10,-0.22,-0.07,-0.21,0.04,1011.38
6.911,0.02,0.05,0.99,-0.35,-0.10,-0.22,-0.07,-0.21,0.04,1011.38
6.913,0.02,0.05,0.99,-0.35,-0.10,-0.22,0.00,-0.11,-0.00,1011.38
6.914,0.02,0.05,0.99,-0.07,0.06,-0.18,0.00,-0.11,-0.00,1011.38
6.971,-0.01,0.04,0.98,-0.07,0.06,-0.18,0.00,-0.11,-0.00,1011.38
6.973,-0.02,0.06,0.95,-0.07,0.06,-0.18,0.00,-0.11,-0.00,1011.38
6.975,-0.02,0.06,0.95,-0.07,0.06,-0.18,0.03,-0.12,0.03,1011.38
6.975,-0.02,0.06,0.95,-0.07,0.06,-0.18,-0.02,-0.06,0.08,1011.38
6.976,-0.02,0.06,0.95,-0.02,-0.03,-0.06,-0.02,-0.06,0.08,1011.38
6.976,-0.02,0.06,0.95,-0.28,-0.14,-0.21,-0.02,-0.06,0.08,1011.38
6.98,-0.02,0.06,0.95,-0.28,-0.14,-0.21,-0.02,-0.06,0.08,1011.38
7.03,0.01,0.07,0.95,-0.28,-0.14,-0.21,-0.02,-0.06,0.08,1011.38
7.032,0.01,0.07,0.95,-0.28,-0.14,-0.21,-0.07,-0.02,0.03,1011.38
7.033,0.01,0.07,0.95,-0.41,0.03,-0.45,-0.07,-0.02,0.03,1011.38
7.081,0.01,0.07,0.95,-0.41,0.03,-0.45,-0.07,-0.02,0.03,1011.39
7.088,0.01,0.07,0.95,-0.41,0.03,-0.45,-0.05,0.01,0.02,1011.39
7.091,0.04,0.05,0.98,-0.41,0.03,-0.45,-0.05,0.01,0.02,1011.39
7.093,0.03,0.06,1.00,-0.41,0.03,-0.45,-0.05,0.01,0.02,1011.39
7.094,0.03,0.06,1.00,-0.41,0.03,-0.45,0.02,-0.01,0.03,1011.39
7.107,0.03,0.06,1.00,-0.11,0.11,-0.39,0.02,-0.01,0.03,1011.39
7.111,0.03,0.06,1.00,0.07,0.02,-0.14,0.02,-0.01,0.03,1011.39
7.147,0.02,0.06,1.01,0.07,0.02,-0.14,0.02,-0.01,0.03,1011.39
7.149,0.02,0.06,1.01,0.07,0.02,-0.14,0.14,-0.01,0.08,1011.39
7.15,0.02,0.06,1.01,-0.01,0.14,0.05,0.14,-0.01,0.08,1011.39
7.183,0.02,0.06,1.01,-0.01,0.14,0.05,0.14,-0.01,0.08,1011.39
7.207,0.02,0.06,1.00,-0.01,0.14,0.05,0.14,-0.01,0.08,1011.39
7.208,0.04,0.06,0.99,-0.01,0.14,0.05,0.14,-0.01,0.08,1011.39
7.209,0.04,0.06,0.99,-0.01,0.14,0.05,0.16,0.01,0.00,1011.39
7.21,0.04,0.06,0.99,-0.01,0.14,0.05,0.15,-0.05,-0.02,1011.39
7.21,0.04,0.06,0.99,-0.05,0.07,0.09,0.15,-0.05,-0.02,1011.39
7.211,0.04,0.06,0.99,-0.04,-0.01,-0.00,0.15,-0.05,-0.02,1011.39
7.265,0.02,0.05,0.99,-0.04,-0.01,-0.00,0.15,-0.05,-0.02,1011.39
7.267,0.02,0.05,0.99,-0.04,-0.01,-0.00,0.17,0.02,0.01,1011.39
7.268,0.02,0.05,0.99,0.06,-0.06,-0.05,0.17,0.02,0.01,1011.39
7.28,0.02,0.05,0.99,0.06,-0.06,-0.05,0.17,0.02,0.01,1011.38
7.334,0.02,0.09,0.97,0.06,-0.06,-0.05,0.17,0.02,0.01,1011.38
7.336,0.03,0.09,0.97,0.06,-0.06,-0.05,0.17,0.02,0.01,1011.38
7.337,0.03,0.09,0.97,0.06,-0.06,-0.05,0.12,-0.04,0.04,1011.38
7.339,0.03,0.09,0.97,0.06,-0.06,-0.05,0.06,-0.05,0.04,1011.38
7.34,0.03,0.09,0.97,-0.06,-0.05,-0.11,0.06,-0.05,0.04,1011.38
7.341,0.03,0.09,0.97,-0.02,0.17,-0.23,0.06,-0.05,0.04,1011.38
7.38,0.03,0.09,0.97,-0.02,0.17,-0.23,0.06,-0.05,0.04,1011.36
7.385,0.02,0.06,0.96,-0.02,0.17,-0.23,0.06,-0.05,0.04,1011.36
7.386,0.02,0.06,0.96,-0.02,0.17,-0.23,-0.02,0.04,-0.00,1011.36
7.386,0.02,0.06,0.96,-0.02,0.05,-0.29,-0.02,0.04,-0.00,1011.36
7.445,0.02,0.08,0.97,-0.02,0.05,-0.29,-0.02,0.04,-0.00,1011.36
7.447,0.06,0.06,1.00,-0.02,0.05,-0.29,-0.02,0.04,-0.00,1011.36
7.447,0.06,0.06,1.00,-0.02,0.05,-0.29,-0.13,0.02,-0.03,1011.36
7.448,0.06,0.06,1.00,-0.02,0.05,-0.29,-0.14,-0.02,-0.06,1011.36
7.448,0.06,0.06,1.00,-0.11,-0.11,-0.31,-0.14,-0.02,-0.06,1011.36
7.449,0.06,0.06,1.00,0.04,-0.03,-0.14,-0.14,-0.02,-0.06,1011.36
7.486,0.06,0.06,1.00,0.04,-0.03,-0.14,-0.14,-0.02,-0.06,1011.37
7.504,-0.00,0.07,0.97,0.04,-0.03,-0.14,-0.14,-0.02,-0.06,1011.37
7.506,-0.00,0.07,0.97,0.04,-0.03,-0.14,-0.25,0.04,0.01,1011.37
7.507,-0.00,0.07,0.97,0.05,-0.10,-0.08,-0.25,0.04,0.01,1011.37
7.561,0.00,0.05,0.98,0.05,-0.10,-0.08,-0.25,0.04,0.01,1011.37
7.564,0.07,0.07,1.02,0.05,-0.10,-0.08,-0.25,0.04,0.01,1011.37
7.565,0.07,0.07,1.02,0.05,-0.10,-0.08,-0.05,0.07,0.04,1011.37
7.565,0.07,0.07,1.02,0.05,-0.10,-0.08,0.05,-0.04,0.02,1011.37
7.566,0.07,0.07,1.02,-0.29,-0.04,-0.22,0.05,-0.04,0.02,1011.37
7.567,0.07,0.07,1.02,0.03,0.01,-0.04,0.05,-0.04,0.02,1011.37
7.577,0.07,0.07,1.02,0.03,0.01,-0.04,0.05,-0.04,0.02,1011.37
7.62,0.02,0.07,1.00,0.03,0.01,-0.04,0.05,-0.04,0.02,1011.37
7.622,0.02,0.07,1.00,0.03,0.01,-0.04,0.17,0.02,0.02,1011.37
7.623,0.02,0.07,1.00,0.24,0.14,0.09,0.17,0.02,0.02,1011.37
7.681,0.01,0.06,0.97,0.24,0.14,0.09,0.17,0.02,0.02,1011.37
7.682,0.05,0.08,0.97,0.24,0.14,0.09,0.17,0.02,0.02,1011.37
7.683,0.05,0.08,0.97,0.24,0.14,0.09,0.30,0.01,-0.00,1011.37
7.684,0.05,0.08,0.97,0.24,0.14,0.09,0.31,-0.06,-0.05,1011.37
7.684,0.05,0.08,0.97,-0.13,0.05,-0.13,0.31,-0.06,-0.05,1011.37
7.685,0.05,0.08,0.97,-0.01,-0.04,-0.26,0.31,-0.06,-0.05,1011.37
7.686,0.05,0.08,0.97,-0.01,-0.04,-0.26,0.31,-0.06,-0.05,1011.37
7.739,0.01,0.06,0.95,-0.01,-0.04,-0.26,0.31,-0.06,-0.05,1011.37
7.741,0.01,0.06,0.95,-0.01,-0.04,-0.26,0.20,-0.05,0.03,1011.37
7.742,0.01,0.06,0.95,0.05,-0.15,-0.33,0.20,-0.05,0.03,1011.37
7.788,0.01,0.06,0.95,0.05,-0.15,-0.33,0.20,-0.05,0.03,1011.37
7.798,-0.00,0.09,0.94,0.05,-0.15,-0.33,0.20,-0.05,0.03,1011.37
7.8,0.02,0.11,0.95,0.05,-0.15,-0.33,0.20,-0.05,0.03,1011.37
7.802,0.02,0.11,0.95,0.05,-0.15,-0.33,0.01,-0.09,0.06,1011.37
7.803,0.02,0.11,0.95,0.05,-0.15,-0.33,-0.08,-0.02,0.07,1011.37
7.804,0.02,0.11,0.95,-0.25,-0.22,-0.50,-0.08,-0.02,0.07,1011.37
7.805,0.02,0.11,0.95,-0.25,0.01,-0.53,-0.08,-0.02,0.07,1011.37
7.865,0.03,0.09,0.96,-0.25,0.01,-0.53,-0.08,-0.02,0.07,1011.37
7.867,0.03,0.09,0.96,-0.25,0.01,-0.53,-0.12,-0.01,0.05,1011.37
7.868,0.03,0.09,0.96,-0.12,0.05,-0.41,-0.12,-0.01,0.05,1011.37
7.884,0.03,0.09,0.96,-0.12,0.05,-0.41,-0.12,-0.01,0.05,1011.36
7.915,0.03,0.10,0.96,-0.12,0.05,-0.41,-0.12,-0.01,0.05,1011.36
7.917,0.04,0.09,0.99,-0.12,0.05,-0.41,-0.12,-0.01,0.05,1011.36
7.918,0.04,0.09,0.99,-0.12,0.05,-0.41,-0.18,-0.02,0.01,1011.36
7.918,0.04,0.09,0.99,-0.12,0.05,-0.41,-0.11,-0.01,0.02,1011.36
7.918,0.04,0.09,0.99,-0.07,0.02,-0.33,-0.11,-0.01,0.02,1011.36
7.919,0.04,0.09,0.99,-0.01,0.10,-0.19,-0.11,-0.01,0.02,1011.36
7.974,0.02,0.09,0.99,-0.01,0.10,-0.19,-0.11,-0.01,0.02,1011.36
7.976,0.02,0.09,0.99,-0.01,0.10,-0.19,-0.08,-0.02,0.12,1011.36
7.977,0.02,0.09,0.99,-0.06,0.08,-0.09,-0.08,-0.02,0.12,1011.36
7.978,0.02,0.09,0.99,-0.06,0.08,-0.09,-0.08,-0.02,0.12,1011.37
8.035,0.05,0.08,1.00,-0.06,0.08,-0.09,-0.08,-0.02,0.12,1011.37
8.036,0.05,0.07,1.00,-0.06,0.08,-0.09,-0.08,-0.02,0.12,1011.37
8.037,0.05,0.07,1.00,-0.06,0.08,-0.09,0.00,0.05,0.03,1011.37
8.037,0.05,0.07,1.00,-0.06,0.08,-0.09,0.03,-0.00,0.02,1011.37
8.038,0.05,0.07,1.00,-0.01,0.04,-0.02,0.03,-0.00,0.02,1011.37
8.038,0.05,0.07,1.00,0.11,-0.03,0.03,0.03,-0.00,0.02,1011.37
8.076,0.05,0.07,1.00,0.11,-0.03,0.03,0.03,-0.00,0.02,1011.36
8.089,0.05,0.07,1.00,0.11,-0.03,0.03,0.03,0.01,-0.01,1011.36
8.091,0.05,0.07,0.98,0.11,-0.03,0.03,0.03,0.01,-0.01,1011.36
8.095,0.05,0.07,0.98,0.15,-0.04,-0.06,0.03,0.01,-0.01,1011.36
8.15,0.02,0.08,0.97,0.15,-0.04,-0.06,0.03,0.01,-0.01,1011.36
8.151,0.02,0.09,0.98,0.15,-0.04,-0.06,0.03,0.01,-0.01,1011.36
8.152,0.02,0.09,0.98,0.15,-0.04,-0.06,0.05,0.07,0.01,1011.36
8.152,0.02,0.09,0.98,0.15,-0.04,-0.06,0.13,0.07,0.03,1011.36
8.153,0.02,0.09,0.98,-0.04,0.01,-0.21,0.13,0.07,0.03,1011.36
8.154,0.02,0.09,0.98,-0.16,0.07,-0.23,0.13,0.07,0.03,1011.36
8.176,0.02,0.09,0.98,-0.16,0.07,-0.23,0.13,0.07,0.03,1011.36
8.208,0.04,0.08,0.99,-0.16,0.07,-0.23,0.13,0.07,0.03,1011.36
8.209,0.04,0.08,0.99,-0.16,0.07,-0.23,0.14,0.07,-0.01,1011.36
8.212,0.04,0.08,0.99,0.02,0.03,-0.10,0.14,0.07,-0.01,1011.36
8.268,0.02,0.09,0.98,0.02,0.03,-0.10,0.14,0.07,-0.01,1011.36
8.27,0.03,0.07,1.00,0.02,0.03,-0.10,0.14,0.07,-0.01,1011.36
8.27,0.03,0.07,1.00,0.02,0.03,-0.10,0.13,0.06,-0.06,1011.36
8.271,0.03,0.07,1.00,0.02,0.03,-0.10,0.14,-0.00,-0.05,1011.36
8.272,0.03,0.07,1.00,-0.03,-0.03,-0.09,0.14,-0.00,-0.05,1011.36
8.272,0.03,0.07,1.00,0.00,-0.16,0.01,0.14,-0.00,-0.05,1011.36
8.274,0.03,0.07,1.00,0.00,-0.16,0.01,0.14,-0.00,-0.05,1011.35
8.327,0.03,0.09,0.98,0.00,-0.16,0.01,0.14,-0.00,-0.05,1011.35
8.328,0.03,0.09,0.98,0.00,-0.16,0.01,0.08,-0.04,0.00,1011.35
8.329,0.03,0.09,0.98,0.03,-0.15,-0.08,0.08,-0.04,0.00,1011.35
8.374,0.03,0.09,0.98,0.03,-0.15,-0.08,0.08,-0.04,0.00,1011.35
8.386,0.01,0.11,0.96,0.03,-0.15,-0.08,0.08,-0.04,0.00,1011.35
8.389,0.01,0.12,0.96,0.03,-0.15,-0.08,0.08,-0.04,0.00,1011.35
8.389,0.01,0.12,0.96,0.03,-0.15,-0.08,0.01,-0.01,0.04,1011.35
8.39,0.01,0.12,0.96,0.03,-0.15,-0.08,-0.05,-0.03,0.03,1011.35
8.39,0.01,0.12,0.96,-0.12,-0.03,-0.31,-0.05,-0.03,0.03,1011.35
8.391,0.01,0.12,0.96,-0.21,0.09,-0.34,-0.05,-0.03,0.03,1011.35
8.445,0.03,0.11,0.98,-0.21,0.09,-0.34,-0.05,-0.03,0.03,1011.35
8.446,0.03,0.11,0.98,-0.21,0.09,-0.34,0.03,-0.10,0.02,1011.35
8.447,0.03,0.11,0.98,-0.09,0.11,-0.20,0.03,-0.10,0.02,1011.35
8.473,0.03,0.11,0.98,-0.09,0.11,-0.20,0.03,-0.10,0.02,1011.34
8.504,0.02,0.10,0.97,-0.09,0.11,-0.20,0.03,-0.10,0.02,1011.34
8.506,0.02,0.11,0.97,-0.09,0.11,-0.20,0.03,-0.10,0.02,1011.34
8.506,0.02,0.11,0.97,-0.09,0.11,-0.20,0.04,-0.02,0.03,1011.34
8.507,0.02,0.11,0.97,-0.09,0.11,-0.20,-0.09,-0.05,0.08,1011.34
8.508,0.02,0.11,0.97,-0.15,-0.00,-0.24,-0.09,-0.05,0.08,1011.34
8.509,0.02,0.11,0.97,-0.13,0.05,-0.26,-0.09,-0.05,0.08,1011.34
8.563,0.03,0.11,0.99,-0.13,0.05,-0.26,-0.09,-0.05,0.08,1011.34
8.564,0.03,0.11,0.99,-0.13,0.05,-0.26,-0.05,-0.04,0.05,1011.34
8.565,0.03,0.11,0.99,-0.09,0.05,-0.12,-0.05,-0.04,0.05,1011.34
8.573,0.03,0.11,0.99,-0.09,0.05,-0.12,-0.05,-0.04,0.05,1011.33
8.623,0.03,0.11,1.01,-0.09,0.05,-0.12,-0.05,-0.04,0.05,1011.33
8.624,0.05,0.12,1.00,-0.09,0.05,-0.12,-0.05,-0.04,0.05,1011.33
8.625,0.05,0.12,1.00,-0.09,0.05,-0.12,-0.01,-0.09,0.06,1011.33
8.625,0.05,0.12,1.00,-0.09,0.05,-0.12,0.09,-0.11,0.04,1011.33
8.626,0.05,0.12,1.00,-0.10,0.12,0.10,0.09,-0.11,0.04,1011.33
8.626,0.05,0.12,1.00,0.04,0.15,0.05,0.09,-0.11,0.04,1011.33
8.673,0.05,0.12,1.00,0.04,0.15,0.05,0.09,-0.11,0.04,1011.34
8.682,0.04,0.10,0.97,0.04,0.15,0.05,0.09,-0.11,0.04,1011.34
8.684,0.04,0.10,0.97,0.04,0.15,0.05,0.19,-0.05,0.01,1011.34
8.684,0.04,0.10,0.97,-0.01,0.04,-0.23,0.19,-0.05,0.01,1011.34
8.742,0.04,0.11,0.95,-0.01,0.04,-0.23,0.19,-0.05,0.01,1011.34
8.743,0.02,0.10,0.93,-0.01,0.04,-0.23,0.19,-0.05,0.01,1011.34
8.744,0.02,0.10,0.93,-0.01,0.04,-0.23,0.18,-0.03,-0.02,1011.34
8.745,0.02,0.10,0.93,-0.01,0.04,-0.23,0.03,0.02,0.01,1011.34
8.746,0.02,0.10,0.93,-0.08,-0.04,-0.42,0.03,0.02,0.01,1011.34
8.747,0.02,0.10,0.93,-0.24,-0.13,-0.61,0.03,0.02,0.01,1011.34
8.774,0.02,0.10,0.93,-0.24,-0.13,-0.61,0.03,0.02,0.01,1011.34
8.8,0.05,0.11,0.92,-0.24,-0.13,-0.61,0.03,0.02,0.01,1011.34
8.802,0.05,0.11,0.92,-0.24,-0.13,-0.61,-0.06,0.01,-0.02,1011.34
8.802,0.05,0.11,0.92,-0.03,-0.12,-0.70,-0.06,0.01,-0.02,1011.34
8.859,0.05,0.11,0.94,-0.03,-0.12,-0.70,-0.06,0.01,-0.02,1011.34
8.861,0.04,0.12,0.95,-0.03,-0.12,-0.70,-0.06,0.01,-0.02,1011.34
8.862,0.04,0.12,0.95,-0.03,-0.12,-0.70,-0.04,0.04,0.01,1011.34
8.863,0.04,0.12,0.95,-0.03,-0.12,-0.70,-0.04,0.04,-0.02,1011.34
8.865,0.04,0.12,0.95,0.00,-0.08,-0.51,-0.04,0.04,-0.02,1011.34
8.866,0.04,0.12,0.95,-0.12,0.04,-0.46,-0.04,0.04,-0.02,1011.34
8.874,0.04,0.12,0.95,-0.12,0.04,-0.46,-0.04,0.04,-0.02,1011.34
8.919,0.05,0.12,0.96,-0.12,0.04,-0.46,-0.04,0.04,-0.02,1011.34
8.921,0.05,0.12,0.96,-0.12,0.04,-0.46,-0.05,0.04,0.02,1011.34
8.922,0.05,0.12,0.96,-0.01,0.08,-0.37,-0.05,0.04,0.02,1011.34
8.973,0.05,0.12,0.96,-0.01,0.08,-0.37,-0.05,0.04,0.02,1011.35
8.978,0.04,0.11,0.96,-0.01,0.08,-0.37,-0.05,0.04,0.02,1011.35
8.979,0.04,0.12,0.98,-0.01,0.08,-0.37,-0.05,0.04,0.02,1011.35
8.98,0.04,0.12,0.98,-0.01,0.08,-0.37,-0.07,0.07,0.04,1011.35
8.981,0.04,0.12,0.98,-0.01,0.08,-0.37,-0.07,0.03,0.03,1011.35
8.983,0.04,0.12,0.98,-0.10,-0.02,-0.29,-0.07,0.03,0.03,1011.35
8.984,0.04,0.12,0.98,-0.08,0.13,-0.16,-0.07,0.03,0.03,1011.35
9.036,0.05,0.12,1.00,-0.08,0.13,-0.16,-0.07,0.03,0.03,1011.35
9.038,0.05,0.12,1.00,-0.08,0.13,-0.16,-0.03,-0.02,0.03,1011.35
9.039,0.05,0.12,1.00,0.06,0.13,0.03,-0.03,-0.02,0.03,1011.35
9.072,0.05,0.12,1.00,0.06,0.13,0.03,-0.03,-0.02,0.03,1011.35
9.11,0.05,0.12,1.00,0.06,0.13,0.03,-0.04,0.01,0.02,1011.35
9.111,0.04,0.09,0.98,0.06,0.13,0.03,-0.04,0.01,0.02,1011.35
9.112,0.03,0.12,0.99,0.06,0.13,0.03,-0.04,0.01,0.02,1011.35
9.113,0.03,0.12,0.99,0.06,0.13,0.03,-0.09,-0.01,0.02,1011.35
9.114,0.03,0.12,0.99,-0.02,-0.14,-0.11,-0.09,-0.01,0.02,1011.35
9.154,0.03,0.11,1.00,-0.02,-0.14,-0.11,-0.09,-0.01,0.02,1011.35
9.155,0.03,0.11,1.00,-0.02,-0.14,-0.11,-0.12,0.01,0.02,1011.35
9.156,0.03,0.11,1.00,-0.12,0.13,-0.07,-0.12,0.01,0.02,1011.35
9.171,0.03,0.11,1.00,-0.12,0.13,-0.07,-0.12,0.01,0.02,1011.35
9.214,0.05,0.10,1.02,-0.12,0.13,-0.07,-0.12,0.01,0.02,1011.35
9.216,0.05,0.09,1.01,-0.12,0.13,-0.07,-0.12,0.01,0.02,1011.35
9.217,0.05,0.09,1.01,-0.12,0.13,-0.07,0.03,-0.03,0.02,1011.35
9.218,0.05,0.09,1.01,-0.12,0.13,-0.07,0.09,-0.04,0.04,1011.35
9.219,0.05,0.09,1.01,-0.10,0.15,0.06,0.09,-0.04,0.04,1011.35
9.22,0.05,0.09,1.01,0.05,0.05,0.25,0.09,-0.04,0.04,1011.35
9.273,0.03,0.11,0.98,0.05,0.05,0.25,0.09,-0.04,0.04,1011.35
9.275,0.03,0.11,0.98,0.05,0.05,0.25,0.08,-0.01,0.02,1011.35
9.276,0.03,0.11,0.98,0.05,0.05,0.25,0.08,-0.01,0.02,1011.33
9.279,0.03,0.11,0.98,0.04,-0.01,0.15,0.08,-0.01,0.02,1011.33
9.333,0.05,0.12,0.97,0.04,-0.01,0.15,0.08,-0.01,0.02,1011.33
9.335,0.04,0.10,0.96,0.04,-0.01,0.15,0.08,-0.01,0.02,1011.33
9.336,0.04,0.10,0.96,0.04,-0.01,0.15,0.06,-0.04,-0.01,1011.33
9.337,0.04,0.10,0.96,0.04,-0.01,0.15,0.09,-0.02,-0.02,1011.33
9.338,0.04,0.10,0.96,-0.10,0.11,-0.10,0.09,-0.02,-0.02,1011.33
9.339,0.04,0.10,0.96,0.04,0.11,-0.22,0.09,-0.02,-0.02,1011.33
9.371,0.04,0.10,0.96,0.04,0.11,-0.22,0.09,-0.02,-0.02,1011.34
9.391,0.02,0.11,0.95,0.04,0.11,-0.22,0.09,-0.02,-0.02,1011.34
9.393,0.02,0.11,0.95,0.04,0.11,-0.22,-0.04,0.02,-0.00,1011.34
9.394,0.02,0.11,0.95,-0.13,-0.04,-0.35,-0.04,0.02,-0.00,1011.34
9.451,0.02,0.11,0.96,-0.13,-0.04,-0.35,-0.04,0.02,-0.00,1011.34
9.453,0.04,0.09,0.97,-0.13,-0.04,-0.35,-0.04,0.02,-0.00,1011.34
9.454,0.04,0.09,0.97,-0.13,-0.04,-0.35,-0.09,-0.02,0.01,1011.34
9.455,0.04,0.09,0.97,-0.13,-0.04,-0.35,-0.08,0.02,0.03,1011.34
9.455,0.04,0.09,0.97,-0.27,-0.00,-0.43,-0.08,0.02,0.03,1011.34
9.456,0.04,0.09,0.97,-0.22,-0.01,-0.33,-0.08,0.02,0.03,1011.34
9.47,0.04,0.09,0.97,-0.22,-0.01,-0.33,-0.08,0.02,0.03,1011.34
9.509,0.04,0.10,0.98,-0.22,-0.01,-0.33,-0.08,0.02,0.03,1011.34
9.511,0.04,0.10,0.98,-0.22,-0.01,-0.33,-0.07,0.03,0.00,1011.34
9.512,0.04,0.10,0.98,-0.09,-0.12,-0.20,-0.07,0.03,0.00,1011.34
9.571,0.06,0.11,1.00,-0.09,-0.12,-0.20,-0.07,0.03,0.00,1011.34
9.573,0.05,0.10,0.99,-0.09,-0.12,-0.20,-0.07,0.03,0.00,1011.34
9.574,0.05,0.10,0.99,-0.09,-0.12,-0.20,0.03,0.00,0.01,1011.34
9.575,0.05,0.10,0.99,-0.09,-0.12,-0.20,0.11,0.04,0.03,1011.34
9.576,0.05,0.10,0.99,-0.04,0.05,-0.09,0.11,0.04,0.03,1011.34
9.577,0.05,0.10,0.99,0.09,0.09,0.07,0.11,0.04,0.03,1011.34
9.578,0.05,0.10,0.99,0.09,0.09,0.07,0.11,0.04,0.03,1011.34
9.629,0.04,0.11,0.99,0.09,0.09,0.07,0.11,0.04,0.03,1011.34
9.631,0.04,0.11,0.99,0.09,0.09,0.07,0.06,0.02,0.01,1011.34
9.634,0.04,0.11,0.99,0.02,-0.00,-0.02,0.06,0.02,0.01,1011.34
9.671,0.04,0.11,0.99,0.02,-0.00,-0.02,0.06,0.02,0.01,1011.34
9.693,0.06,0.10,0.99,0.02,-0.00,-0.02,0.06,0.02,0.01,1011.34
9.695,0.03,0.11,0.98,0.02,-0.00,-0.02,0.06,0.02,0.01,1011.34
9.697,0.03,0.11,0.98,0.02,-0.00,-0.02,0.14,-0.01,-0.05,1011.34
9.698,0.03,0.11,0.98,0.02,-0.00,-0.02,0.11,0.00,-0.03,1011.34
9.699,0.03,0.11,0.98,0.01,-0.00,-0.07,0.11,0.00,-0.03,1011.34
9.701,0.03,0.11,0.98,0.05,-0.05,-0.04,0.11,0.00,-0.03,1011.34
9.746,0.04,0.13,0.96,0.05,-0.05,-0.04,0.11,0.00,-0.03,1011.34
9.747,0.04,0.13,0.96,0.05,-0.05,-0.04,0.05,-0.01,-0.03,1011.34
9.748,0.04,0.13,0.96,-0.13,0.02,-0.19,0.05,-0.01,-0.03,1011.34
9.772,0.04,0.13,0.96,-0.13,0.02,-0.19,0.05,-0.01,-0.03,1011.34
9.806,0.03,0.12,0.96,-0.13,0.02,-0.19,0.05,-0.01,-0.03,1011.34
9.808,0.03,0.12,0.96,-0.13,0.02,-0.19,0.05,-0.01,-0.03,1011.34
9.809,0.03,0.12,0.96,-0.13,0.02,-0.19,0.04,-0.01,0.01,1011.34
9.81,0.03,0.12,0.96,-0.13,0.02,-0.19,0.01,-0.03,0.04,1011.34
9.812,0.03,0.12,0.96,-0.08,0.13,-0.30,0.01,-0.03,0.04,1011.34
9.813,0.03,0.12,0.96,-0.14,0.01,-0.28,0.01,-0.03,0.04,1011.34
9.864,0.03,0.12,0.95,-0.14,0.01,-0.28,0.01,-0.03,0.04,1011.34
9.867,0.03,0.12,0.95,-0.14,0.01,-0.28,-0.04,0.00,0.03,1011.34
9.869,0.03,0.12,0.95,-0.17,0.01,-0.33,-0.04,0.00,0.03,1011.34
9.87,0.03,0.12,0.95,-0.17,0.01,-0.33,-0.04,0.00,0.03,1011.34
9.924,0.02,0.12,0.95,-0.17,0.01,-0.33,-0.04,0.00,0.03,1011.34
9.934,0.03,0.10,0.97,-0.17,0.01,-0.33,-0.04,0.00,0.03,1011.34
9.936,0.03,0.10,0.97,-0.17,0.01,-0.33,-0.12,0.02,0.02,1011.34
9.937,0.03,0.10,0.97,-0.17,0.01,-0.33,-0.08,0.06,0.03,1011.34
9.938,0.03,0.10,0.97,-0.21,0.06,-0.44,-0.08,0.06,0.03,1011.34
9.939,0.03,0.10,0.97,-0.23,0.03,-0.38,-0.08,0.06,0.03,1011.34
9.968,0.03,0.10,0.97,-0.23,0.03,-0.38,-0.08,0.06,0.03,1011.35
9.982,0.05,0.11,0.99,-0.23,0.03,-0.38,-0.08,0.06,0.03,1011.35
9.982,0.05,0.11,0.99,-0.23,0.03,-0.38,-0.06,0.03,0.00,1011.35
9.983,0.05,0.11,0.99,-0.07,-0.05,-0.16,-0.06,0.03,0.00,1011.35
10.047,0.04,0.12,0.98,-0.07,-0.05,-0.16,-0.06,0.03,0.00,1011.35
10.05,0.06,0.12,0.99,-0.07,-0.05,-0.16,-0.06,0.03,0.00,1011.35
10.052,0.06,0.12,0.99,-0.07,-0.05,-0.16,-0.03,0.04,0.01,1011.35
10.053,0.06,0.12,0.99,-0.07,-0.05,-0.16,0.04,-0.01,0.05,1011.35
10.054,0.06,0.12,0.99,0.03,0.05,-0.08,0.04,-0.01,0.05,1011.35
10.055,0.06,0.12,0.99,0.04,0.13,-0.10,0.04,-0.01,0.05,1011.35
10.069,0.06,0.12,0.99,0.04,0.13,-0.10,0.04,-0.01,0.05,1011.35
10.1,0.04,0.10,0.98,0.04,0.13,-0.10,0.04,-0.01,0.05,1011.35
10.102,0.04,0.10,0.98,0.04,0.13,-0.10,0.04,-0.01,0.03,1011.35
10.103,0.04,0.10,0.98,0.09,0.07,-0.12,0.04,-0.01,0.03,1011.35
10.162,0.03,0.10,0.98,0.09,0.07,-0.12,0.04,-0.01,0.03,1011.35
10.164,0.05,0.11,0.98,0.09,0.07,-0.12,0.04,-0.01,0.03,1011.35
10.166,0.05,0.11,0.98,0.09,0.07,-0.12,-0.02,0.02,0.01,1011.35
10.167,0.05,0.11,0.98,0.09,0.07,-0.12,0.01,-0.02,0.00,1011.35
10.168,0.05,0.11,0.98,-0.07,-0.04,-0.17,0.01,-0.02,0.00,1011.35
10.17,0.05,0.11,0.98,-0.04,-0.02,-0.17,0.01,-0.02,0.00,1011.35
10.171,0.05,0.11,0.98,-0.04,-0.02,-0.17,0.01,-0.02,0.00,1011.35
10.218,0.02,0.11,0.96,-0.04,-0.02,-0.17,0.01,-0.02,0.00,1011.35
10.22,0.02,0.11,0.96,-0.04,-0.02,-0.17,0.03,0.04,0.03,1011.35
10.221,0.02,0.11,0.96,-0.07,0.00,-0.23,0.03,0.04,0.03,1011.35
10.269,0.02,0.11,0.96,-0.07,0.00,-0.23,0.03,0.04,0.03,1011.34
10.278,0.04,0.11,0.96,-0.07,0.00,-0.23,0.03,0.04,0.03,1011.34
10.28,0.05,0.12,0.96,-0.07,0.00,-0.23,0.03,0.04,0.03,1011.34
10.281,0.05,0.12,0.96,-0.07,0.00,-0.23,-0.00,0.06,0.01,1011.34
10.281,0.05,0.12,0.96,-0.07,0.00,-0.23,-0.06,0.05,0.01,1011.34
10.282,0.05,0.12,0.96,-0.12,0.03,-0.31,-0.06,0.05,0.01,1011.34
10.283,0.05,0.12,0.96,0.04,0.06,-0.34,-0.06,0.05,0.01,1011.34
10.343,0.03,0.12,0.97,0.04,0.06,-0.34,-0.06,0.05,0.01,1011.34
10.345,0.03,0.12,0.97,0.04,0.06,-0.34,-0.04,0.04,0.02,1011.34
10.346,0.03,0.12,0.97,0.04,0.09,-0.27,-0.04,0.04,0.02,1011.34
10.366,0.03,0.12,0.97,0.04,0.09,-0.27,-0.04,0.04,0.02,1011.35
10.395,0.02,0.10,0.98,0.04,0.09,-0.27,-0.04,0.04,0.02,1011.35
10.397,0.04,0.11,0.98,0.04,0.09,-0.27,-0.04,0.04,0.02,1011.35
10.397,0.04,0.11,0.98,0.04,0.09,-0.27,-0.02,0.05,0.00,1011.35
10.398,0.04,0.11,0.98,0.04,0.09,-0.27,-0.04,-0.01,0.01,1011.35
10.399,0.04,0.11,0.98,-0.10,0.02,-0.18,-0.04,-0.01,0.01,1011.35
10.399,0.04,0.11,0.98,-0.01,-0.00,-0.16,-0.04,-0.01,0.01,1011.35
10.458,0.03,0.10,0.98,-0.01,-0.00,-0.16,-0.04,-0.01,0.01,1011.35
10.462,0.03,0.10,0.98,-0.01,-0.00,-0.16,-0.08,0.01,0.00,1011.35
10.463,0.03,0.10,0.98,0.03,0.00,-0.14,-0.08,0.01,0.00,1011.35
10.476,0.03,0.10,0.98,0.03,0.00,-0.14,-0.08,0.01,0.00,1011.35
10.514,0.02,0.09,0.98,0.03,0.00,-0.14,-0.08,0.01,0.00,1011.35
10.516,0.01,0.10,0.98,0.03,0.00,-0.14,-0.08,0.01,0.00,1011.35
10.516,0.01,0.10,0.98,0.03,0.00,-0.14,-0.13,-0.04,0.01,1011.35
10.517,0.01,0.10,0.98,0.03,0.00,-0.14,-0.14,-0.05,0.00,1011.35
10.517,0.01,0.10,0.98,-0.11,-0.05,-0.12,-0.14,-0.05,0.00,1011.35
10.518,0.01,0.10,0.98,-0.20,0.04,-0.13,-0.14,-0.05,0.00,1011.35
10.567,0.01,0.10,0.98,-0.20,0.04,-0.13,-0.14,-0.05,0.00,1011.35
10.573,0.03,0.10,0.98,-0.20,0.04,-0.13,-0.14,-0.05,0.00,1011.35
10.575,0.03,0.10,0.98,-0.20,0.04,-0.13,-0.11,-0.06,-0.01,1011.35
10.577,0.03,0.10,0.98,-0.12,0.13,-0.14,-0.11,-0.06,-0.01,1011.35
10.631,0.03,0.10,0.98,-0.12,0.13,-0.14,0.01,-0.05,-0.01,1011.35
10.638,0.05,0.09,1.00,-0.12,0.13,-0.14,0.01,-0.05,-0.01,1011.35
10.64,0.02,0.09,0.98,-0.12,0.13,-0.14,0.01,-0.05,-0.01,1011.35
10.641,0.02,0.09,0.98,-0.12,0.13,-0.14,0.09,0.00,-0.01,1011.35
10.642,0.02,0.09,0.98,0.02,0.10,-0.06,0.09,0.00,-0.01,1011.35
10.643,0.02,0.09,0.98,-0.14,0.05,-0.07,0.09,0.00,-0.01,1011.35
10.666,0.02,0.09,0.98,-0.14,0.05,-0.07,0.09,0.00,-0.01,1011.35
10.691,0.02,0.10,0.97,-0.14,0.05,-0.07,0.09,0.00,-0.01,1011.35
10.693,0.02,0.10,0.97,-0.14,0.05,-0.07,0.16,0.08,0.04,1011.35
10.695,0.02,0.10,0.97,-0.23,0.07,-0.21,0.16,0.08,0.04,1011.35
10.753,0.04,0.10,0.97,-0.23,0.07,-0.21,0.16,0.08,0.04,1011.35
10.756,0.02,0.09,0.97,-0.23,0.07,-0.21,0.16,0.08,0.04,1011.35
10.757,0.02,0.09,0.97,-0.23,0.07,-0.21,0.18,0.05,0.03,1011.35
10.758,0.02,0.09,0.97,-0.23,0.07,-0.21,0.08,0.04,0.02,1011.35
10.758,0.02,0.09,0.97,-0.09,0.05,-0.27,0.08,0.04,0.02,1011.35
10.759,0.02,0.09,0.97,-0.11,-0.05,-0.27,0.08,0.04,0.02,1011.35
10.766,0.02,0.09,0.97,-0.11,-0.05,-0.27,0.08,0.04,0.02,1011.36
10.809,0.03,0.11,0.96,-0.11,-0.05,-0.27,0.08,0.04,0.02,1011.36
10.811,0.03,0.11,0.96,-0.11,-0.05,-0.27,-0.07,0.03,-0.04,1011.36
10.811,0.03,0.11,0.96,-0.10,0.03,-0.28,-0.07,0.03,-0.04,1011.36
10.866,0.03,0.11,0.96,-0.10,0.03,-0.28,-0.07,0.03,-0.04,1011.35
10.869,0.02,0.11,0.97,-0.10,0.03,-0.28,-0.07,0.03,-0.04,1011.35
10.87,0.02,0.09,0.98,-0.10,0.03,-0.28,-0.07,0.03,-0.04,1011.35
10.872,0.02,0.09,0.98,-0.10,0.03,-0.28,-0.08,0.03,-0.02,1011.35
10.872,0.02,0.09,0.98,-0.10,0.03,-0.28,-0.11,0.07,0.02,1011.35
10.873,0.02,0.09,0.98,-0.14,0.07,-0.23,-0.11,0.07,0.02,1011.35
10.874,0.02,0.09,0.98,-0.12,-0.01,-0.17,-0.11,0.07,0.02,1011.35
10.927,0.02,0.10,0.98,-0.12,-0.01,-0.17,-0.11,0.07,0.02,1011.35
10.929,0.02,0.10,0.98,-0.12,-0.01,-0.17,-0.09,0.06,0.06,1011.35
10.93,0.02,0.10,0.98,-0.11,0.03,-0.18,-0.09,0.06,0.06,1011.35
10.968,0.02,0.10,0.98,-0.11,0.03,-0.18,-0.09,0.06,0.06,1011.35
10.985,0.01,0.10,1.00,-0.11,0.03,-0.18,-0.09,0.06,0.06,1011.35
10.986,0.05,0.09,1.02,-0.11,0.03,-0.18,-0.09,0.06,0.06,1011.35
10.987,0.05,0.09,1.02,-0.11,0.03,-0.18,0.10,0.09,0.04,1011.35
10.988,0.05,0.09,1.02,-0.11,0.03,-0.18,0.17,0.03,-0.00,1011.35
10.989,0.05,0.09,1.02,-0.13,0.06,0.01,0.17,0.03,-0.00,1011.35
10.989,0.05,0.09,1.02,0.19,0.01,0.20,0.17,0.03,-0.00,1011.35
11.044,0.01,0.11,0.96,0.19,0.01,0.20,0.17,0.03,-0.00,1011.35
11.046,0.01,0.11,0.96,0.19,0.01,0.20,0.03,0.04,0.04,1011.35
11.046,0.01,0.11,0.96,-0.03,0.09,-0.20,0.03,0.04,0.04,1011.35
11.063,0.01,0.11,0.96,-0.03,0.09,-0.20,0.03,0.04,0.04,1011.35
11.103,0.01,0.11,0.96,-0.03,0.09,-0.20,-0.08,0.02,0.01,1011.35
11.107,0.01,0.10,0.95,-0.03,0.09,-0.20,-0.08,0.02,0.01,1011.35
11.108,0.00,0.11,0.96,-0.03,0.09,-0.20,-0.08,0.02,0.01,1011.35
11.109,0.00,0.11,0.96,-0.03,0.09,-0.20,-0.24,0.01,0.01,1011.35
11.11,0.00,0.11,0.96,-0.11,0.02,-0.40,-0.24,0.01,0.01,1011.35
11.111,0.00,0.11,0.96,-0.14,0.07,-0.37,-0.24,0.01,0.01,1011.35
11.164,-0.01,0.09,0.97,-0.14,0.07,-0.37,-0.24,0.01,0.01,1011.35
11.166,-0.01,0.09,0.97,-0.14,0.07,-0.37,-0.20,0.07,0.00,1011.35
11.167,-0.01,0.09,0.97,-0.29,0.07,-0.31,-0.20,0.07,0.00,1011.35
11.167,-0.01,0.09,0.97,-0.29,0.07,-0.31,-0.20,0.07,0.00,1011.36
11.222,0.01,0.08,1.00,-0.29,0.07,-0.31,-0.20,0.07,0.00,1011.36
11.228,0.03,0.07,1.01,-0.29,0.07,-0.31,-0.20,0.07,0.00,1011.36
11.231,0.03,0.07,1.01,-0.29,0.07,-0.31,-0.15,0.04,0.05,1011.36
11.232,0.03,0.07,1.01,-0.29,0.07,-0.31,-0.04,0.03,0.02,1011.36
11.234,0.03,0.07,1.01,-0.15,0.00,-0.07,-0.04,0.03,0.02,1011.36
11.235,0.03,0.07,1.01,0.08,-0.05,0.06,-0.04,0.03,0.02,1011.36
11.276,0.03,0.07,1.01,0.08,-0.05,0.06,-0.04,0.03,0.02,1011.35
11.284,0.01,0.07,1.00,0.08,-0.05,0.06,-0.04,0.03,0.02,1011.35
11.285,0.01,0.07,1.00,0.08,-0.05,0.06,0.02,0.03,0.02,1011.35
11.286,0.01,0.07,1.00,-0.03,-0.05,0.07,0.02,0.03,0.02,1011.35
11.34,-0.00,0.08,0.99,-0.03,-0.05,0.07,0.02,0.03,0.02,1011.35
11.342,0.01,0.09,0.99,-0.03,-0.05,0.07,0.02,0.03,0.02,1011.35
11.342,0.01,0.09,0.99,-0.03,-0.05,0.07,0.03,0.01,0.01,1011.35
11.343,0.01,0.09,0.99,-0.03,-0.05,0.07,0.01,-0.04,0.01,1011.35
11.343,0.01,0.09,0.99,-0.13,0.05,-0.05,0.01,-0.04,0.01,1011.35
11.344,0.01,0.09,0.99,-0.07,0.09,-0.04,0.01,-0.04,0.01,1011.35
11.364,0.01,0.09,0.99,-0.07,0.09,-0.04,0.01,-0.04,0.01,1011.36
11.405,0.00,0.08,1.00,-0.07,0.09,-0.04,0.01,-0.04,0.01,1011.36
11.407,0.00,0.08,1.00,-0.07,0.09,-0.04,0.03,-0.00,0.01,1011.36
11.408,0.00,0.08,1.00,-0.11,0.04,-0.02,0.03,-0.00,0.01,1011.36
11.459,0.02,0.08,0.99,-0.11,0.04,-0.02,0.03,-0.00,0.01,1011.36
11.46,0.01,0.09,1.00,-0.11,0.04,-0.02,0.03,-0.00,0.01,1011.36
11.461,0.01,0.09,1.00,-0.11,0.04,-0.02,0.04,-0.10,-0.03,1011.36
11.462,0.01,0.09,1.00,-0.11,0.04,-0.02,0.05,-0.11,0.01,1011.36
11.462,0.01,0.09,1.00,0.02,0.02,-0.03,0.05,-0.11,0.01,1011.36
11.463,0.01,0.09,1.00,-0.11,0.06,0.04,0.05,-0.11,0.01,1011.36
11.464,0.01,0.09,1.00,-0.11,0.06,0.04,0.05,-0.11,0.01,1011.35
11.523,-0.00,0.09,0.98,-0.11,0.06,0.04,0.05,-0.11,0.01,1011.35
11.526,-0.00,0.09,0.98,-0.11,0.06,0.04,0.05,-0.06,0.01,1011.35
11.527,-0.00,0.09,0.98,-0.23,0.04,-0.15,0.05,-0.06,0.01,1011.35
11.564,-0.00,0.09,0.98,-0.23,0.04,-0.15,0.05,-0.06,0.01,1011.35
11.576,0.02,0.09,0.98,-0.23,0.04,-0.15,0.05,-0.06,0.01,1011.35
11.579,0.03,0.10,0.99,-0.23,0.04,-0.15,0.05,-0.06,0.01,1011.35
11.58,0.03,0.10,0.99,-0.23,0.04,-0.15,0.03,-0.06,-0.01,1011.35
11.58,0.03,0.10,0.99,-0.23,0.04,-0.15,0.02,-0.06,0.03,1011.35
11.581,0.03,0.10,0.99,-0.07,0.03,-0.17,0.02,-0.06,0.03,1011.35
11.583,0.03,0.10,0.99,0.01,0.13,-0.07,0.02,-0.06,0.03,1011.35
11.634,0.02,0.09,0.98,0.01,0.13,-0.07,0.02,-0.06,0.03,1011.35
11.635,0.02,0.09,0.98,0.01,0.13,-0.07,0.09,-0.03,0.02,1011.35
11.663,0.02,0.09,0.98,0.01,0.13,-0.07,0.09,-0.03,0.02,1011.35
11.696,0.03,0.10,0.97,0.01,0.13,-0.07,0.09,-0.03,0.02,1011.35
11.698,-0.01,0.12,0.96,0.01,0.13,-0.07,0.09,-0.03,0.02,1011.35
11.699,-0.01,0.12,0.96,0.01,0.13,-0.07,0.13,-0.07,0.04,1011.35
11.699,-0.01,0.12,0.96,0.01,0.13,-0.07,-0.02,-0.08,0.09,1011.35
11.7,-0.01,0.12,0.96,-0.11,0.04,-0.16,-0.02,-0.08,0.09,1011.35
11.7,-0.01,0.12,0.96,0.01,0.06,-0.23,-0.02,-0.08,0.09,1011.35
11.756,0.00,0.07,0.98,0.01,0.06,-0.23,-0.02,-0.08,0.09,1011.35
11.759,0.00,0.07,0.98,0.01,0.06,-0.23,0.03,-0.01,0.02,1011.35
11.76,0.00,0.07,0.98,-0.40,0.24,-0.34,0.03,-0.01,0.02,1011.35
11.763,0.00,0.07,0.98,-0.40,0.24,-0.34,0.03,-0.01,0.02,1011.34
11.814,0.04,0.09,0.99,-0.40,0.24,-0.34,0.03,-0.01,0.02,1011.34
11.817,0.02,0.13,0.98,-0.40,0.24,-0.34,0.03,-0.01,0.02,1011.34
11.818,0.02,0.13,0.98,-0.40,0.24,-0.34,0.00,-0.03,0.02,1011.34
11.819,0.02,0.13,0.98,-0.40,0.24,-0.34,-0.03,-0.00,0.05,1011.34
11.821,0.02,0.13,0.98,-0.32,-0.21,-0.13,-0.03,-0.00,0.05,1011.34
11.822,0.02,0.13,0.98,0.03,0.02,-0.08,-0.03,-0.00,0.05,1011.34
11.861,0.02,0.13,0.98,0.03,0.02,-0.08,-0.03,-0.00,0.05,1011.36
11.873,0.03,0.07,0.98,0.03,0.02,-0.08,-0.03,-0.00,0.05,1011.36
11.874,0.03,0.07,0.98,0.03,0.02,-0.08,0.05,0.05,0.04,1011.36
11.875,0.03,0.07,0.98,-0.18,0.27,-0.20,0.05,0.05,0.04,1011.36
11.932,0.06,0.09,0.99,-0.18,0.27,-0.20,0.05,0.05,0.04,1011.36
11.934,0.04,0.11,0.98,-0.18,0.27,-0.20,0.05,0.05,0.04,1011.36
11.935,0.04,0.11,0.98,-0.18,0.27,-0.20,0.01,-0.06,-0.03,1011.36
11.936,0.04,0.11,0.98,-0.18,0.27,-0.20,-0.05,-0.01,-0.02,1011.36
11.937,0.04,0.11,0.98,-0.07,-0.22,-0.17,-0.05,-0.01,-0.02,1011.36
11.938,0.04,0.11,0.98,0.20,-0.07,-0.10,-0.05,-0.01,-0.02,1011.36
11.961,0.04,0.11,0.98,0.20,-0.07,-0.10,-0.05,-0.01,-0.02,1011.36
11.991,0.02,0.08,0.98,0.20,-0.07,-0.10,-0.05,-0.01,-0.02,1011.36
11.993,0.02,0.08,0.98,0.20,-0.07,-0.10,0.15,0.01,0.02,1011.36
11.994,0.02,0.08,0.98,-0.02,0.13,-0.17,0.15,0.01,0.02,1011.36
12.051,0.06,0.10,0.98,-0.02,0.13,-0.17,0.15,0.01,0.02,1011.36
12.054,0.02,0.10,0.97,-0.02,0.13,-0.17,0.15,0.01,0.02,1011.36
12.055,0.02,0.10,0.97,-0.02,0.13,-0.17,0.08,-0.05,-0.03,1011.36
12.056,0.02,0.10,0.97,-0.02,0.13,-0.17,0.09,-0.02,-0.06,1011.36
12.058,0.02,0.10,0.97,-0.10,-0.11,-0.14,0.09,-0.02,-0.06,1011.36
12.06,0.02,0.10,0.97,0.10,0.02,-0.15,0.09,-0.02,-0.06,1011.36
12.063,0.02,0.10,0.97,0.10,0.02,-0.15,0.09,-0.02,-0.06,1011.36
12.112,0.02,0.10,0.97,0.10,0.02,-0.15,0.07,0.06,-0.05,1011.36
12.115,0.01,0.09,0.97,0.10,0.02,-0.15,0.07,0.06,-0.05,1011.36
12.117,0.01,0.09,0.97,-0.27,-0.04,-0.21,0.07,0.06,-0.05,1011.36
12.173,0.01,0.09,0.97,-0.27,-0.04,-0.21,0.07,0.06,-0.05,1011.36
12.178,0.02,0.13,0.97,-0.27,-0.04,-0.21,0.07,0.06,-0.05,1011.36
12.18,0.02,0.11,0.97,-0.27,-0.04,-0.21,0.07,0.06,-0.05,1011.36
12.182,0.02,0.11,0.97,-0.27,-0.04,-0.21,-0.02,0.04,-0.00,1011.36
12.183,0.02,0.11,0.97,-0.27,-0.04,-0.21,-0.10,0.03,0.03,1011.36
12.184,0.02,0.11,0.97,-0.29,-0.11,-0.27,-0.10,0.03,0.03,1011.36
12.185,0.02,0.11,0.97,-0.19,0.16,-0.26,-0.10,0.03,0.03,1011.36
12.226,0.02,0.11,0.96,-0.19,0.16,-0.26,-0.10,0.03,0.03,1011.36
12.228,0.02,0.11,0.96,-0.19,0.16,-0.26,-0.13,0.04,0.04,1011.36
12.228,0.02,0.11,0.96,-0.20,0.04,-0.29,-0.13,0.04,0.04,1011.36
12.26,0.02,0.11,0.96,-0.20,0.04,-0.29,-0.13,0.04,0.04,1011.37
12.285,0.02,0.12,0.96,-0.20,0.04,-0.29,-0.13,0.04,0.04,1011.37
12.287,0.02,0.11,0.97,-0.20,0.04,-0.29,-0.13,0.04,0.04,1011.37
12.288,0.02,0.11,0.97,-0.20,0.04,-0.29,-0.14,0.03,0.03,1011.37
12.288,0.02,0.11,0.97,-0.20,0.04,-0.29,-0.13,0.10,0.03,1011.37
12.289,0.02,0.11,0.97,-0.18,0.07,-0.33,-0.13,0.10,0.03,1011.37
12.289,0.02,0.11,0.97,-0.19,0.17,-0.29,-0.13,0.10,0.03,1011.37
12.345,0.06,0.10,0.99,-0.19,0.17,-0.29,-0.13,0.10,0.03,1011.37
12.347,0.06,0.10,0.99,-0.19,0.17,-0.29,-0.07,-0.01,-0.04,1011.37
12.348,0.06,0.10,0.99,-0.04,0.16,-0.21,-0.07,-0.01,-0.04,1011.37
12.359,0.06,0.10,0.99,-0.04,0.16,-0.21,-0.07,-0.01,-0.04,1011.37
12.403,0.04,0.09,1.00,-0.04,0.16,-0.21,-0.07,-0.01,-0.04,1011.37
12.405,0.00,0.10,0.98,-0.04,0.16,-0.21,-0.07,-0.01,-0.04,1011.37
12.406,0.00,0.10,0.98,-0.04,0.16,-0.21,0.07,0.02,0.02,1011.37
12.406,0.00,0.10,0.98,-0.04,0.16,-0.21,0.03,-0.03,0.04,1011.37
12.407,0.00,0.10,0.98,0.23,0.12,-0.02,0.03,-0.03,0.04,1011.37
12.408,0.00,0.10,0.98,-0.05,0.07,-0.00,0.03,-0.03,0.04,1011.37
12.459,0.00,0.10,0.98,-0.05,0.07,-0.00,0.03,-0.03,0.04,1011.38
12.463,0.04,0.10,0.99,-0.05,0.07,-0.00,0.03,-0.03,0.04,1011.38
12.464,0.04,0.10,0.99,-0.05,0.07,-0.00,0.03,-0.07,-0.04,1011.38
12.465,0.04,0.10,0.99,-0.17,0.11,-0.14,0.03,-0.07,-0.04,1011.38
12.524,0.03,0.09,0.98,-0.17,0.11,-0.14,0.03,-0.07,-0.04,1011.38
12.526,0.01,0.09,1.01,-0.17,0.11,-0.14,0.03,-0.07,-0.04,1011.38
12.528,0.01,0.09,1.01,-0.17,0.11,-0.14,0.03,-0.04,-0.03,1011.38
12.528,0.01,0.09,1.01,-0.17,0.11,-0.14,-0.01,-0.02,-0.01,1011.38
12.529,0.01,0.09,1.01,0.02,0.04,-0.09,-0.01,-0.02,-0.01,1011.38
12.53,0.01,0.09,1.01,-0.14,0.00,-0.02,-0.01,-0.02,-0.01,1011.38
12.559,0.01,0.09,1.01,-0.14,0.00,-0.02,-0.01,-0.02,-0.01,1011.38
12.58,0.04,0.10,1.02,-0.14,0.00,-0.02,-0.01,-0.02,-0.01,1011.38
12.582,0.04,0.10,1.02,-0.14,0.00,-0.02,-0.05,-0.04,-0.02,1011.38
12.583,0.04,0.10,1.02,-0.17,0.03,0.17,-0.05,-0.04,-0.02,1011.38
12.647,0.04,0.10,1.02,-0.17,0.03,0.17,0.08,0.01,-0.00,1011.38
12.649,0.05,0.09,1.00,-0.17,0.03,0.17,0.08,0.01,-0.00,1011.38
12.65,0.02,0.11,0.98,-0.17,0.03,0.17,0.08,0.01,-0.00,1011.38
12.652,0.02,0.11,0.98,-0.17,0.03,0.17,0.13,0.02,0.04,1011.38
12.653,0.02,0.11,0.98,0.03,0.06,0.14,0.13,0.02,0.04,1011.38
12.654,0.02,0.11,0.98,-0.02,0.02,-0.05,0.13,0.02,0.04,1011.38
12.679,0.02,0.11,0.98,-0.02,0.02,-0.05,0.13,0.02,0.04,1011.38
12.699,0.02,0.10,0.98,-0.02,0.02,-0.05,0.13,0.02,0.04,1011.38
12.7,0.02,0.10,0.98,-0.02,0.02,-0.05,0.13,0.02,0.06,1011.38
12.701,0.02,0.10,0.98,-0.18,0.07,-0.15,0.13,0.02,0.06,1011.38
12.761,0.02,0.10,0.98,-0.18,0.07,-0.15,0.13,0.02,0.06,1011.38
12.763,0.05,0.11,0.98,-0.18,0.07,-0.15,0.13,0.02,0.06,1011.38
12.764,0.05,0.11,0.98,-0.18,0.07,-0.15,0.05,-0.06,0.04,1011.38
12.765,0.05,0.11,0.98,-0.18,0.07,-0.15,-0.03,-0.02,0.00,1011.38
12.766,0.05,0.11,0.98,-0.18,-0.02,-0.12,-0.03,-0.02,0.00,1011.38
12.768,0.05,0.11,0.98,-0.07,-0.01,-0.15,-0.03,-0.02,0.00,1011.38
12.769,0.05,0.11,0.98,-0.07,-0.01,-0.15,-0.03,-0.02,0.00,1011.38
12.818,0.02,0.11,0.97,-0.07,-0.01,-0.15,-0.03,-0.02,0.00,1011.38
12.819,0.02,0.11,0.97,-0.07,-0.01,-0.15,-0.10,0.03,0.01,1011.38
12.82,0.02,0.11,0.97,-0.03,0.05,-0.23,-0.10,0.03,0.01,1011.38
12.859,0.02,0.11,0.97,-0.03,0.05,-0.23,-0.10,0.03,0.01,1011.37
12.877,0.03,0.11,0.96,-0.03,0.05,-0.23,-0.10,0.03,0.01,1011.37
12.878,0.02,0.09,0.97,-0.03,0.05,-0.23,-0.10,0.03,0.01,1011.37
12.879,0.02,0.09,0.97,-0.03,0.05,-0.23,-0.15,-0.04,0.03,1011.37
12.88,0.02,0.09,0.97,-0.03,0.05,-0.23,-0.11,-0.02,0.05,1011.37
12.881,0.02,0.09,0.97,-0.11,0.10,-0.32,-0.11,-0.02,0.05,1011.37
12.881,0.02,0.09,0.97,-0.15,0.03,-0.29,-0.11,-0.02,0.05,1011.37
12.935,0.04,0.07,0.98,-0.15,0.03,-0.29,-0.11,-0.02,0.05,1011.37
12.937,0.04,0.07,0.98,-0.15,0.03,-0.29,-0.14,0.04,0.06,1011.37
12.938,0.04,0.07,0.98,-0.13,-0.10,-0.20,-0.14,0.04,0.06,1011.37
12.957,0.04,0.07,0.98,-0.13,-0.10,-0.20,-0.14,0.04,0.06,1011.37
12.996,0.02,0.08,0.98,-0.13,-0.10,-0.20,-0.14,0.04,0.06,1011.37
12.998,0.03,0.08,1.00,-0.13,-0.10,-0.20,-0.14,0.04,0.06,1011.37
12.999,0.03,0.08,1.00,-0.13,-0.10,-0.20,-0.14,0.01,0.02,1011.37
13.0,0.03,0.08,1.00,-0.13,-0.10,-0.20,-0.10,0.01,-0.07,1011.37
13.0,0.03,0.08,1.00,-0.11,-0.07,-0.20,-0.10,0.01,-0.07,1011.37
13.001,0.03,0.08,1.00,-0.16,-0.02,-0.07,-0.10,0.01,-0.07,1011.37
13.053,0.01,0.08,1.01,-0.16,-0.02,-0.07,-0.10,0.01,-0.07,1011.37
13.057,0.01,0.08,1.01,-0.16,-0.02,-0.07,-0.04,0.09,-0.02,1011.37
13.058,0.01,0.08,1.01,-0.19,-0.00,0.09,-0.04,0.09,-0.02,1011.37
13.058,0.01,0.08,1.01,-0.19,-0.00,0.09,-0.04,0.09,-0.02,1011.37
13.113,0.02,0.08,1.00,-0.19,-0.00,0.09,-0.04,0.09,-0.02,1011.37
13.116,0.02,0.09,1.00,-0.19,-0.00,0.09,-0.04,0.09,-0.02,1011.37
13.116,0.02,0.09,1.00,-0.19,-0.00,0.09,-0.03,0.06,-0.02,1011.37
13.117,0.02,0.09,1.00,-0.19,-0.00,0.09,-0.06,0.05,-0.04,1011.37
13.118,0.02,0.09,1.00,-0.15,0.03,0.10,-0.06,0.05,-0.04,1011.37
13.119,0.02,0.09,1.00,-0.10,0.09,0.06,-0.06,0.05,-0.04,1011.37
13.158,0.02,0.09,1.00,-0.10,0.09,0.06,-0.06,0.05,-0.04,1011.37
13.179,0.03,0.07,1.01,-0.10,0.09,0.06,-0.06,0.05,-0.04,1011.37
13.181,0.03,0.07,1.01,-0.10,0.09,0.06,0.01,0.03,0.00,1011.37
13.182,0.03,0.07,1.01,-0.07,0.07,0.09,0.01,0.03,0.00,1011.37
13.231,0.03,0.07,1.00,-0.07,0.07,0.09,0.01,0.03,0.00,1011.37
13.233,0.00,0.09,0.97,-0.07,0.07,0.09,0.01,0.03,0.00,1011.37
13.234,0.00,0.09,0.97,-0.07,0.07,0.09,0.02,0.01,-0.03,1011.37
13.234,0.00,0.09,0.97,-0.07,0.07,0.09,-0.02,0.02,0.02,1011.37
13.235,0.00,0.09,0.97,-0.00,0.03,0.03,-0.02,0.02,0.02,1011.37
13.235,0.00,0.09,0.97,-0.15,0.14,-0.17,-0.02,0.02,0.02,1011.37
13.256,0.00,0.09,0.97,-0.15,0.14,-0.17,-0.02,0.02,0.02,1011.37
13.289,0.02,0.08,0.98,-0.15,0.14,-0.17,-0.02,0.02,0.02,1011.37
13.29,0.02,0.08,0.98,-0.15,0.14,-0.17,0.03,0.04,0.00,1011.37
13.291,0.02,0.08,0.98,-0.10,0.14,-0.22,0.03,0.04,0.00,1011.37
13.35,0.02,0.07,0.98,-0.10,0.14,-0.22,0.03,0.04,0.00,1011.37
13.352,-0.00,0.07,0.98,-0.10,0.14,-0.22,0.03,0.04,0.00,1011.37
13.352,-0.00,0.07,0.98,-0.10,0.14,-0.22,-0.08,0.04,-0.01,1011.37
13.354,-0.00,0.07,0.98,-0.10,0.14,-0.22,-0.18,0.06,0.01,1011.37
13.354,-0.00,0.07,0.98,-0.02,0.04,-0.15,-0.18,0.06,0.01,1011.37
13.355,-0.00,0.07,0.98,-0.20,-0.01,-0.14,-0.18,0.06,0.01,1011.37
13.359,-0.00,0.07,0.98,-0.20,-0.01,-0.14,-0.18,0.06,0.01,1011.37
13.408,0.01,0.06,0.99,-0.20,-0.01,-0.14,-0.18,0.06,0.01,1011.37
13.41,0.01,0.06,0.99,-0.20,-0.01,-0.14,-0.20,0.03,-0.05,1011.37
13.41,0.01,0.06,0.99,-0.15,0.00,-0.08,-0.20,0.03,-0.05,1011.37
13.466,0.01,0.06,0.99,-0.15,0.00,-0.08,-0.20,0.03,-0.05,1011.36
13.471,0.01,0.06,1.01,-0.15,0.00,-0.08,-0.20,0.03,-0.05,1011.36
13.473,-0.00,0.06,1.00,-0.15,0.00,-0.08,-0.20,0.03,-0.05,1011.36
13.476,-0.00,0.06,1.00,-0.15,0.00,-0.08,-0.09,0.01,-0.02,1011.36
13.478,-0.00,0.06,1.00,-0.15,0.00,-0.08,-0.02,0.08,-0.00,1011.36
13.479,-0.00,0.06,1.00,-0.09,0.06,0.03,-0.02,0.08,-0.00,1011.36
13.48,-0.00,0.06,1.00,-0.19,0.08,0.00,-0.02,0.08,-0.00,1011.36
13.525,0.02,0.05,0.98,-0.19,0.08,0.00,-0.02,0.08,-0.00,1011.36
13.527,0.02,0.05,0.98,-0.19,0.08,0.00,-0.06,0.02,-0.02,1011.36
13.528,0.02,0.05,0.98,-0.01,0.05,-0.11,-0.06,0.02,-0.02,1011.36
13.555,0.02,0.05,0.98,-0.01,0.05,-0.11,-0.06,0.02,-0.02,1011.36
13.586,0.02,0.05,0.98,-0.01,0.05,-0.11,-0.06,0.02,-0.02,1011.36
13.588,-0.00,0.04,1.00,-0.01,0.05,-0.11,-0.06,0.02,-0.02,1011.36
13.589,-0.00,0.04,1.00,-0.01,0.05,-0.11,-0.07,0.03,-0.04,1011.36
13.589,-0.00,0.04,1.00,-0.01,0.05,-0.11,-0.00,-0.02,-0.01,1011.36
13.59,-0.00,0.04,1.00,0.03,0.02,-0.15,-0.00,-0.02,-0.01,1011.36
13.59,-0.00,0.04,1.00,-0.12,-0.00,-0.04,-0.00,-0.02,-0.01,1011.36
13.646,-0.02,0.05,0.98,-0.12,-0.00,-0.04,-0.00,-0.02,-0.01,1011.36
13.649,-0.02,0.05,0.98,-0.12,-0.00,-0.04,-0.08,-0.01,0.02,1011.36
13.652,-0.02,0.05,0.98,-0.32,0.05,-0.16,-0.08,-0.01,0.02,1011.36
13.655,-0.02,0.05,0.98,-0.32,0.05,-0.16,-0.08,-0.01,0.02,1011.37
13.704,0.02,0.05,1.01,-0.32,0.05,-0.16,-0.08,-0.01,0.02,1011.37
13.709,0.02,0.05,1.00,-0.32,0.05,-0.16,-0.08,-0.01,0.02,1011.37
13.71,0.02,0.05,1.00,-0.32,0.05,-0.16,0.12,-0.12,-0.03,1011.37
13.712,0.02,0.05,1.00,-0.32,0.05,-0.16,0.04,0.02,-0.01,1011.37
13.713,0.02,0.05,1.00,-0.03,0.05,0.08,0.04,0.02,-0.01,1011.37
13.714,0.02,0.05,1.00,0.02,0.05,0.05,0.04,0.02,-0.01,1011.37
13.757,0.02,0.05,1.00,0.02,0.05,0.05,0.04,0.02,-0.01,1011.37
13.763,0.01,0.05,0.98,0.02,0.05,0.05,0.04,0.02,-0.01,1011.37
13.764,0.01,0.05,0.98,0.02,0.05,0.05,0.06,-0.03,0.01,1011.37
13.765,0.01,0.05,0.98,-0.07,0.02,-0.18,0.06,-0.03,0.01,1011.37
13.821,-0.01,0.05,0.97,-0.07,0.02,-0.18,0.06,-0.03,0.01,1011.37
13.824,0.01,0.05,0.99,-0.07,0.02,-0.18,0.06,-0.03,0.01,1011.37
13.825,0.01,0.05,0.99,-0.07,0.02,-0.18,0.08,-0.04,-0.01,1011.37
13.826,0.01,0.05,0.99,-0.07,0.02,-0.18,0.16,-0.03,-0.02,1011.37
13.827,0.01,0.05,0.99,-0.24,0.01,-0.31,0.16,-0.03,-0.02,1011.37
13.828,0.01,0.05,0.99,-0.15,0.01,-0.10,0.16,-0.03,-0.02,1011.37
13.854,0.01,0.05,0.99,-0.15,0.01,-0.10,0.16,-0.03,-0.02,1011.37
13.879,0.01,0.06,0.99,-0.15,0.01,-0.10,0.16,-0.03,-0.02,1011.37
13.881,0.01,0.06,0.99,-0.15,0.01,-0.10,0.01,-0.00,0.01,1011.37
13.881,0.01,0.06,0.99,-0.13,-0.00,-0.12,0.01,-0.00,0.01,1011.37
13.939,0.02,0.06,0.98,-0.13,-0.00,-0.12,0.01,-0.00,0.01,1011.37
13.941,0.01,0.06,0.99,-0.13,-0.00,-0.12,0.01,-0.00,0.01,1011.37
13.943,0.01,0.06,0.99,-0.13,-0.00,-0.12,0.01,-0.01,0.01,1011.37
13.946,0.01,0.06,0.99,-0.13,-0.00,-0.12,0.03,0.04,0.00,1011.37
13.947,0.01,0.06,0.99,-0.07,0.04,-0.15,0.03,0.04,0.00,1011.37
13.947,0.01,0.06,0.99,-0.09,0.02,-0.07,0.03,0.04,0.00,1011.37
13.956,0.01,0.06,0.99,-0.09,0.02,-0.07,0.03,0.04,0.00,1011.38
13.998,0.01,0.06,0.98,-0.09,0.02,-0.07,0.03,0.04,0.00,1011.38
14.0,0.01,0.06,0.98,-0.09,0.02,-0.07,0.01,-0.02,0.01,1011.38
14.001,0.01,0.06,0.98,-0.13,0.03,-0.15,0.01,-0.02,0.01,1011.38
14.064,0.01,0.06,0.98,-0.13,0.03,-0.15,0.01,-0.02,0.01,1011.38
14.065,0.01,0.06,0.98,-0.13,0.03,-0.15,0.01,-0.02,0.01,1011.38
14.066,0.01,0.06,0.98,-0.13,0.03,-0.15,0.01,-0.02,0.01,1011.38
14.068,0.01,0.06,0.98,-0.13,0.03,-0.15,0.00,-0.00,0.00,1011.38
14.068,0.01,0.06,0.98,-0.13,0.03,-0.15,0.00,0.01,0.00,1011.38
14.069,0.01,0.06,0.98,-0.09,0.03,-0.15,0.00,0.01,0.00,1011.38
14.07,0.01,0.06,0.98,-0.10,0.03,-0.15,0.00,0.01,0.00,1011.38
14.115,0.01,0.06,0.98,-0.10,0.03,-0.15,-0.00,-0.01,0.00,1011.38
14.117,0.01,0.06,0.98,-0.10,0.03,-0.15,-0.00,-0.01,0.00,1011.38
14.121,0.01,0.06,0.98,-0.13,0.03,-0.14,-0.00,-0.01,0.00,1011.38
14.154,0.01,0.06,0.98,-0.13,0.03,-0.14,-0.00,-0.01,0.00,1011.38
14.178,0.01,0.07,0.99,-0.13,0.03,-0.14,-0.00,-0.01,0.00,1011.38
14.18,0.01,0.07,0.99,-0.13,0.03,-0.14,-0.00,-0.01,0.00,1011.38
14.18,0.01,0.07,0.99,-0.13,0.03,-0.14,0.00,-0.05,0.02,1011.38
14.181,0.01,0.07,0.99,-0.13,0.03,-0.14,-0.00,-0.07,0.01,1011.38
14.182,0.01,0.07,0.99,-0.11,0.06,-0.13,-0.00,-0.07,0.01,1011.38
14.233,0.01,0.06,0.98,-0.11,0.06,-0.13,-0.00,-0.07,0.01,1011.38
14.235,0.01,0.06,0.98,-0.11,0.06,-0.13,-0.03,-0.09,0.00,1011.38
14.235,0.01,0.06,0.98,-0.11,0.05,-0.13,-0.03,-0.09,0.00,1011.38
14.252,0.01,0.06,0.98,-0.11,0.05,-0.13,-0.03,-0.09,0.00,1011.38
14.294,0.02,0.06,0.98,-0.11,0.05,-0.13,-0.03,-0.09,0.00,1011.38
14.295,0.02,0.06,0.98,-0.11,0.05,-0.13,-0.03,-0.09,0.00,1011.38
14.296,0.02,0.06,0.98,-0.11,0.05,-0.13,-0.00,0.01,0.00,1011.38
14.296,0.02,0.06,0.98,-0.11,0.05,-0.13,-0.00,0.00,0.00,1011.38
14.296,0.02,0.06,0.98,-0.13,0.01,-0.17,-0.00,0.00,0.00,1011.38
14.297,0.02,0.06,0.98,-0.10,0.04,-0.15,-0.00,0.00,0.00,1011.38
14.352,0.02,0.06,0.98,-0.10,0.04,-0.15,-0.00,0.00,0.00,1011.38
14.353,0.02,0.06,0.98,-0.10,0.04,-0.15,-0.00,-0.00,-0.00,1011.38
14.354,0.02,0.06,0.98,-0.10,0.03,-0.16,-0.00,-0.00,-0.00,1011.38
14.355,0.02,0.06,0.98,-0.10,0.03,-0.16,-0.00,-0.00,-0.00,1011.38
14.413,0.02,0.06,0.98,-0.10,0.03,-0.16,-0.00,-0.00,-0.00,1011.38
14.414,0.02,0.06,0.98,-0.10,0.03,-0.16,-0.00,-0.00,-0.00,1011.38
14.415,0.02,0.06,0.98,-0.10,0.03,-0.16,-0.00,0.00,0.00,1011.38
14.417,0.02,0.06,0.98,-0.10,0.03,-0.16,0.00,0.00,0.00,1011.38
14.419,0.02,0.06,0.98,-0.10,0.04,-0.14,0.00,0.00,0.00,1011.38
14.42,0.02,0.06,0.98,-0.10,0.04,-0.15,0.00,0.00,0.00,1011.38
14.452,0.02,0.06,0.98,-0.10,0.04,-0.15,0.00,0.00,0.00,1011.39
14.481,0.02,0.06,0.98,-0.10,0.04,-0.15,0.00,0.00,0.00,1011.39
14.484,0.02,0.06,0.98,-0.10,0.04,-0.15,0.00,-0.00,0.00,1011.39
14.485,0.02,0.06,0.98,-0.10,0.04,-0.16,0.00,-0.00,0.00,1011.39
14.531,0.01,0.06,0.98,-0.10,0.04,-0.16,0.00,-0.00,0.00,1011.39
14.532,0.01,0.06,0.98,-0.10,0.04,-0.16,0.00,-0.00,0.00,1011.39
14.533,0.01,0.06,0.98,-0.10,0.04,-0.16,0.00,-0.00,0.00,1011.39
14.534,0.01,0.06,0.98,-0.10,0.04,-0.16,-0.00,-0.00,0.00,1011.39
14.534,0.01,0.06,0.98,-0.10,0.03,-0.16,-0.00,-0.00,0.00,1011.39
14.535,0.01,0.06,0.98,-0.13,0.04,-0.15,-0.00,-0.00,0.00,1011.39
14.552,0.01,0.06,0.98,-0.13,0.04,-0.15,-0.00,-0.00,0.00,1011.39
14.591,0.02,0.06,0.98,-0.13,0.04,-0.15,-0.00,-0.00,0.00,1011.39
14.592,0.02,0.06,0.98,-0.13,0.04,-0.15,-0.00,0.00,0.00,1011.39
14.593,0.02,0.06,0.98,-0.12,0.04,-0.16,-0.00,0.00,0.00,1011.39
14.648,0.02,0.06,0.98,-0.12,0.04,-0.16,0.00,-0.00,0.00,1011.39
14.652,0.02,0.06,0.98,-0.12,0.04,-0.16,0.00,-0.00,0.00,1011.39
14.653,0.01,0.06,0.98,-0.12,0.04,-0.16,0.00,-0.00,0.00,1011.39
14.656,0.01,0.06,0.98,-0.12,0.04,-0.16,0.00,-0.00,0.00,1011.39
14.657,0.01,0.06,0.98,-0.08,0.04,-0.15,0.00,-0.00,0.00,1011.39
14.658,0.01,0.06,0.98,-0.11,0.04,-0.15,0.00,-0.00,0.00,1011.39
14.659,0.01,0.06,0.98,-0.11,0.04,-0.15,0.00,-0.00,0.00,1011.38
14.707,0.02,0.06,0.98,-0.11,0.04,-0.15,0.00,-0.00,0.00,1011.38
14.709,0.02,0.06,0.98,-0.11,0.04,-0.15,0.00,-0.00,0.00,1011.38
14.71,0.02,0.06,0.98,-0.12,0.03,-0.15,0.00,-0.00,0.00,1011.38
14.751,0.02,0.06,0.98,-0.12,0.03,-0.15,0.00,-0.00,0.00,1011.38
14.768,0.02,0.06,0.98,-0.12,0.03,-0.15,0.00,-0.00,0.00,1011.38
14.77,0.02,0.06,0.98,-0.12,0.03,-0.15,0.00,-0.00,0.00,1011.38
14.77,0.02,0.06,0.98,-0.12,0.03,-0.15,-0.00,0.00,0.00,1011.38
14.771,0.02,0.06,0.98,-0.12,0.03,-0.15,0.00,0.00,-0.00,1011.38
14.772,0.02,0.06,0.98,-0.10,0.03,-0.14,0.00,0.00,-0.00,1011.38
14.773,0.02,0.06,0.98,-0.09,0.03,-0.15,0.00,0.00,-0.00,1011.38
14.824,0.01,0.06,0.98,-0.09,0.03,-0.15,0.00,0.00,-0.00,1011.38
14.826,0.01,0.06,0.98,-0.09,0.03,-0.15,0.00,-0.00,-0.00,1011.38
14.827,0.01,0.06,0.98,-0.11,0.04,-0.15,0.00,-0.00,-0.00,1011.38
14.852,0.01,0.06,0.98,-0.11,0.04,-0.15,0.00,-0.00,-0.00,1011.38
14.885,0.02,0.06,0.98,-0.11,0.04,-0.15,0.00,-0.00,-0.00,1011.38
14.887,0.02,0.06,0.98,-0.11,0.04,-0.15,0.00,-0.00,-0.00,1011.38
14.887,0.02,0.06,0.98,-0.11,0.04,-0.15,0.00,-0.00,0.00,1011.38
14.888,0.02,0.06,0.98,-0.11,0.04,-0.15,-0.00,0.00,0.00,1011.38
14.888,0.02,0.06,0.98,-0.12,0.04,-0.15,-0.00,0.00,0.00,1011.38
14.889,0.02,0.06,0.98,-0.10,0.05,-0.14,-0.00,0.00,0.00,1011.38
14.943,0.01,0.06,0.98,-0.10,0.05,-0.14,-0.00,0.00,0.00,1011.38
14.945,0.01,0.06,0.98,-0.10,0.05,-0.14,0.00,0.00,0.00,1011.38
14.947,0.01,0.06,0.98,-0.10,0.04,-0.15,0.00,0.00,0.00,1011.38
14.952,0.01,0.06,0.98,-0.10,0.04,-0.15,0.00,0.00,0.00,1011.38
15.003,0.01,0.06,0.98,-0.10,0.04,-0.15,0.00,0.00,0.00,1011.38
15.005,0.02,0.06,0.98,-0.10,0.04,-0.15,0.00,0.00,0.00,1011.38
15.006,0.02,0.06,0.98,-0.10,0.04,-0.15,-0.00,-0.00,0.00,1011.38
15.007,0.02,0.06,0.98,-0.10,0.04,-0.15,-0.00,-0.00,0.00,1011.38
15.008,0.02,0.06,0.98,-0.12,0.03,-0.16,-0.00,-0.00,0.00,1011.38
15.009,0.02,0.06,0.98,-0.12,0.04,-0.15,-0.00,-0.00,0.00,1011.38
15.051,0.02,0.06,0.98,-0.12,0.04,-0.15,-0.00,-0.00,0.00,1011.38
15.075,0.02,0.06,0.98,-0.12,0.04,-0.15,-0.00,-0.00,0.00,1011.38
15.077,0.02,0.06,0.98,-0.12,0.04,-0.15,0.00,0.00,0.00,1011.38
15.079,0.02,0.06,0.98,-0.10,0.04,-0.14,0.00,0.00,0.00,1011.38
15.119,0.02,0.06,0.98,-0.10,0.04,-0.14,0.00,0.00,-0.00,1011.38
15.122,0.02,0.06,0.98,-0.10,0.04,-0.14,0.00,0.00,-0.00,1011.38
15.126,0.01,0.06,0.98,-0.10,0.04,-0.14,0.00,0.00,-0.00,1011.38
15.126,0.01,0.06,0.98,-0.10,0.04,-0.14,-0.00,0.00,0.00,1011.38
15.127,0.01,0.06,0.98,-0.10,0.04,-0.14,-0.00,0.00,0.00,1011.38
15.128,0.01,0.06,0.98,-0.11,0.04,-0.14,-0.00,0.00,0.00,1011.38
15.149,0.01,0.06,0.98,-0.11,0.04,-0.14,-0.00,0.00,0.00,1011.39
15.18,0.02,0.06,0.98,-0.11,0.04,-0.14,-0.00,0.00,0.00,1011.39
15.183,0.02,0.06,0.98,-0.11,0.04,-0.14,-0.00,-0.00,0.00,1011.39
15.185,0.02,0.06,0.98,-0.11,0.04,-0.14,-0.00,-0.00,0.00,1011.39
15.239,0.02,0.06,0.98,-0.11,0.04,-0.14,-0.00,-0.00,0.00,1011.39
15.242,0.01,0.06,0.98,-0.11,0.04,-0.14,-0.00,-0.00,0.00,1011.39
15.244,0.01,0.06,0.98,-0.11,0.04,-0.14,0.00,-0.00,0.00,1011.39
15.246,0.01,0.06,0.98,-0.11,0.04,-0.14,0.00,0.00,-0.00,1011.39
15.247,0.01,0.06,0.98,-0.11,0.04,-0.15,0.00,0.00,-0.00,1011.39
15.248,0.01,0.06,0.98,-0.11,0.02,-0.14,0.00,0.00,-0.00,1011.39
15.249,0.01,0.06,0.98,-0.11,0.02,-0.14,0.00,0.00,-0.00,1011.38
15.299,0.02,0.06,0.98,-0.11,0.02,-0.14,0.00,0.00,-0.00,1011.38
15.301,0.02,0.06,0.98,-0.11,0.02,-0.14,-0.00,-0.00,-0.00,1011.38
15.302,0.02,0.06,0.98,-0.12,0.03,-0.15,-0.00,-0.00,-0.00,1011.38
15.349,0.02,0.06,0.98,-0.12,0.03,-0.15,-0.00,-0.00,-0.00,1011.38
15.357,0.02,0.06,0.98,-0.12,0.03,-0.15,-0.00,-0.00,-0.00,1011.38
15.358,0.02,0.06,0.98,-0.12,0.03,-0.15,-0.00,-0.00,-0.00,1011.38
15.36,0.02,0.06,0.98,-0.12,0.03,-0.15,0.00,0.00,0.00,1011.38
15.361,0.02,0.06,0.98,-0.12,0.03,-0.15,0.00,0.00,0.00,1011.38
15.362,0.02,0.06,0.98,-0.10,0.04,-0.15,0.00,0.00,0.00,1011.38
15.363,0.02,0.06,0.98,-0.09,0.04,-0.15,0.00,0.00,0.00,1011.38
15.415,0.01,0.06,0.98,-0.09,0.04,-0.15,0.00,0.00,0.00,1011.38
15.421,0.01,0.06,0.98,-0.09,0.04,-0.15,-0.00,-0.00,0.00,1011.38
15.422,0.01,0.06,0.98,-0.13,0.04,-0.14,-0.00,-0.00,0.00,1011.38
15.448,0.01,0.06,0.98,-0.13,0.04,-0.14,-0.00,-0.00,0.00,1011.39
15.489,0.02,0.06,0.98,-0.13,0.04,-0.14,-0.00,-0.00,0.00,1011.39
15.491,0.02,0.06,0.98,-0.13,0.04,-0.14,-0.00,-0.00,0.00,1011.39
15.492,0.02,0.06,0.98,-0.13,0.04,-0.14,-0.00,-0.00,0.00,1011.39
15.493,0.02,0.06,0.98,-0.13,0.04,-0.14,-0.00,0.00,0.00,1011.39
15.495,0.02,0.06,0.98,-0.14,0.04,-0.14,-0.00,0.00,0.00,1011.39
15.496,0.02,0.06,0.98,-0.08,0.04,-0.15,-0.00,0.00,0.00,1011.39
15.534,0.02,0.06,0.98,-0.08,0.04,-0.15,-0.00,0.00,0.00,1011.39
15.535,0.02,0.06,0.98,-0.08,0.04,-0.15,0.00,-0.00,0.00,1011.39
15.536,0.02,0.06,0.98,-0.08,0.04,-0.15,0.00,-0.00,0.00,1011.39
15.548,0.02,0.06,0.98,-0.08,0.04,-0.15,0.00,-0.00,0.00,1011.39
15.594,0.01,0.06,0.98,-0.08,0.04,-0.15,0.00,-0.00,0.00,1011.39
15.595,0.01,0.06,0.98,-0.08,0.04,-0.15,0.00,-0.00,0.00,1011.39
15.596,0.01,0.06,0.98,-0.08,0.04,-0.15,-0.00,0.00,-0.00,1011.39
15.596,0.01,0.06,0.98,-0.08,0.04,-0.15,-0.00,-0.00,0.00,1011.39
15.597,0.01,0.06,0.98,-0.15,0.03,-0.15,-0.00,-0.00,0.00,1011.39
15.598,0.01,0.06,0.98,-0.16,0.03,-0.15,-0.00,-0.00,0.00,1011.39
15.648,0.01,0.06,0.98,-0.16,0.03,-0.15,-0.00,-0.00,0.00,1011.39
15.653,0.02,0.06,0.98,-0.16,0.03,-0.15,-0.00,-0.00,0.00,1011.39
15.654,0.02,0.06,0.98,-0.16,0.03,-0.15,-0.00,-0.00,0.00,1011.39
15.655,0.02,0.06,0.98,-0.07,0.04,-0.15,-0.00,-0.00,0.00,1011.39
15.721,0.02,0.06,0.98,-0.07,0.04,-0.15,-0.00,-0.00,0.00,1011.39
15.724,0.01,0.06,0.98,-0.07,0.04,-0.15,-0.00,-0.00,0.00,1011.39
15.725,0.01,0.06,0.98,-0.07,0.04,-0.15,-0.00,0.00,0.00,1011.39
15.726,0.01,0.06,0.98,-0.07,0.04,-0.15,-0.00,-0.00,-0.00,1011.39
15.727,0.01,0.06,0.98,-0.08,0.04,-0.14,-0.00,-0.00,-0.00,1011.39
15.729,0.01,0.06,0.98,-0.16,0.03,-0.14,-0.00,-0.00,-0.00,1011.39
15.753,0.01,0.06,0.98,-0.16,0.03,-0.14,-0.00,-0.00,-0.00,1011.39
15.769,0.02,0.06,0.98,-0.16,0.03,-0.14,-0.00,-0.00,-0.00,1011.39
15.77,0.02,0.06,0.98,-0.16,0.03,-0.14,-0.00,-0.00,0.00,1011.39
15.77,0.02,0.06,0.98,-0.14,0.03,-0.15,-0.00,-0.00,0.00,1011.39
15.83,0.03,0.06,0.98,-0.14,0.03,-0.15,-0.00,-0.00,0.00,1011.39
15.831,0.01,0.06,0.98,-0.14,0.03,-0.15,-0.00,-0.00,0.00,1011.39
15.832,0.01,0.06,0.98,-0.14,0.03,-0.15,-0.00,-0.00,0.00,1011.39
15.833,0.01,0.06,0.98,-0.14,0.03,-0.15,-0.00,-0.00,-0.00,1011.39
15.835,0.01,0.06,0.98,-0.04,0.04,-0.14,-0.00,-0.00,-0.00,1011.39
15.835,0.01,0.06,0.98,-0.13,0.04,-0.14,-0.00,-0.00,-0.00,1011.39
15.847,0.01,0.06,0.98,-0.13,0.04,-0.14,-0.00,-0.00,-0.00,1011.39
15.888,0.01,0.06,0.98,-0.13,0.04,-0.14,-0.00,-0.00,-0.00,1011.39
15.893,0.01,0.06,0.98,-0.13,0.04,-0.14,-0.00,-0.00,0.00,1011.39
15.894,0.01,0.06,0.98,-0.19,0.04,-0.14,-0.00,-0.00,0.00,1011.39
15.95,0.03,0.07,0.98,-0.19,0.04,-0.14,-0.00,-0.00,0.00,1011.39
15.953,0.02,0.06,0.98,-0.19,0.04,-0.14,-0.00,-0.00,0.00,1011.39
15.954,0.02,0.06,0.98,-0.19,0.04,-0.14,0.00,0.00,0.00,1011.39
15.956,0.02,0.06,0.98,-0.19,0.04,-0.14,-0.00,-0.00,0.00,1011.39
15.957,0.02,0.06,0.98,-0.05,0.05,-0.15,-0.00,-0.00,0.00,1011.39
15.959,0.02,0.06,0.98,-0.06,0.05,-0.15,-0.00,-0.00,0.00,1011.39
15.96,0.02,0.06,0.98,-0.06,0.05,-0.15,-0.00,-0.00,0.00,1011.38
16.007,0.01,0.06,0.98,-0.06,0.05,-0.15,-0.00,-0.00,0.00,1011.38
16.011,0.01,0.06,0.98,-0.06,0.05,-0.15,-0.00,-0.00,0.00,1011.38
16.013,0.01,0.06,0.98,-0.17,0.03,-0.15,-0.00,-0.00,0.00,1011.38
16.047,0.01,0.06,0.98,-0.17,0.03,-0.15,-0.00,-0.00,0.00,1011.38
16.064,0.01,0.06,0.98,-0.17,0.03,-0.15,-0.00,-0.00,0.00,1011.38
16.066,0.02,0.06,0.98,-0.17,0.03,-0.15,-0.00,-0.00,0.00,1011.38
16.067,0.02,0.06,0.98,-0.17,0.03,-0.15,0.00,-0.00,-0.00,1011.38
16.067,0.02,0.06,0.98,-0.17,0.03,-0.15,-0.00,-0.00,-0.00,1011.38
16.068,0.02,0.06,0.98,-0.15,0.04,-0.16,-0.00,-0.00,-0.00,1011.38
16.069,0.02,0.06,0.98,-0.07,0.04,-0.16,-0.00,-0.00,-0.00,1011.38
16.13,0.02,0.06,0.98,-0.07,0.04,-0.16,-0.00,-0.00,0.00,1011.38
16.131,0.02,0.06,0.98,-0.07,0.04,-0.16,-0.00,-0.00,0.00,1011.38
16.132,0.02,0.06,0.98,-0.09,0.04,-0.14,-0.00,-0.00,0.00,1011.38
16.151,0.02,0.06,0.98,-0.09,0.04,-0.14,-0.00,-0.00,0.00,1011.37
16.183,0.01,0.06,0.98,-0.09,0.04,-0.14,-0.00,-0.00,0.00,1011.37
16.185,0.02,0.06,0.98,-0.09,0.04,-0.14,-0.00,-0.00,0.00,1011.37
16.186,0.02,0.06,0.98,-0.09,0.04,-0.14,-0.00,-0.00,-0.00,1011.37
16.186,0.02,0.06,0.98,-0.09,0.04,-0.14,0.00,-0.00,-0.00,1011.37
16.187,0.02,0.06,0.98,-0.14,0.03,-0.15,0.00,-0.00,-0.00,1011.37
16.188,0.02,0.06,0.98,-0.11,0.04,-0.15,0.00,-0.00,-0.00,1011.37
16.243,0.02,0.06,0.98,-0.11,0.04,-0.15,0.00,-0.00,-0.00,1011.37
16.244,0.02,0.06,0.98,-0.11,0.04,-0.15,-0.00,-0.00,-0.00,1011.37
16.245,0.02,0.06,0.98,-0.09,0.05,-0.15,-0.00,-0.00,-0.00,1011.37
16.246,0.02,0.06,0.98,-0.09,0.05,-0.15,-0.00,-0.00,-0.00,1011.37
16.302,0.02,0.06,0.98,-0.09,0.05,-0.15,-0.00,-0.00,-0.00,1011.37
16.303,0.01,0.06,0.98,-0.09,0.05,-0.15,-0.00,-0.00,-0.00,1011.37
16.304,0.01,0.06,0.98,-0.09,0.05,-0.15,0.00,-0.00,-0.00,1011.37
16.304,0.01,0.06,0.98,-0.09,0.05,-0.15,0.00,-0.00,0.00,1011.37
16.305,0.01,0.06,0.98,-0.10,0.04,-0.15,0.00,-0.00,0.00,1011.37
16.306,0.01,0.06,0.98,-0.13,0.04,-0.16,0.00,-0.00,0.00,1011.37
16.345,0.01,0.06,0.98,-0.13,0.04,-0.16,0.00,-0.00,0.00,1011.37
16.361,0.02,0.06,0.98,-0.13,0.04,-0.16,0.00,-0.00,0.00,1011.37
16.363,0.02,0.06,0.98,-0.13,0.04,-0.16,0.00,-0.00,-0.00,1011.37
16.363,0.02,0.06,0.98,-0.12,0.04,-0.15,0.00,-0.00,-0.00,1011.37
16.42,0.02,0.06,0.98,-0.12,0.04,-0.15,0.00,-0.00,-0.00,1011.37
16.422,0.02,0.06,0.98,-0.12,0.04,-0.15,0.00,-0.00,-0.00,1011.37
16.423,0.02,0.06,0.98,-0.12,0.04,-0.15,-0.00,-0.00,0.00,1011.37
16.424,0.02,0.06,0.98,-0.12,0.04,-0.15,-0.00,0.00,-0.00,1011.37
16.424,0.02,0.06,0.98,-0.10,0.04,-0.14,-0.00,0.00,-0.00,1011.37
16.425,0.02,0.06,0.98,-0.10,0.04,-0.15,-0.00,0.00,-0.00,1011.37
16.444,0.02,0.06,0.98,-0.10,0.04,-0.15,-0.00,0.00,-0.00,1011.37
16.478,0.01,0.06,0.98,-0.10,0.04,-0.15,-0.00,0.00,-0.00,1011.37
16.48,0.01,0.06,0.98,-0.10,0.04,-0.15,-0.00,-0.00,0.00,1011.37
16.48,0.01,0.06,0.98,-0.13,0.03,-0.15,-0.00,-0.00,0.00,1011.37
16.538,0.02,0.06,0.98,-0.13,0.03,-0.15,-0.00,-0.00,0.00,1011.37
16.539,0.02,0.06,0.98,-0.13,0.03,-0.15,-0.00,-0.00,0.00,1011.37
16.54,0.02,0.06,0.98,-0.13,0.03,-0.15,-0.00,0.00,0.00,1011.37
16.541,0.02,0.06,0.98,-0.13,0.03,-0.15,-0.00,-0.00,0.00,1011.37
16.541,0.02,0.06,0.98,-0.12,0.05,-0.15,-0.00,-0.00,0.00,1011.37
16.542,0.02,0.06,0.98,-0.11,0.04,-0.16,-0.00,-0.00,0.00,1011.37
16.544,0.02,0.06,0.98,-0.11,0.04,-0.16,-0.00,-0.00,0.00,1011.37
16.597,0.02,0.06,0.98,-0.11,0.04,-0.16,-0.00,-0.00,0.00,1011.37
16.599,0.02,0.06,0.98,-0.11,0.04,-0.16,-0.00,-0.00,0.00,1011.37
16.6,0.02,0.06,0.98,-0.12,0.05,-0.16,-0.00,-0.00,0.00,1011.37
16.643,0.02,0.06,0.98,-0.12,0.05,-0.16,-0.00,-0.00,0.00,1011.37
16.657,0.02,0.06,0.98,-0.12,0.05,-0.16,-0.00,0.00,0.00,1011.37
16.659,0.01,0.06,0.98,-0.12,0.05,-0.16,-0.00,0.00,0.00,1011.37
16.66,0.02,0.06,0.98,-0.12,0.05,-0.16,-0.00,0.00,0.00,1011.37
16.661,0.02,0.06,0.98,-0.12,0.05,-0.16,-0.00,0.00,0.00,1011.37
16.662,0.02,0.06,0.98,-0.13,0.04,-0.14,-0.00,0.00,0.00,1011.37
16.716,0.02,0.06,0.98,-0.13,0.04,-0.14,-0.00,0.00,0.00,1011.37
16.718,0.02,0.06,0.98,-0.13,0.04,-0.14,0.00,0.00,-0.00,1011.37
16.719,0.02,0.06,0.98,-0.09,0.04,-0.15,0.00,0.00,-0.00,1011.37
16.744,0.02,0.06,0.98,-0.09,0.04,-0.15,0.00,0.00,-0.00,1011.37
16.775,0.01,0.06,0.98,-0.09,0.04,-0.15,0.00,0.00,-0.00,1011.37
16.777,0.01,0.06,0.98,-0.09,0.04,-0.15,0.00,0.00,-0.00,1011.37
16.778,0.01,0.06,0.98,-0.09,0.04,-0.15,0.00,0.00,0.00,1011.37
16.778,0.01,0.06,0.98,-0.09,0.04,-0.15,-0.00,0.00,0.00,1011.37
16.779,0.01,0.06,0.98,-0.09,0.04,-0.15,-0.00,0.00,0.00,1011.37
16.78,0.01,0.06,0.98,-0.14,0.04,-0.14,-0.00,0.00,0.00,1011.37
16.834,0.02,0.06,0.98,-0.14,0.04,-0.14,-0.00,0.00,0.00,1011.37
16.837,0.02,0.06,0.98,-0.14,0.04,-0.14,-0.00,0.00,0.00,1011.37
16.838,0.02,0.06,0.98,-0.13,0.04,-0.14,-0.00,0.00,0.00,1011.37
16.844,0.02,0.06,0.98,-0.13,0.04,-0.14,-0.00,0.00,0.00,1011.37
16.895,0.02,0.06,0.98,-0.13,0.04,-0.14,-0.00,0.00,0.00,1011.37
16.898,0.01,0.06,0.98,-0.13,0.04,-0.14,-0.00,0.00,0.00,1011.37
16.9,0.01,0.06,0.98,-0.13,0.04,-0.14,0.00,-0.00,0.00,1011.37
16.901,0.01,0.06,0.98,-0.13,0.04,-0.14,-0.00,-0.00,0.00,1011.37
16.903,0.01,0.06,0.98,-0.10,0.04,-0.14,-0.00,-0.00,0.00,1011.37
16.904,0.01,0.06,0.98,-0.11,0.04,-0.15,-0.00,-0.00,0.00,1011.37
16.943,0.01,0.06,0.98,-0.11,0.04,-0.15,-0.00,-0.00,0.00,1011.38
16.974,0.02,0.06,0.98,-0.11,0.04,-0.15,-0.00,-0.00,0.00,1011.38
16.977,0.02,0.06,0.98,-0.11,0.04,-0.15,0.00,-0.00,-0.00,1011.38
16.978,0.02,0.06,0.98,-0.14,0.04,-0.16,0.00,-0.00,-0.00,1011.38
17.014,0.02,0.06,0.98,-0.14,0.04,-0.16,0.00,-0.00,-0.00,1011.38
17.02,0.02,0.06,0.98,-0.14,0.04,-0.16,0.00,-0.00,-0.00,1011.38
17.021,0.02,0.06,0.98,-0.14,0.04,-0.16,-0.00,0.00,0.00,1011.38
17.022,0.02,0.06,0.98,-0.14,0.04,-0.16,0.00,0.00,0.00,1011.38
17.022,0.02,0.06,0.98,-0.11,0.04,-0.14,0.00,0.00,0.00,1011.38
17.023,0.02,0.06,0.98,-0.10,0.05,-0.15,0.00,0.00,0.00,1011.38
17.041,0.02,0.06,0.98,-0.10,0.05,-0.15,0.00,0.00,0.00,1011.38
17.069,0.01,0.06,0.98,-0.10,0.05,-0.15,0.00,0.00,0.00,1011.38
17.071,0.01,0.06,0.98,-0.10,0.05,-0.15,-0.00,0.00,0.00,1011.38
17.072,0.01,0.06,0.98,-0.12,0.04,-0.16,-0.00,0.00,0.00,1011.38
17.129,0.02,0.06,0.98,-0.12,0.04,-0.16,-0.00,0.00,0.00,1011.38
17.131,0.02,0.06,0.98,-0.12,0.04,-0.16,-0.00,0.00,0.00,1011.38
17.131,0.02,0.06,0.98,-0.12,0.04,-0.16,-0.00,0.00,0.00,1011.38
17.132,0.02,0.06,0.98,-0.12,0.04,-0.16,0.00,-0.00,-0.00,1011.38
17.132,0.02,0.06,0.98,-0.14,0.04,-0.15,0.00,-0.00,-0.00,1011.38
17.133,0.02,0.06,0.98,-0.12,0.05,-0.15,0.00,-0.00,-0.00,1011.38
17.141,0.02,0.06,0.98,-0.12,0.05,-0.15,0.00,-0.00,-0.00,1011.38
17.188,0.02,0.06,0.98,-0.12,0.05,-0.15,0.00,-0.00,-0.00,1011.38
17.189,0.02,0.06,0.98,-0.12,0.05,-0.15,0.00,-0.00,0.00,1011.38
17.19,0.02,0.06,0.98,-0.10,0.04,-0.14,0.00,-0.00,0.00,1011.38
17.244,0.02,0.06,0.98,-0.10,0.04,-0.14,0.00,-0.00,0.00,1011.37
17.251,0.02,0.06,0.98,-0.10,0.04,-0.14,0.00,-0.00,0.00,1011.37
17.252,0.02,0.06,0.98,-0.10,0.04,-0.14,0.00,-0.00,0.00,1011.37
17.253,0.02,0.06,0.98,-0.10,0.04,-0.14,0.00,-0.00,0.00,1011.37
17.253,0.02,0.06,0.98,-0.10,0.04,-0.14,0.01,0.12,-0.00,1011.37
17.253,0.02,0.06,0.98,-0.12,0.04,-0.14,0.01,0.12,-0.00,1011.37
17.254,0.02,0.06,0.98,-0.12,0.04,-0.15,0.01,0.12,-0.00,1011.37
17.305,0.01,0.06,0.98,-0.12,0.04,-0.15,0.01,0.12,-0.00,1011.37
17.306,0.01,0.06,0.98,-0.12,0.04,-0.15,0.00,-0.03,0.00,1011.37
17.307,0.01,0.06,0.98,-0.13,0.05,-0.17,0.00,-0.03,0.00,1011.37
17.344,0.01,0.06,0.98,-0.13,0.05,-0.17,0.00,-0.03,0.00,1011.36
