time,gFx,gFy,gFz,ax,ay,az,wx,wy,wz,P
0.004,0.01,0.07,0.99,-0.01,-0.00,-0.15,0.00,-0.04,-0.00,1005.98
0.005,0.01,0.07,0.98,-0.01,-0.00,-0.15,0.00,-0.04,-0.00,1005.98
0.005,0.01,0.07,0.98,-0.01,-0.00,-0.15,-0.00,-0.00,-0.00,1005.98
0.006,0.01,0.07,0.98,-0.03,-0.01,-0.11,-0.00,-0.00,-0.00,1005.98
0.062,0.01,0.07,0.98,-0.03,-0.01,-0.11,-0.00,-0.00,-0.00,1005.98
0.064,0.01,0.07,0.98,-0.03,-0.01,-0.11,-0.00,-0.00,-0.00,1005.98
0.064,0.01,0.07,0.98,-0.03,-0.01,-0.11,0.00,-0.00,-0.00,1005.98
0.065,0.01,0.07,0.98,-0.03,-0.01,-0.11,0.00,-0.00,-0.00,1005.98
0.065,0.01,0.07,0.98,-0.00,-0.01,-0.19,0.00,-0.00,-0.00,1005.98
0.066,0.01,0.07,0.98,-0.00,-0.02,-0.15,0.00,-0.00,-0.00,1005.98
0.086,0.01,0.07,0.98,-0.00,-0.02,-0.15,0.00,-0.00,-0.00,1005.97
0.12,0.01,0.07,0.98,-0.00,-0.02,-0.15,0.00,-0.00,-0.00,1005.97
0.122,0.01,0.07,0.98,-0.00,-0.02,-0.15,0.00,-0.00,0.00,1005.97
0.122,0.01,0.07,0.98,-0.01,-0.01,-0.14,0.00,-0.00,0.00,1005.97
0.18,0.01,0.07,0.98,-0.01,-0.01,-0.14,0.00,-0.00,0.00,1005.97
0.181,0.01,0.07,0.98,-0.01,-0.01,-0.14,0.00,-0.00,0.00,1005.97
0.182,0.01,0.07,0.98,-0.01,-0.01,-0.14,-0.00,-0.00,0.00,1005.97
0.183,0.01,0.07,0.98,-0.01,-0.01,-0.14,0.00,-0.00,-0.00,1005.97
0.183,0.01,0.07,0.98,-0.02,-0.00,-0.15,0.00,-0.00,-0.00,1005.97
0.184,0.01,0.07,0.98,-0.01,0.00,-0.14,0.00,-0.00,-0.00,1005.97
0.185,0.01,0.07,0.98,-0.01,0.00,-0.14,0.00,-0.00,-0.00,1005.98
0.238,0.01,0.07,0.98,-0.01,0.00,-0.14,0.00,-0.00,-0.00,1005.98
0.24,0.01,0.07,0.98,-0.01,0.00,-0.14,0.00,-0.00,-0.00,1005.98
0.24,0.01,0.07,0.98,-0.01,-0.00,-0.15,0.00,-0.00,-0.00,1005.98
0.286,0.01,0.07,0.98,-0.01,-0.00,-0.15,0.00,-0.00,-0.00,1005.98
0.298,0.01,0.07,0.98,-0.01,-0.00,-0.15,-0.00,-0.00,-0.00,1005.98
0.3,0.01,0.07,0.98,-0.01,-0.00,-0.15,-0.00,-0.00,-0.00,1005.98
0.3,0.01,0.07,0.98,-0.01,-0.00,-0.15,-0.00,-0.00,-0.00,1005.98
0.302,0.01,0.07,0.98,-0.01,-0.00,-0.15,0.00,0.00,0.00,1005.98
0.303,0.01,0.07,0.98,-0.00,0.01,-0.15,0.00,0.00,0.00,1005.98
0.304,0.01,0.07,0.98,-0.00,-0.00,-0.15,0.00,0.00,0.00,1005.98
0.356,0.01,0.07,0.98,-0.00,-0.00,-0.15,0.00,0.00,0.00,1005.98
0.359,0.01,0.07,0.98,-0.00,-0.00,-0.15,0.00,-0.00,-0.00,1005.98
0.36,0.01,0.07,0.98,-0.01,-0.01,-0.15,0.00,-0.00,-0.00,1005.98
0.386,0.01,0.07,0.98,-0.01,-0.01,-0.15,0.00,-0.00,-0.00,1005.99
0.417,0.01,0.07,0.98,-0.01,-0.01,-0.15,0.00,-0.00,-0.00,1005.99
0.418,0.01,0.07,0.98,-0.01,-0.01,-0.15,0.00,-0.00,-0.00,1005.99
0.419,0.01,0.07,0.98,-0.01,-0.01,-0.15,-0.00,0.00,0.00,1005.99
0.419,0.01,0.07,0.98,-0.01,-0.01,-0.15,0.00,0.00,0.00,1005.99
0.42,0.01,0.07,0.98,-0.00,-0.02,-0.15,0.00,0.00,0.00,1005.99
0.42,0.01,0.07,0.98,-0.00,-0.02,-0.15,0.00,0.00,0.00,1005.99
0.476,0.01,0.07,0.98,-0.00,-0.02,-0.15,0.00,0.00,0.00,1005.99
0.478,0.01,0.07,0.98,-0.00,-0.02,-0.15,0.00,-0.00,0.00,1005.99
0.479,0.01,0.07,0.98,-0.01,-0.00,-0.14,0.00,-0.00,0.00,1005.99
0.484,0.01,0.07,0.98,-0.01,-0.00,-0.14,0.00,-0.00,0.00,1005.98
0.535,0.01,0.07,0.98,-0.01,-0.00,-0.14,0.00,-0.00,0.00,1005.98
0.537,0.01,0.07,0.98,-0.01,-0.00,-0.14,0.00,-0.00,0.00,1005.98
0.537,0.01,0.07,0.98,-0.01,-0.00,-0.14,-0.00,0.00,-0.00,1005.98
0.538,0.01,0.07,0.98,-0.01,-0.00,-0.14,-0.00,-0.00,0.00,1005.98
0.538,0.01,0.07,0.98,-0.00,0.00,-0.15,-0.00,-0.00,0.00,1005.98
0.539,0.01,0.07,0.98,-0.00,0.00,-0.15,-0.00,-0.00,0.00,1005.98
0.587,0.01,0.07,0.98,-0.00,0.00,-0.15,-0.00,-0.00,0.00,1005.98
0.595,0.01,0.07,0.98,-0.00,0.00,-0.15,-0.00,-0.00,0.00,1005.98
0.596,0.01,0.07,0.98,-0.00,0.00,-0.15,-0.00,-0.00,-0.00,1005.98
0.596,0.01,0.07,0.98,-0.02,-0.02,-0.17,-0.00,-0.00,-0.00,1005.98
0.655,0.01,0.07,0.98,-0.02,-0.02,-0.17,-0.00,-0.00,-0.00,1005.98
0.657,0.01,0.07,0.98,-0.02,-0.02,-0.17,-0.00,-0.00,-0.00,1005.98
0.658,0.01,0.07,0.98,-0.02,-0.02,-0.17,0.00,0.00,0.00,1005.98
0.659,0.01,0.07,0.98,-0.02,-0.02,-0.17,0.00,0.00,-0.00,1005.98
0.659,0.01,0.07,0.98,-0.01,-0.02,-0.16,0.00,0.00,-0.00,1005.98
0.66,0.01,0.07,0.98,0.00,-0.01,-0.15,0.00,0.00,-0.00,1005.98
0.686,0.01,0.07,0.98,0.00,-0.01,-0.15,0.00,0.00,-0.00,1005.98
0.712,0.01,0.07,0.98,0.00,-0.01,-0.15,0.00,0.00,-0.00,1005.98
0.714,0.01,0.07,0.98,0.00,-0.01,-0.15,0.00,0.00,0.00,1005.98
0.714,0.01,0.07,0.98,0.00,-0.01,-0.16,0.00,0.00,0.00,1005.98
0.774,0.01,0.07,0.98,0.00,-0.01,-0.16,0.00,0.00,0.00,1005.98
0.775,0.01,0.07,0.98,0.00,-0.01,-0.16,0.00,0.00,0.00,1005.98
0.776,0.01,0.07,0.98,0.00,-0.01,-0.16,-0.00,-0.00,0.00,1005.98
0.777,0.01,0.07,0.98,0.00,-0.01,-0.16,0.00,-0.00,0.00,1005.98
0.777,0.01,0.07,0.98,-0.01,-0.03,-0.16,0.00,-0.00,0.00,1005.98
0.778,0.01,0.07,0.98,-0.01,-0.01,-0.15,0.00,-0.00,0.00,1005.98
0.786,0.01,0.07,0.98,-0.01,-0.01,-0.15,0.00,-0.00,0.00,1005.98
0.829,0.01,0.07,0.98,-0.01,-0.01,-0.15,0.00,-0.00,0.00,1005.98
0.831,0.01,0.07,0.98,-0.01,-0.01,-0.15,0.00,0.00,0.00,1005.98
0.831,0.01,0.07,0.98,-0.01,-0.01,-0.15,0.00,0.00,0.00,1005.98
0.884,0.01,0.07,0.98,-0.01,-0.01,-0.15,0.00,0.00,0.00,1005.98
0.892,0.01,0.07,0.98,-0.01,-0.01,-0.15,0.00,0.00,0.00,1005.98
0.893,0.01,0.07,0.98,-0.01,-0.01,-0.15,0.00,0.00,0.00,1005.98
0.894,0.01,0.07,0.98,-0.01,-0.01,-0.15,0.00,0.00,0.00,1005.98
0.894,0.01,0.07,0.98,-0.01,-0.01,-0.15,-0.00,-0.00,-0.00,1005.98
0.895,0.01,0.07,0.98,-0.00,-0.00,-0.16,-0.00,-0.00,-0.00,1005.98
0.895,0.01,0.07,0.98,-0.00,-0.00,-0.16,-0.00,-0.00,-0.00,1005.98
0.949,0.01,0.07,0.98,-0.00,-0.00,-0.16,-0.00,-0.00,-0.00,1005.98
0.95,0.01,0.07,0.98,-0.00,-0.00,-0.16,-0.00,-0.00,0.00,1005.98
0.951,0.01,0.07,0.98,-0.01,-0.01,-0.15,-0.00,-0.00,0.00,1005.98
0.989,0.01,0.07,0.98,-0.01,-0.01,-0.15,-0.00,-0.00,0.00,1005.98
1.009,0.01,0.07,0.98,-0.01,-0.01,-0.15,-0.00,-0.00,0.00,1005.98
1.011,0.01,0.07,0.98,-0.01,-0.01,-0.15,-0.00,-0.00,0.00,1005.98
1.011,0.01,0.07,0.98,-0.01,-0.01,-0.15,0.00,0.00,0.00,1005.98
1.012,0.01,0.07,0.98,-0.01,-0.01,-0.15,-0.00,-0.00,-0.00,1005.98
1.012,0.01,0.07,0.98,-0.00,-0.02,-0.16,-0.00,-0.00,-0.00,1005.98
1.013,0.01,0.07,0.98,-0.00,-0.01,-0.15,-0.00,-0.00,-0.00,1005.98
1.066,0.01,0.07,0.98,-0.00,-0.01,-0.15,-0.00,-0.00,-0.00,1005.98
1.067,0.01,0.07,0.98,-0.00,-0.01,-0.15,0.00,-0.00,-0.00,1005.98
1.068,0.01,0.07,0.98,-0.00,-0.01,-0.16,0.00,-0.00,-0.00,1005.98
1.083,0.01,0.07,0.98,-0.00,-0.01,-0.16,0.00,-0.00,-0.00,1005.98
1.128,0.01,0.07,0.98,-0.00,-0.01,-0.16,0.00,-0.00,-0.00,1005.98
1.129,0.01,0.07,0.98,-0.00,-0.01,-0.16,0.00,-0.00,-0.00,1005.98
1.13,0.01,0.07,0.98,-0.00,-0.01,-0.16,0.00,0.00,-0.00,1005.98
1.131,0.01,0.07,0.98,-0.00,-0.01,-0.16,0.00,0.00,-0.00,1005.98
1.134,0.01,0.07,0.98,-0.01,-0.01,-0.16,0.00,0.00,-0.00,1005.98
1.137,0.01,0.07,0.98,-0.00,-0.00,-0.16,0.00,0.00,-0.00,1005.98
1.183,0.01,0.07,0.98,-0.00,-0.00,-0.16,0.00,0.00,-0.00,1005.98
1.184,0.01,0.07,0.98,-0.00,-0.00,-0.16,0.00,0.00,-0.00,1005.98
1.185,0.01,0.07,0.98,-0.00,-0.00,-0.16,0.00,-0.00,0.00,1005.98
1.185,0.01,0.07,0.98,0.00,-0.00,-0.15,0.00,-0.00,0.00,1005.98
1.244,0.01,0.07,0.98,0.00,-0.00,-0.15,0.00,-0.00,0.00,1005.98
1.246,0.01,0.07,0.98,0.00,-0.00,-0.15,0.00,-0.00,0.00,1005.98
1.246,0.01,0.07,0.98,0.00,-0.00,-0.15,-0.00,0.00,0.00,1005.98
1.247,0.01,0.07,0.98,0.00,-0.00,-0.15,-0.00,0.00,-0.00,1005.98
1.247,0.01,0.07,0.98,0.00,-0.00,-0.14,-0.00,0.00,-0.00,1005.98
1.248,0.01,0.07,0.98,-0.01,0.01,-0.15,-0.00,0.00,-0.00,1005.98
1.285,0.01,0.07,0.98,-0.01,0.01,-0.15,-0.00,0.00,-0.00,1005.98
1.303,0.01,0.07,0.98,-0.01,0.01,-0.15,-0.00,0.00,-0.00,1005.98
1.305,0.01,0.07,0.98,-0.01,0.01,-0.15,-0.00,-0.00,-0.00,1005.98
1.305,0.01,0.07,0.98,-0.01,0.01,-0.15,-0.00,-0.00,-0.00,1005.98
1.363,0.01,0.07,0.98,-0.01,0.01,-0.15,-0.00,-0.00,-0.00,1005.98
1.365,0.01,0.07,0.98,-0.01,0.01,-0.15,-0.00,-0.00,-0.00,1005.98
1.365,0.01,0.07,0.98,-0.01,0.01,-0.15,-0.00,-0.00,-0.00,1005.98
1.366,0.01,0.07,0.98,-0.01,0.01,-0.15,0.00,0.00,0.00,1005.98
1.368,0.01,0.07,0.98,0.00,-0.01,-0.15,0.00,0.00,0.00,1005.98
1.369,0.01,0.07,0.98,-0.01,-0.03,-0.16,0.00,0.00,0.00,1005.98
1.381,0.01,0.07,0.98,-0.01,-0.03,-0.16,0.00,0.00,0.00,1005.98
1.421,0.01,0.07,0.98,-0.01,-0.03,-0.16,0.00,0.00,0.00,1005.98
1.423,0.01,0.07,0.98,-0.01,-0.03,-0.16,0.00,0.00,0.00,1005.98
1.424,0.01,0.07,0.98,-0.02,-0.03,-0.15,0.00,0.00,0.00,1005.98
1.481,0.01,0.07,0.98,-0.02,-0.03,-0.15,0.00,0.00,0.00,1005.98
1.483,0.01,0.07,0.98,-0.02,-0.03,-0.15,0.00,0.00,0.00,1005.98
1.484,0.01,0.07,0.98,-0.02,-0.03,-0.15,0.00,-0.00,0.00,1005.98
1.484,0.01,0.07,0.98,-0.02,-0.03,-0.15,0.00,-0.00,0.00,1005.98
1.485,0.01,0.07,0.98,-0.00,-0.01,-0.15,0.00,-0.00,0.00,1005.98
1.485,0.01,0.07,0.98,-0.00,-0.00,-0.15,0.00,-0.00,0.00,1005.98
1.486,0.01,0.07,0.98,-0.00,-0.00,-0.15,0.00,-0.00,0.00,1005.99
1.538,0.01,0.07,0.98,-0.00,-0.00,-0.15,0.00,-0.00,0.00,1005.99
1.54,0.01,0.07,0.98,-0.00,-0.00,-0.15,0.00,0.00,0.00,1005.99
1.541,0.01,0.07,0.98,-0.00,-0.01,-0.16,0.00,0.00,0.00,1005.99
1.585,0.01,0.07,0.98,-0.00,-0.01,-0.16,0.00,0.00,0.00,1005.99
1.608,0.01,0.07,0.98,-0.00,-0.01,-0.16,0.00,0.00,0.00,1005.99
1.61,0.01,0.07,0.98,-0.00,-0.01,-0.16,0.00,0.00,0.00,1005.99
1.612,0.01,0.07,0.98,-0.00,-0.01,-0.16,-0.00,-0.00,0.00,1005.99
1.613,0.01,0.07,0.98,-0.00,-0.01,-0.16,0.00,0.00,0.00,1005.99
1.614,0.01,0.07,0.98,-0.01,0.01,-0.15,0.00,0.00,0.00,1005.99
1.616,0.01,0.07,0.98,-0.01,-0.00,-0.14,0.00,0.00,0.00,1005.99
1.658,0.01,0.07,0.98,-0.01,-0.00,-0.14,0.00,0.00,0.00,1005.99
1.66,0.01,0.07,0.98,-0.01,-0.00,-0.14,-0.00,-0.00,-0.00,1005.99
1.661,0.01,0.07,0.98,-0.00,-0.01,-0.15,-0.00,-0.00,-0.00,1005.99
1.681,0.01,0.07,0.98,-0.00,-0.01,-0.15,-0.00,-0.00,-0.00,1006.00
1.724,0.01,0.07,0.98,-0.00,-0.01,-0.15,-0.00,-0.00,-0.00,1006.00
1.726,0.01,0.07,0.98,-0.00,-0.01,-0.15,-0.00,-0.00,-0.00,1006.00
1.727,0.01,0.07,0.98,-0.00,-0.01,-0.15,0.00,0.00,0.00,1006.00
1.728,0.01,0.07,0.98,-0.00,-0.01,-0.15,-0.00,0.00,-0.00,1006.00
1.73,0.01,0.07,0.98,-0.00,-0.01,-0.15,-0.00,0.00,-0.00,1006.00
1.732,0.01,0.07,0.98,-0.02,-0.00,-0.16,-0.00,0.00,-0.00,1006.00
1.774,0.01,0.07,0.98,-0.02,-0.00,-0.16,-0.00,0.00,-0.00,1006.00
1.788,0.01,0.07,0.98,-0.02,-0.00,-0.16,-0.00,0.00,-0.00,1006.00
1.789,0.01,0.07,0.98,0.00,0.01,-0.15,-0.00,0.00,-0.00,1006.00
1.789,0.01,0.07,0.98,0.00,0.01,-0.15,-0.00,0.00,-0.00,1006.00
1.839,0.01,0.07,0.98,0.00,0.01,-0.15,-0.00,0.00,-0.00,1006.00
1.84,0.01,0.07,0.98,0.00,0.01,-0.15,-0.00,0.00,-0.00,1006.00
1.841,0.01,0.07,0.98,0.00,0.01,-0.15,-0.00,0.00,0.00,1006.00
1.841,0.01,0.07,0.98,0.00,0.01,-0.15,-0.00,0.00,0.00,1006.00
1.841,0.01,0.07,0.98,0.00,-0.01,-0.16,-0.00,0.00,0.00,1006.00
1.842,0.01,0.07,0.98,0.01,-0.03,-0.15,-0.00,0.00,0.00,1006.00
1.88,0.01,0.07,0.98,0.01,-0.03,-0.15,-0.00,0.00,0.00,1005.99
1.893,0.01,0.07,0.98,0.01,-0.03,-0.15,-0.00,0.00,0.00,1005.99
1.896,0.01,0.07,0.98,0.01,-0.03,-0.15,0.00,0.00,0.00,1005.99
1.897,0.01,0.07,0.98,-0.01,-0.03,-0.15,0.00,0.00,0.00,1005.99
1.954,0.01,0.07,0.98,-0.01,-0.03,-0.15,0.00,0.00,0.00,1005.99
1.958,0.01,0.07,0.98,-0.01,-0.03,-0.15,0.00,0.00,0.00,1005.99
1.959,0.01,0.07,0.98,-0.01,-0.03,-0.15,0.00,-0.00,-0.00,1005.99
1.96,0.01,0.07,0.98,-0.01,-0.03,-0.15,0.00,0.00,-0.00,1005.99
1.961,0.01,0.07,0.98,-0.02,0.01,-0.15,0.00,0.00,-0.00,1005.99
1.962,0.01,0.07,0.98,-0.01,0.01,-0.14,0.00,0.00,-0.00,1005.99
1.981,0.01,0.07,0.98,-0.01,0.01,-0.14,0.00,0.00,-0.00,1005.98
2.012,0.01,0.07,0.98,-0.01,0.01,-0.14,0.00,0.00,-0.00,1005.98
2.015,0.01,0.07,0.98,-0.01,0.01,-0.14,0.00,-0.00,-0.00,1005.98
2.019,0.01,0.07,0.98,-0.02,-0.01,-0.15,0.00,-0.00,-0.00,1005.98
2.07,0.01,0.07,0.98,-0.02,-0.01,-0.15,0.00,-0.00,-0.00,1005.98
2.072,0.01,0.07,0.98,-0.02,-0.01,-0.15,0.00,-0.00,-0.00,1005.98
2.074,0.01,0.07,0.98,-0.02,-0.01,-0.15,0.00,-0.00,0.00,1005.98
2.075,0.01,0.07,0.98,-0.02,-0.01,-0.15,0.00,-0.00,0.00,1005.98
2.077,0.01,0.07,0.98,0.01,-0.05,-0.16,0.00,-0.00,0.00,1005.98
2.079,0.01,0.07,0.98,0.01,-0.05,-0.16,0.00,-0.00,0.00,1005.98
2.13,0.01,0.07,0.98,0.01,-0.05,-0.16,0.00,-0.00,0.00,1005.98
2.134,0.01,0.07,0.98,0.01,-0.05,-0.16,-0.00,0.00,-0.00,1005.98
2.136,0.01,0.07,0.98,0.00,-0.02,-0.15,-0.00,0.00,-0.00,1005.98
2.179,0.01,0.07,0.98,0.00,-0.02,-0.15,-0.00,0.00,-0.00,1005.97
2.193,0.01,0.07,0.98,0.00,-0.02,-0.15,-0.00,0.00,-0.00,1005.97
2.196,0.01,0.07,0.98,0.00,-0.02,-0.15,-0.00,0.00,-0.00,1005.97
2.197,0.01,0.07,0.98,0.00,-0.02,-0.15,0.00,0.00,0.00,1005.97
2.198,0.01,0.07,0.98,0.00,-0.02,-0.15,0.00,0.00,-0.00,1005.97
2.199,0.01,0.07,0.98,0.00,0.00,-0.14,0.00,0.00,-0.00,1005.97
2.201,0.01,0.07,0.98,-0.01,-0.02,-0.15,0.00,0.00,-0.00,1005.97
2.249,0.01,0.07,0.98,-0.01,-0.02,-0.15,0.00,0.00,-0.00,1005.97
2.251,0.01,0.07,0.98,-0.01,-0.02,-0.15,0.00,0.00,0.00,1005.97
2.252,0.01,0.07,0.98,-0.01,-0.01,-0.16,0.00,0.00,0.00,1005.97
2.278,0.01,0.07,0.98,-0.01,-0.01,-0.16,0.00,0.00,0.00,1005.98
2.309,0.01,0.07,0.98,-0.01,-0.01,-0.16,0.00,0.00,0.00,1005.98
2.31,0.01,0.07,0.98,-0.01,-0.01,-0.16,0.00,0.00,0.00,1005.98
2.311,0.01,0.07,0.98,-0.01,-0.01,-0.16,-0.00,0.00,-0.00,1005.98
2.312,0.01,0.07,0.98,-0.01,-0.01,-0.16,0.00,0.00,0.00,1005.98
2.313,0.01,0.07,0.98,-0.02,0.00,-0.16,0.00,0.00,0.00,1005.98
2.314,0.01,0.07,0.98,-0.01,0.01,-0.14,0.00,0.00,0.00,1005.98
2.366,0.01,0.07,0.98,-0.01,0.01,-0.14,0.00,0.00,0.00,1005.98
2.368,0.01,0.07,0.98,-0.01,0.01,-0.14,-0.00,0.00,0.00,1005.98
2.369,0.01,0.07,0.98,-0.01,-0.01,-0.15,-0.00,0.00,0.00,1005.98
2.379,0.01,0.07,0.98,-0.01,-0.01,-0.15,-0.00,0.00,0.00,1005.98
2.427,0.01,0.07,0.98,-0.01,-0.01,-0.15,-0.00,0.00,0.00,1005.98
2.428,0.01,0.07,0.98,-0.01,-0.01,-0.15,-0.00,0.00,0.00,1005.98
2.428,0.01,0.07,0.98,-0.01,-0.01,-0.15,-0.00,-0.00,-0.00,1005.98
2.429,0.01,0.07,0.98,-0.01,-0.01,-0.15,0.00,-0.00,0.00,1005.98
2.429,0.01,0.07,0.98,-0.02,-0.01,-0.15,0.00,-0.00,0.00,1005.98
2.43,0.01,0.07,0.98,-0.02,-0.02,-0.16,0.00,-0.00,0.00,1005.98
2.479,0.01,0.07,0.98,-0.02,-0.02,-0.16,0.00,-0.00,0.00,1005.98
2.485,0.01,0.07,0.98,-0.02,-0.02,-0.16,0.00,-0.00,0.00,1005.98
2.486,0.01,0.07,0.98,-0.02,-0.02,-0.16,0.00,-0.01,-0.00,1005.98
2.487,0.01,0.07,0.98,-0.01,-0.01,-0.15,0.00,-0.01,-0.00,1005.98
2.547,0.01,0.07,0.98,-0.01,-0.01,-0.15,0.00,-0.01,-0.00,1005.98
2.551,0.01,0.07,0.98,-0.01,-0.01,-0.15,0.00,-0.01,-0.00,1005.98
2.553,0.01,0.07,0.98,-0.01,-0.01,-0.15,0.00,0.00,0.00,1005.98
2.554,0.01,0.07,0.98,-0.01,-0.01,-0.15,0.00,-0.00,0.00,1005.98
2.556,0.01,0.07,0.98,0.00,-0.01,-0.16,0.00,-0.00,0.00,1005.98
2.557,0.01,0.07,0.98,-0.00,-0.01,-0.16,0.00,-0.00,0.00,1005.98
2.579,0.01,0.07,0.98,-0.00,-0.01,-0.16,0.00,-0.00,0.00,1005.98
2.606,0.01,0.07,0.98,-0.00,-0.01,-0.16,0.00,-0.00,0.00,1005.98
2.608,0.01,0.07,0.98,-0.00,-0.01,-0.16,-0.00,-0.00,0.00,1005.98
2.609,0.01,0.07,0.98,-0.00,-0.00,-0.15,-0.00,-0.00,0.00,1005.98
2.662,0.01,0.07,0.98,-0.00,-0.00,-0.15,-0.00,-0.00,0.00,1005.98
2.664,0.01,0.07,0.98,-0.00,-0.00,-0.15,-0.00,-0.00,0.00,1005.98
2.665,0.01,0.07,0.98,-0.00,-0.00,-0.15,-0.00,0.00,0.00,1005.98
2.665,0.01,0.07,0.98,-0.00,-0.00,-0.15,0.00,0.00,0.00,1005.98
2.666,0.01,0.07,0.98,-0.00,-0.01,-0.15,0.00,0.00,0.00,1005.98
2.667,0.01,0.07,0.98,-0.01,-0.02,-0.16,0.00,0.00,0.00,1005.98
2.677,0.01,0.07,0.98,-0.01,-0.02,-0.16,0.00,0.00,0.00,1005.98
2.719,0.01,0.07,0.98,-0.01,-0.02,-0.16,0.00,0.00,0.00,1005.98
2.721,0.01,0.07,0.98,-0.01,-0.02,-0.16,0.00,-0.01,0.00,1005.98
2.721,0.01,0.07,0.98,-0.00,-0.02,-0.16,0.00,-0.01,0.00,1005.98
2.777,0.01,0.07,0.98,-0.00,-0.02,-0.16,0.00,-0.01,0.00,1005.99
2.78,0.01,0.07,0.98,-0.00,-0.02,-0.16,0.00,-0.01,0.00,1005.99
2.781,0.01,0.07,0.98,-0.00,-0.02,-0.16,0.00,-0.01,0.00,1005.99
2.782,0.01,0.07,0.98,-0.00,-0.02,-0.16,0.00,0.00,-0.00,1005.99
2.783,0.01,0.07,0.98,-0.00,-0.02,-0.16,0.00,0.01,-0.00,1005.99
2.783,0.01,0.07,0.98,-0.00,0.00,-0.14,0.00,0.01,-0.00,1005.99
2.784,0.01,0.07,0.98,-0.00,0.02,-0.15,0.00,0.01,-0.00,1005.99
2.841,0.01,0.07,0.98,-0.00,0.02,-0.15,0.00,0.01,-0.00,1005.99
2.843,0.01,0.07,0.98,-0.00,0.02,-0.15,-0.00,-0.00,-0.00,1005.99
2.845,0.01,0.07,0.98,-0.01,0.01,-0.15,-0.00,-0.00,-0.00,1005.99
2.878,0.01,0.07,0.98,-0.01,0.01,-0.15,-0.00,-0.00,-0.00,1005.99
2.91,0.01,0.07,0.98,-0.01,0.01,-0.15,-0.00,-0.00,-0.00,1005.99
2.914,0.01,0.07,0.98,-0.01,0.01,-0.15,-0.00,-0.00,-0.00,1005.99
2.916,0.01,0.07,0.98,-0.01,0.01,-0.15,0.00,-0.00,-0.00,1005.99
2.918,0.01,0.07,0.98,-0.01,0.01,-0.15,0.01,0.01,-0.00,1005.99
2.921,0.01,0.07,0.98,-0.01,0.00,-0.16,0.01,0.01,-0.00,1005.99
2.923,0.01,0.07,0.98,-0.01,-0.03,-0.16,0.01,0.01,-0.00,1005.99
2.956,0.01,0.07,0.98,-0.01,-0.03,-0.16,0.01,0.01,-0.00,1005.99
2.958,0.01,0.07,0.98,-0.01,-0.03,-0.16,0.01,0.02,0.00,1005.99
2.958,0.01,0.07,0.98,-0.00,-0.02,-0.15,0.01,0.02,0.00,1005.99
2.976,0.01,0.07,0.98,-0.00,-0.02,-0.15,0.01,0.02,0.00,1005.99
3.018,0.01,0.07,0.98,-0.00,-0.02,-0.15,0.01,0.02,0.00,1005.99
3.02,0.01,0.07,0.98,-0.00,-0.02,-0.15,0.01,0.02,0.00,1005.99
3.021,0.01,0.07,0.98,-0.00,-0.02,-0.15,0.02,0.02,0.00,1005.99
3.021,0.01,0.07,0.98,-0.00,-0.02,-0.15,0.02,0.05,-0.00,1005.99
3.022,0.01,0.07,0.98,-0.01,-0.01,-0.16,0.02,0.05,-0.00,1005.99
3.023,0.01,0.07,0.98,0.00,-0.00,-0.14,0.02,0.05,-0.00,1005.99
3.076,0.02,0.07,1.00,0.00,-0.00,-0.14,0.02,0.05,-0.00,1005.99
3.079,0.02,0.07,1.00,0.00,-0.00,-0.14,0.06,-0.01,-0.07,1005.99
3.081,0.02,0.07,1.00,0.06,0.01,-0.08,0.06,-0.01,-0.07,1005.99
3.082,0.02,0.07,1.00,0.06,0.01,-0.08,0.06,-0.01,-0.07,1005.98
3.143,-0.01,0.08,0.99,0.06,0.01,-0.08,0.06,-0.01,-0.07,1005.98
3.146,0.01,0.08,1.00,0.06,0.01,-0.08,0.06,-0.01,-0.07,1005.98
3.147,0.01,0.08,1.00,0.06,0.01,-0.08,0.08,-0.01,-0.00,1005.98
3.149,0.01,0.08,1.00,0.06,0.01,-0.08,0.13,0.00,-0.00,1005.98
3.15,0.01,0.08,1.00,-0.01,-0.01,-0.01,0.13,0.00,-0.00,1005.98
3.151,0.01,0.08,1.00,-0.09,-0.02,-0.01,0.13,0.00,-0.00,1005.98
3.176,0.01,0.08,1.00,-0.09,-0.02,-0.01,0.13,0.00,-0.00,1005.98
3.192,0.04,0.08,1.05,-0.09,-0.02,-0.01,0.13,0.00,-0.00,1005.98
3.194,0.04,0.08,1.05,-0.09,-0.02,-0.01,0.32,0.00,-0.06,1005.98
3.194,0.04,0.08,1.05,0.13,-0.04,0.23,0.32,0.00,-0.06,1005.98
3.253,0.04,0.09,1.04,0.13,-0.04,0.23,0.32,0.00,-0.06,1005.98
3.254,-0.06,0.11,0.94,0.13,-0.04,0.23,0.32,0.00,-0.06,1005.98
3.255,-0.06,0.11,0.94,0.13,-0.04,0.23,0.48,0.00,-0.19,1005.98
3.255,-0.06,0.11,0.94,0.13,-0.04,0.23,0.39,-0.01,0.01,1005.98
3.256,-0.06,0.11,0.94,0.30,-0.09,0.48,0.39,-0.01,0.01,1005.98
3.257,-0.06,0.11,0.94,-0.15,-0.13,0.01,0.39,-0.01,0.01,1005.98
3.275,-0.06,0.11,0.94,-0.15,-0.13,0.01,0.39,-0.01,0.01,1005.98
3.313,0.00,0.13,0.91,-0.15,-0.13,0.01,0.39,-0.01,0.01,1005.98
3.315,0.00,0.13,0.91,-0.15,-0.13,0.01,0.22,0.01,0.02,1005.98
3.316,0.00,0.13,0.91,-0.39,-0.09,-0.66,0.22,0.01,0.02,1005.98
3.374,0.01,0.14,0.96,-0.39,-0.09,-0.66,0.22,0.01,0.02,1005.98
3.377,-0.08,0.15,0.92,-0.39,-0.09,-0.66,0.22,0.01,0.02,1005.98
3.378,-0.08,0.15,0.92,-0.39,-0.09,-0.66,0.16,0.07,0.03,1005.98
3.38,-0.08,0.15,0.92,-0.39,-0.09,-0.66,-0.03,0.02,0.40,1005.98
3.381,-0.08,0.15,0.92,-0.03,-0.04,-0.55,-0.03,0.02,0.40,1005.98
3.382,-0.08,0.15,0.92,-0.43,-0.01,-0.48,-0.03,0.02,0.40,1005.98
3.384,-0.08,0.15,0.92,-0.43,-0.01,-0.48,-0.03,0.02,0.40,1005.98
3.427,0.17,0.14,1.04,-0.43,-0.01,-0.48,-0.03,0.02,0.40,1005.98
3.429,0.17,0.14,1.04,-0.43,-0.01,-0.48,0.18,0.00,-0.18,1005.98
3.43,0.17,0.14,1.04,0.43,-0.02,-0.03,0.18,0.00,-0.18,1005.98
3.475,0.17,0.14,1.04,0.43,-0.02,-0.03,0.18,0.00,-0.18,1005.98
3.489,-0.03,0.15,1.06,0.43,-0.02,-0.03,0.18,0.00,-0.18,1005.98
3.491,-0.02,0.17,1.01,0.43,-0.02,-0.03,0.18,0.00,-0.18,1005.98
3.492,-0.02,0.17,1.01,0.43,-0.02,-0.03,0.41,0.05,-0.06,1005.98
3.493,-0.02,0.17,1.01,0.43,-0.02,-0.03,0.48,-0.01,-0.03,1005.98
3.493,-0.02,0.17,1.01,0.52,-0.09,0.63,0.48,-0.01,-0.03,1005.98
3.494,-0.02,0.17,1.01,-0.29,-0.13,0.44,0.48,-0.01,-0.03,1005.98
3.552,0.01,0.19,1.04,-0.29,-0.13,0.44,0.48,-0.01,-0.03,1005.98
3.555,0.01,0.19,1.04,-0.29,-0.13,0.44,0.71,-0.08,-0.05,1005.98
3.556,0.01,0.19,1.04,-0.10,-0.14,0.46,0.71,-0.08,-0.05,1005.98
3.575,0.01,0.19,1.04,-0.10,-0.14,0.46,0.71,-0.08,-0.05,1005.98
3.607,-0.01,0.21,1.00,-0.10,-0.14,0.46,0.71,-0.08,-0.05,1005.98
3.608,0.01,0.24,0.93,-0.10,-0.14,0.46,0.71,-0.08,-0.05,1005.98
3.609,0.01,0.24,0.93,-0.10,-0.14,0.46,0.78,-0.06,-0.01,1005.98
3.61,0.01,0.24,0.93,-0.10,-0.14,0.46,0.72,-0.04,0.00,1005.98
3.611,0.01,0.24,0.93,-0.10,-0.20,0.41,0.72,-0.04,0.00,1005.98
3.611,0.01,0.24,0.93,-0.05,-0.19,-0.09,0.72,-0.04,0.00,1005.98
3.666,0.00,0.27,1.01,-0.05,-0.19,-0.09,0.72,-0.04,0.00,1005.98
3.668,0.00,0.27,1.01,-0.05,-0.19,-0.09,0.86,-0.02,0.02,1005.98
3.668,0.00,0.27,1.01,-0.04,-0.20,0.19,0.86,-0.02,0.02,1005.98
3.674,0.00,0.27,1.01,-0.04,-0.20,0.19,0.86,-0.02,0.02,1005.98
3.727,0.02,0.30,1.00,-0.04,-0.20,0.19,0.86,-0.02,0.02,1005.98
3.731,0.02,0.34,0.94,-0.04,-0.20,0.19,0.86,-0.02,0.02,1005.98
3.732,0.02,0.34,0.94,-0.04,-0.20,0.19,1.01,-0.00,0.00,1005.98
3.733,0.02,0.34,0.94,-0.04,-0.20,0.19,1.05,0.01,-0.01,1005.98
3.735,0.02,0.34,0.94,0.00,-0.25,0.53,1.05,0.01,-0.01,1005.98
3.736,0.02,0.34,0.94,0.07,-0.28,0.26,1.05,0.01,-0.01,1005.98
3.773,0.02,0.34,0.94,0.07,-0.28,0.26,1.05,0.01,-0.01,1005.98
3.785,0.02,0.34,0.94,0.07,-0.28,0.26,0.98,0.02,-0.03,1005.98
3.787,0.02,0.38,0.89,0.07,-0.28,0.26,0.98,0.02,-0.03,1005.98
3.795,0.02,0.38,0.89,0.09,-0.27,-0.17,0.98,0.02,-0.03,1005.98
3.844,0.02,0.41,0.87,0.09,-0.27,-0.17,0.98,0.02,-0.03,1005.98
3.849,0.03,0.44,0.88,0.09,-0.27,-0.17,0.98,0.02,-0.03,1005.98
3.855,0.03,0.44,0.88,0.09,-0.27,-0.17,0.86,0.02,-0.04,1005.98
3.856,0.03,0.44,0.88,0.09,-0.27,-0.17,0.80,-0.03,-0.11,1005.98
3.857,0.03,0.44,0.88,0.10,-0.23,-0.34,0.80,-0.03,-0.11,1005.98
3.858,0.03,0.44,0.88,0.21,-0.24,-0.17,0.80,-0.03,-0.11,1005.98
3.872,0.03,0.44,0.88,0.21,-0.24,-0.17,0.80,-0.03,-0.11,1005.98
3.9,-0.01,0.48,0.80,0.21,-0.24,-0.17,0.80,-0.03,-0.11,1005.98
3.902,-0.01,0.48,0.80,0.21,-0.24,-0.17,0.58,-0.02,-0.05,1005.98
3.903,-0.01,0.48,0.80,-0.03,-0.12,-0.53,0.58,-0.02,-0.05,1005.98
3.97,0.02,0.50,0.88,-0.03,-0.12,-0.53,0.58,-0.02,-0.05,1005.98
3.974,0.02,0.51,0.90,-0.03,-0.12,-0.53,0.58,-0.02,-0.05,1005.98
3.975,0.02,0.51,0.90,-0.03,-0.12,-0.53,0.61,-0.05,-0.11,1005.98
3.975,0.02,0.51,0.90,-0.03,-0.12,-0.53,0.68,-0.08,-0.13,1005.98
3.976,0.02,0.51,0.90,0.05,-0.05,-0.10,0.68,-0.08,-0.13,1005.98
3.977,0.02,0.51,0.90,0.08,-0.12,0.39,0.68,-0.08,-0.13,1005.98
3.978,0.02,0.51,0.90,0.08,-0.12,0.39,0.68,-0.08,-0.13,1005.97
4.019,-0.04,0.55,0.82,0.08,-0.12,0.39,0.68,-0.08,-0.13,1005.97
4.021,-0.04,0.55,0.82,0.08,-0.12,0.39,0.65,-0.02,0.02,1005.97
4.021,-0.04,0.55,0.82,-0.35,-0.04,0.02,0.65,-0.02,0.02,1005.97
4.073,-0.04,0.55,0.82,-0.35,-0.04,0.02,0.65,-0.02,0.02,1005.97
4.082,0.01,0.57,0.83,-0.35,-0.04,0.02,0.65,-0.02,0.02,1005.97
4.083,0.03,0.58,0.83,-0.35,-0.04,0.02,0.65,-0.02,0.02,1005.97
4.084,0.03,0.58,0.83,-0.35,-0.04,0.02,0.64,-0.03,0.02,1005.97
4.086,0.03,0.58,0.83,-0.35,-0.04,0.02,0.68,0.01,-0.01,1005.97
4.087,0.03,0.58,0.83,-0.11,-0.05,0.05,0.68,0.01,-0.01,1005.97
4.088,0.03,0.58,0.83,0.13,-0.09,0.18,0.68,0.01,-0.01,1005.97
4.138,0.01,0.61,0.80,0.13,-0.09,0.18,0.68,0.01,-0.01,1005.97
4.14,0.01,0.61,0.80,0.13,-0.09,0.18,0.67,-0.01,0.01,1005.97
4.142,0.01,0.61,0.80,0.01,-0.07,0.14,0.67,-0.01,0.01,1005.97
4.171,0.01,0.61,0.80,0.01,-0.07,0.14,0.67,-0.01,0.01,1005.97
4.198,0.02,0.63,0.81,0.01,-0.07,0.14,0.67,-0.01,0.01,1005.97
4.2,0.02,0.65,0.77,0.01,-0.07,0.14,0.67,-0.01,0.01,1005.97
4.202,0.02,0.65,0.77,0.01,-0.07,0.14,0.74,-0.00,-0.00,1005.97
4.203,0.02,0.65,0.77,0.01,-0.07,0.14,0.75,0.00,-0.01,1005.97
4.205,0.02,0.65,0.77,0.04,-0.06,0.36,0.75,0.00,-0.01,1005.97
4.206,0.02,0.65,0.77,0.06,-0.06,0.18,0.75,0.00,-0.01,1005.97
4.255,0.01,0.68,0.74,0.06,-0.06,0.18,0.75,0.00,-0.01,1005.97
4.258,0.01,0.68,0.74,0.06,-0.06,0.18,0.70,-0.02,0.01,1005.97
4.26,0.01,0.68,0.74,-0.02,-0.01,0.04,0.70,-0.02,0.01,1005.97
4.27,0.01,0.68,0.74,-0.02,-0.01,0.04,0.70,-0.02,0.01,1005.97
4.315,0.01,0.68,0.74,-0.02,-0.01,0.04,0.93,-0.01,0.00,1005.97
4.321,0.02,0.70,0.81,-0.02,-0.01,0.04,0.93,-0.01,0.00,1005.97
4.322,0.02,0.72,0.69,-0.02,-0.01,0.04,0.93,-0.01,0.00,1005.97
4.324,0.02,0.72,0.69,-0.02,-0.01,0.04,0.88,0.01,-0.02,1005.97
4.331,0.02,0.72,0.69,0.07,-0.06,0.88,0.88,0.01,-0.02,1005.97
4.332,0.02,0.72,0.69,0.12,-0.09,0.15,0.88,0.01,-0.02,1005.97
4.37,0.02,0.72,0.69,0.12,-0.09,0.15,0.88,0.01,-0.02,1005.98
4.378,0.01,0.74,0.68,0.12,-0.09,0.15,0.88,0.01,-0.02,1005.98
4.379,0.01,0.74,0.68,0.12,-0.09,0.15,0.89,0.01,-0.02,1005.98
4.38,0.01,0.74,0.68,0.06,-0.07,0.16,0.89,0.01,-0.02,1005.98
4.433,0.01,0.77,0.66,0.06,-0.07,0.16,0.89,0.01,-0.02,1005.98
4.434,0.02,0.80,0.59,0.06,-0.07,0.16,0.89,0.01,-0.02,1005.98
4.435,0.02,0.80,0.59,0.06,-0.07,0.16,0.87,0.01,-0.02,1005.98
4.435,0.02,0.80,0.59,0.06,-0.07,0.16,0.79,0.01,-0.04,1005.98
4.436,0.02,0.80,0.59,0.03,-0.04,0.23,0.79,0.01,-0.04,1005.98
4.436,0.02,0.80,0.59,0.11,0.03,-0.13,0.79,0.01,-0.04,1005.98
4.472,0.02,0.80,0.59,0.11,0.03,-0.13,0.79,0.01,-0.04,1005.98
4.496,0.01,0.81,0.57,0.11,0.03,-0.13,0.79,0.01,-0.04,1005.98
4.498,0.01,0.81,0.57,0.11,0.03,-0.13,0.67,-0.05,-0.03,1005.98
4.498,0.01,0.81,0.57,0.05,0.02,-0.15,0.67,-0.05,-0.03,1005.98
4.551,0.00,0.84,0.61,0.05,0.02,-0.15,0.67,-0.05,-0.03,1005.98
4.552,0.01,0.85,0.54,0.05,0.02,-0.15,0.67,-0.05,-0.03,1005.98
4.553,0.01,0.85,0.54,0.05,0.02,-0.15,0.73,-0.05,-0.01,1005.98
4.554,0.01,0.85,0.54,0.05,0.02,-0.15,0.65,-0.01,0.01,1005.98
4.554,0.01,0.85,0.54,-0.06,0.12,0.39,0.65,-0.01,0.01,1005.98
4.554,0.01,0.85,0.54,-0.00,0.13,-0.04,0.65,-0.01,0.01,1005.98
4.57,0.01,0.85,0.54,-0.00,0.13,-0.04,0.65,-0.01,0.01,1005.98
4.611,0.01,0.87,0.56,-0.00,0.13,-0.04,0.65,-0.01,0.01,1005.98
4.613,0.01,0.87,0.56,-0.00,0.13,-0.04,0.71,-0.02,0.02,1005.98
4.672,-0.02,0.88,0.50,-0.00,0.13,-0.04,0.71,-0.02,0.02,1005.98
4.675,0.03,0.90,0.52,-0.00,0.13,-0.04,0.71,-0.02,0.02,1005.98
4.675,0.03,0.90,0.52,-0.00,0.13,-0.04,0.63,0.21,0.13,1005.98
4.676,0.03,0.90,0.52,-0.00,0.13,-0.04,0.71,0.04,0.06,1005.98
4.676,0.03,0.90,0.52,-0.02,0.12,0.39,0.71,0.04,0.06,1005.98
4.677,0.03,0.90,0.52,-0.26,0.07,0.04,0.71,0.04,0.06,1005.98
4.677,0.03,0.90,0.52,-0.26,0.07,0.04,0.71,0.04,0.06,1005.98
4.729,0.02,0.91,0.48,-0.26,0.07,0.04,0.71,0.04,0.06,1005.98
4.731,0.02,0.91,0.48,-0.26,0.07,0.04,0.71,0.09,0.07,1005.98
4.732,0.02,0.91,0.48,0.24,0.17,0.44,0.71,0.09,0.07,1005.98
4.769,0.02,0.91,0.48,0.24,0.17,0.44,0.71,0.09,0.07,1005.97
4.786,0.02,0.91,0.48,0.24,0.17,0.44,0.62,-0.00,0.00,1005.97
4.787,0.02,0.91,0.48,0.24,0.17,0.44,0.83,0.08,0.03,1005.97
4.789,0.03,0.92,0.42,0.24,0.17,0.44,0.83,0.08,0.03,1005.97
4.791,0.01,0.93,0.50,0.24,0.17,0.44,0.83,0.08,0.03,1005.97
4.795,0.01,0.93,0.50,0.13,0.15,0.26,0.83,0.08,0.03,1005.97
4.796,0.01,0.93,0.50,0.23,0.18,0.03,0.83,0.08,0.03,1005.97
4.847,0.04,0.94,0.46,0.23,0.18,0.03,0.83,0.08,0.03,1005.97
4.848,0.04,0.94,0.46,0.23,0.18,0.03,0.91,-0.28,-0.05,1005.97
4.848,0.04,0.94,0.46,0.04,0.15,0.94,0.91,-0.28,-0.05,1005.97
4.869,0.04,0.94,0.46,0.04,0.15,0.94,0.91,-0.28,-0.05,1005.98
4.907,-0.01,0.97,0.23,0.04,0.15,0.94,0.91,-0.28,-0.05,1005.98
4.908,-0.02,0.98,0.38,0.04,0.15,0.94,0.91,-0.28,-0.05,1005.98
4.909,-0.02,0.98,0.38,0.04,0.15,0.94,0.61,-0.01,0.03,1005.98
4.909,-0.02,0.98,0.38,0.04,0.15,0.94,0.78,-0.04,0.12,1005.98
4.91,-0.02,0.98,0.38,0.22,0.08,0.70,0.78,-0.04,0.12,1005.98
4.91,-0.02,0.98,0.38,-0.19,0.25,-0.85,0.78,-0.04,0.12,1005.98
4.964,0.05,0.98,0.34,-0.19,0.25,-0.85,0.78,-0.04,0.12,1005.98
4.966,0.05,0.98,0.34,-0.19,0.25,-0.85,0.73,-0.21,0.04,1005.98
4.967,0.05,0.98,0.34,-0.25,0.31,0.66,0.73,-0.21,0.04,1005.98
4.968,0.05,0.98,0.34,-0.25,0.31,0.66,0.73,-0.21,0.04,1005.97
5.025,0.04,0.97,0.21,-0.25,0.31,0.66,0.73,-0.21,0.04,1005.97
5.027,0.05,1.01,0.33,-0.25,0.31,0.66,0.73,-0.21,0.04,1005.97
5.028,0.05,1.01,0.33,-0.25,0.31,0.66,0.59,0.05,-0.06,1005.97
5.028,0.05,1.01,0.33,-0.25,0.31,0.66,0.94,0.19,-0.07,1005.97
5.029,0.05,1.01,0.33,0.32,0.14,0.42,0.94,0.19,-0.07,1005.97
5.029,0.05,1.01,0.33,0.27,0.11,-0.20,0.94,0.19,-0.07,1005.97
5.067,0.05,1.01,0.33,0.27,0.11,-0.20,0.94,0.19,-0.07,1005.97
5.082,0.05,1.01,0.18,0.27,0.11,-0.20,0.94,0.19,-0.07,1005.97
5.083,0.05,1.01,0.18,0.27,0.11,-0.20,0.70,-0.02,-0.16,1005.97
5.083,0.05,1.01,0.18,0.38,0.29,0.81,0.70,-0.02,-0.16,1005.97
5.143,-0.07,1.02,0.15,0.38,0.29,0.81,0.70,-0.02,-0.16,1005.97
5.144,0.06,1.02,0.23,0.38,0.29,0.81,0.70,-0.02,-0.16,1005.97
5.144,0.06,1.02,0.23,0.38,0.29,0.81,0.61,0.39,0.08,1005.97
5.145,0.06,1.02,0.23,0.38,0.29,0.81,0.80,-0.01,-0.05,1005.97
5.145,0.06,1.02,0.23,0.21,0.27,-0.14,0.80,-0.01,-0.05,1005.97
5.146,0.06,1.02,0.23,-0.49,0.36,0.05,0.80,-0.01,-0.05,1005.97
5.167,0.06,1.02,0.23,-0.49,0.36,0.05,0.80,-0.01,-0.05,1005.97
5.202,0.00,1.03,0.13,-0.49,0.36,0.05,0.80,-0.01,-0.05,1005.97
5.204,0.00,1.03,0.13,-0.49,0.36,0.05,0.77,0.01,0.02,1005.97
5.204,0.00,1.03,0.13,0.38,0.30,0.72,0.77,0.01,0.02,1005.97
5.261,0.02,1.03,0.09,0.38,0.30,0.72,0.77,0.01,0.02,1005.97
5.263,0.01,1.04,0.14,0.38,0.30,0.72,0.77,0.01,0.02,1005.97
5.263,0.01,1.04,0.14,0.38,0.30,0.72,0.71,0.34,0.00,1005.97
5.264,0.01,1.04,0.14,0.38,0.30,0.72,0.88,-0.00,0.03,1005.97
5.265,0.01,1.04,0.14,-0.01,0.32,0.17,0.88,-0.00,0.03,1005.97
5.265,0.01,1.04,0.14,0.09,0.34,0.23,0.88,-0.00,0.03,1005.97
5.267,0.01,1.04,0.14,0.09,0.34,0.23,0.88,-0.00,0.03,1005.97
5.32,-0.00,1.04,0.01,0.09,0.34,0.23,0.88,-0.00,0.03,1005.97
5.322,-0.00,1.04,0.01,0.09,0.34,0.23,0.79,0.01,0.06,1005.97
5.323,-0.00,1.04,0.01,-0.01,0.36,0.59,0.79,0.01,0.06,1005.97
5.368,-0.00,1.04,0.01,-0.01,0.36,0.59,0.79,0.01,0.06,1005.97
5.381,0.05,1.03,0.00,-0.01,0.36,0.59,0.79,0.01,0.06,1005.97
5.383,0.03,1.04,0.00,-0.01,0.36,0.59,0.79,0.01,0.06,1005.97
5.384,0.03,1.04,0.00,-0.01,0.36,0.59,0.79,0.26,-0.05,1005.97
5.385,0.03,1.04,0.00,-0.01,0.36,0.59,0.85,0.07,-0.03,1005.97
5.385,0.03,1.04,0.00,0.05,0.37,-0.00,0.85,0.07,-0.03,1005.97
5.385,0.03,1.04,0.00,0.35,0.35,0.24,0.85,0.07,-0.03,1005.97
5.437,-0.00,1.04,-0.06,0.35,0.35,0.24,0.85,0.07,-0.03,1005.97
5.439,-0.00,1.04,-0.06,0.35,0.35,0.24,0.81,0.03,0.03,1005.97
5.439,-0.00,1.04,-0.06,0.08,0.42,0.39,0.81,0.03,0.03,1005.97
5.466,-0.00,1.04,-0.06,0.08,0.42,0.39,0.81,0.03,0.03,1005.96
5.497,0.02,1.04,-0.10,0.08,0.42,0.39,0.81,0.03,0.03,1005.96
5.499,0.03,1.04,-0.10,0.08,0.42,0.39,0.81,0.03,0.03,1005.96
5.5,0.03,1.04,-0.10,0.08,0.42,0.39,0.80,0.13,0.01,1005.96
5.5,0.03,1.04,-0.10,0.08,0.42,0.39,0.73,-0.05,-0.07,1005.96
5.501,0.03,1.04,-0.10,-0.05,0.43,0.14,0.73,-0.05,-0.07,1005.96
5.501,0.03,1.04,-0.10,0.15,0.45,0.16,0.73,-0.05,-0.07,1005.96
5.556,-0.01,1.06,-0.14,0.15,0.45,0.16,0.73,-0.05,-0.07,1005.96
5.558,-0.01,1.06,-0.14,0.15,0.45,0.16,0.86,0.21,0.12,1005.96
5.558,-0.01,1.06,-0.14,0.12,0.57,0.33,0.86,0.21,0.12,1005.96
5.566,-0.01,1.06,-0.14,0.12,0.57,0.33,0.86,0.21,0.12,1005.97
5.615,-0.11,1.07,-0.24,0.12,0.57,0.33,0.86,0.21,0.12,1005.97
5.617,0.13,1.09,-0.19,0.12,0.57,0.33,0.86,0.21,0.12,1005.97
5.617,0.13,1.09,-0.19,0.12,0.57,0.33,0.61,-0.08,0.34,1005.97
5.618,0.13,1.09,-0.19,0.12,0.57,0.33,0.71,0.18,-0.09,1005.97
5.618,0.13,1.09,-0.19,-0.61,0.75,0.06,0.71,0.18,-0.09,1005.97
5.619,0.13,1.09,-0.19,-0.42,0.96,-0.11,0.71,0.18,-0.09,1005.97
5.666,0.13,1.09,-0.19,-0.42,0.96,-0.11,0.71,0.18,-0.09,1005.97
5.674,-0.04,1.09,-0.19,-0.42,0.96,-0.11,0.71,0.18,-0.09,1005.97
5.675,-0.04,1.09,-0.19,-0.42,0.96,-0.11,1.12,0.32,0.07,1005.97
5.675,-0.04,1.09,-0.19,0.30,1.19,0.44,1.12,0.32,0.07,1005.97
5.733,0.08,0.99,-0.34,0.30,1.19,0.44,1.12,0.32,0.07,1005.97
5.734,-0.10,1.04,-0.31,0.30,1.19,0.44,1.12,0.32,0.07,1005.97
5.735,-0.10,1.04,-0.31,0.30,1.19,0.44,0.64,0.07,0.23,1005.97
5.735,-0.10,1.04,-0.31,0.30,1.19,0.44,0.88,0.79,0.59,1005.97
5.735,-0.10,1.04,-0.31,-0.19,0.87,0.21,0.88,0.79,0.59,1005.97
5.736,-0.10,1.04,-0.31,-0.37,0.61,-0.24,0.88,0.79,0.59,1005.97
5.77,-0.10,1.04,-0.31,-0.37,0.61,-0.24,0.88,0.79,0.59,1005.97
5.789,-0.10,1.04,-0.31,-0.37,0.61,-0.24,0.53,0.10,0.55,1005.97
5.792,0.13,0.92,-0.31,-0.37,0.61,-0.24,0.53,0.10,0.55,1005.97
5.795,0.13,0.92,-0.31,-0.60,0.43,0.23,0.53,0.10,0.55,1005.97
5.851,0.17,0.96,-0.33,-0.60,0.43,0.23,0.53,0.10,0.55,1005.97
5.852,0.14,0.98,-0.34,-0.60,0.43,0.23,0.53,0.10,0.55,1005.97
5.853,0.14,0.98,-0.34,-0.60,0.43,0.23,0.82,0.33,0.20,1005.97
5.853,0.14,0.98,-0.34,-0.60,0.43,0.23,1.11,0.54,-0.02,1005.97
5.853,0.14,0.98,-0.34,0.58,0.08,0.35,1.11,0.54,-0.02,1005.97
5.854,0.14,0.98,-0.34,0.54,0.53,0.52,1.11,0.54,-0.02,1005.97
5.865,0.14,0.98,-0.34,0.54,0.53,0.52,1.11,0.54,-0.02,1005.96
5.908,0.08,0.94,-0.41,0.54,0.53,0.52,1.11,0.54,-0.02,1005.96
5.911,0.08,0.94,-0.41,0.54,0.53,0.52,1.04,0.07,0.69,1005.96
5.912,0.08,0.94,-0.41,0.00,0.60,0.47,1.04,0.07,0.69,1005.96
5.965,0.08,0.94,-0.41,0.00,0.60,0.47,1.04,0.07,0.69,1005.96
5.969,0.13,0.92,-0.45,0.00,0.60,0.47,1.04,0.07,0.69,1005.96
5.97,0.26,0.94,-0.44,0.00,0.60,0.47,1.04,0.07,0.69,1005.96
5.97,0.26,0.94,-0.44,0.00,0.60,0.47,0.88,-0.12,0.48,1005.96
5.971,0.26,0.94,-0.44,0.00,0.60,0.47,1.17,-0.13,0.08,1005.96
5.972,0.26,0.94,-0.44,-0.26,0.53,0.29,1.17,-0.13,0.08,1005.96
5.972,0.26,0.94,-0.44,0.55,0.73,0.50,1.17,-0.13,0.08,1005.96
6.035,0.20,0.83,-0.63,0.55,0.73,0.50,1.17,-0.13,0.08,1005.96
6.037,0.20,0.83,-0.63,0.55,0.73,0.50,0.79,-0.01,0.23,1005.96
6.039,0.20,0.83,-0.63,0.78,0.44,-0.13,0.79,-0.01,0.23,1005.96
6.064,0.20,0.83,-0.63,0.78,0.44,-0.13,0.79,-0.01,0.23,1005.97
6.087,0.13,0.71,-0.48,0.78,0.44,-0.13,0.79,-0.01,0.23,1005.97
6.089,0.13,0.84,-0.51,0.78,0.44,-0.13,0.79,-0.01,0.23,1005.97
6.09,0.13,0.84,-0.51,0.78,0.44,-0.13,1.35,-0.12,0.45,1005.97
6.091,0.13,0.84,-0.51,0.78,0.44,-0.13,1.49,-0.44,0.44,1005.97
6.091,0.13,0.84,-0.51,0.01,-0.48,0.17,1.49,-0.44,0.44,1005.97
6.092,0.13,0.84,-0.51,-0.37,0.08,1.08,1.49,-0.44,0.44,1005.97
6.146,0.28,0.82,-0.61,-0.37,0.08,1.08,1.49,-0.44,0.44,1005.97
6.148,0.28,0.82,-0.61,-0.37,0.08,1.08,1.89,-0.24,0.23,1005.97
6.148,0.28,0.82,-0.61,0.49,0.86,0.86,1.89,-0.24,0.23,1005.97
6.164,0.28,0.82,-0.61,0.49,0.86,0.86,1.89,-0.24,0.23,1005.96
6.205,0.29,0.73,-0.75,0.49,0.86,0.86,1.89,-0.24,0.23,1005.96
6.208,0.18,0.69,-0.80,0.49,0.86,0.86,1.89,-0.24,0.23,1005.96
6.209,0.18,0.69,-0.80,0.49,0.86,0.86,1.74,-0.28,-0.21,1005.96
6.211,0.18,0.69,-0.80,0.49,0.86,0.86,1.49,-0.37,-0.29,1005.96
6.212,0.18,0.69,-0.80,1.17,0.78,0.12,1.49,-0.37,-0.29,1005.96
6.213,0.18,0.69,-0.80,0.69,0.65,-0.27,1.49,-0.37,-0.29,1005.96
6.265,0.07,0.68,-0.79,0.69,0.65,-0.27,1.49,-0.37,-0.29,1005.96
6.267,0.07,0.68,-0.79,0.69,0.65,-0.27,1.50,-0.19,-0.04,1005.96
6.269,0.07,0.68,-0.79,-0.26,0.90,0.00,1.50,-0.19,-0.04,1005.96
6.27,0.07,0.68,-0.79,-0.26,0.90,0.00,1.50,-0.19,-0.04,1005.97
6.324,0.07,0.68,-0.79,-0.26,0.90,0.00,1.37,-0.30,-0.12,1005.97
6.328,0.14,0.56,-0.87,-0.26,0.90,0.00,1.37,-0.30,-0.12,1005.97
6.329,0.11,0.50,-0.91,-0.26,0.90,0.00,1.37,-0.30,-0.12,1005.97
6.332,0.11,0.50,-0.91,-0.26,0.90,0.00,1.23,-0.21,-0.01,1005.97
6.334,0.11,0.50,-0.91,-0.07,0.55,-0.11,1.23,-0.21,-0.01,1005.97
6.336,0.11,0.50,-0.91,0.07,0.22,-0.36,1.23,-0.21,-0.01,1005.97
6.363,0.11,0.50,-0.91,0.07,0.22,-0.36,1.23,-0.21,-0.01,1005.97
6.382,0.10,0.56,-0.90,0.07,0.22,-0.36,1.23,-0.21,-0.01,1005.97
6.384,0.10,0.56,-0.90,0.07,0.22,-0.36,1.30,-0.17,0.24,1005.97
6.385,0.10,0.56,-0.90,-0.04,0.87,-0.17,1.30,-0.17,0.24,1005.97
6.441,0.15,0.50,-0.93,-0.04,0.87,-0.17,1.30,-0.17,0.24,1005.97
6.443,0.16,0.40,-0.94,-0.04,0.87,-0.17,1.30,-0.17,0.24,1005.97
6.444,0.16,0.40,-0.94,-0.04,0.87,-0.17,1.20,-0.49,-0.00,1005.97
6.445,0.16,0.40,-0.94,-0.04,0.87,-0.17,1.32,-0.60,-0.21,1005.97
6.446,0.16,0.40,-0.94,0.32,1.09,-0.10,1.32,-0.60,-0.21,1005.97
6.447,0.16,0.40,-0.94,0.75,0.63,-0.07,1.32,-0.60,-0.21,1005.97
6.467,0.16,0.40,-0.94,0.75,0.63,-0.07,1.32,-0.60,-0.21,1005.97
6.504,0.04,0.39,-1.08,0.75,0.63,-0.07,1.32,-0.60,-0.21,1005.97
6.507,0.04,0.39,-1.08,0.75,0.63,-0.07,0.98,-0.24,-0.12,1005.97
6.508,0.04,0.39,-1.08,0.10,0.71,-0.93,0.98,-0.24,-0.12,1005.97
6.559,0.13,0.31,-0.93,0.10,0.71,-0.93,0.98,-0.24,-0.12,1005.97
6.56,0.22,0.29,-1.09,0.10,0.71,-0.93,0.98,-0.24,-0.12,1005.97
6.561,0.22,0.29,-1.09,0.10,0.71,-0.93,1.40,-0.63,-0.49,1005.97
6.562,0.22,0.29,-1.09,0.10,0.71,-0.93,1.31,-0.39,-0.78,1005.97
6.562,0.22,0.29,-1.09,0.53,0.47,-0.02,1.31,-0.39,-0.78,1005.97
6.563,0.22,0.29,-1.09,1.75,0.73,-0.74,1.31,-0.39,-0.78,1005.97
6.564,0.22,0.29,-1.09,1.75,0.73,-0.74,1.31,-0.39,-0.78,1005.96
6.619,-0.08,0.25,-1.11,1.75,0.73,-0.74,1.31,-0.39,-0.78,1005.96
6.621,-0.08,0.25,-1.11,1.75,0.73,-0.74,1.17,0.17,-0.60,1005.96
6.621,-0.08,0.25,-1.11,-0.25,0.88,-1.19,1.17,0.17,-0.60,1005.96
6.662,-0.08,0.25,-1.11,-0.25,0.88,-1.19,1.17,0.17,-0.60,1005.95
6.679,-0.13,0.22,-1.03,-0.25,0.88,-1.19,1.17,0.17,-0.60,1005.95
6.681,0.01,0.14,-1.11,-0.25,0.88,-1.19,1.17,0.17,-0.60,1005.95
6.682,0.01,0.14,-1.11,-0.25,0.88,-1.19,1.18,0.18,-0.11,1005.95
6.683,0.01,0.14,-1.11,-0.25,0.88,-1.19,0.86,0.41,0.15,1005.95
6.684,0.01,0.14,-1.11,-1.28,0.96,-0.55,0.86,0.41,0.15,1005.95
6.685,0.01,0.14,-1.11,-0.34,0.73,-0.95,0.86,0.41,0.15,1005.95
6.735,0.15,0.09,-1.08,-0.34,0.73,-0.95,0.86,0.41,0.15,1005.95
6.74,0.15,0.09,-1.08,-0.34,0.73,-0.95,0.60,-0.01,-0.37,1005.95
6.741,0.15,0.09,-1.08,0.93,0.51,-0.84,0.60,-0.01,-0.37,1005.95
6.762,0.15,0.09,-1.08,0.93,0.51,-0.84,0.60,-0.01,-0.37,1005.95
6.796,0.15,0.09,-1.08,0.93,0.51,-0.84,0.60,0.47,-0.01,1005.95
6.798,0.15,0.09,-1.08,0.93,0.51,-0.84,0.85,0.35,-0.30,1005.95
6.799,0.01,0.19,-1.13,0.93,0.51,-0.84,0.85,0.35,-0.30,1005.95
6.801,0.13,0.11,-1.09,0.93,0.51,-0.84,0.85,0.35,-0.30,1005.95
6.807,0.13,0.11,-1.09,-0.09,1.47,-1.18,0.85,0.35,-0.30,1005.95
6.808,0.13,0.11,-1.09,0.59,1.22,-0.93,0.85,0.35,-0.30,1005.95
6.854,0.03,0.04,-1.04,0.59,1.22,-0.93,0.85,0.35,-0.30,1005.95
6.858,0.03,0.04,-1.04,0.59,1.22,-0.93,0.87,0.55,-0.14,1005.95
6.859,0.03,0.04,-1.04,-0.27,0.82,-0.49,0.87,0.55,-0.14,1005.95
6.861,0.03,0.04,-1.04,-0.27,0.82,-0.49,0.87,0.55,-0.14,1005.95
6.913,0.07,0.02,-0.92,-0.27,0.82,-0.49,0.87,0.55,-0.14,1005.95
6.917,0.19,-0.12,-0.84,-0.27,0.82,-0.49,0.87,0.55,-0.14,1005.95
6.919,0.19,-0.12,-0.84,-0.27,0.82,-0.49,1.24,0.00,0.02,1005.95
6.921,0.19,-0.12,-0.84,-0.27,0.82,-0.49,1.82,-0.51,-0.66,1005.95
6.922,0.19,-0.12,-0.84,-0.12,0.93,0.59,1.82,-0.51,-0.66,1005.95
6.923,0.19,-0.12,-0.84,1.13,0.36,1.35,1.82,-0.51,-0.66,1005.95
6.961,0.19,-0.12,-0.84,1.13,0.36,1.35,1.82,-0.51,-0.66,1005.95
6.972,0.02,-0.15,-1.22,1.13,0.36,1.35,1.82,-0.51,-0.66,1005.95
6.973,0.02,-0.15,-1.22,1.13,0.36,1.35,1.15,-0.17,-0.40,1005.95
6.974,0.02,-0.15,-1.22,-0.29,0.45,-2.17,1.15,-0.17,-0.40,1005.95
7.032,0.01,-0.13,-0.94,-0.29,0.45,-2.17,1.15,-0.17,-0.40,1005.95
7.034,0.07,-0.22,-1.02,-0.29,0.45,-2.17,1.15,-0.17,-0.40,1005.95
7.034,0.07,-0.22,-1.02,-0.29,0.45,-2.17,1.50,0.05,-0.04,1005.95
7.035,0.07,-0.22,-1.02,-0.29,0.45,-2.17,1.38,-0.13,-0.06,1005.95
7.035,0.07,-0.22,-1.02,-0.46,1.12,0.11,1.38,-0.13,-0.06,1005.95
7.036,0.07,-0.22,-1.02,0.08,0.88,-0.64,1.38,-0.13,-0.06,1005.95
7.062,0.07,-0.22,-1.02,0.08,0.88,-0.64,1.38,-0.13,-0.06,1005.95
7.09,0.14,-0.32,-1.00,0.08,0.88,-0.64,1.38,-0.13,-0.06,1005.95
7.092,0.14,-0.32,-1.00,0.08,0.88,-0.64,1.52,-0.03,-0.26,1005.95
7.093,0.14,-0.32,-1.00,0.76,0.41,-0.66,1.52,-0.03,-0.26,1005.95
7.151,0.08,-0.36,-0.91,0.76,0.41,-0.66,1.52,-0.03,-0.26,1005.95
7.152,0.02,-0.34,-0.97,0.76,0.41,-0.66,1.52,-0.03,-0.26,1005.95
7.153,0.02,-0.34,-0.97,0.76,0.41,-0.66,1.83,0.14,-0.34,1005.95
7.154,0.02,-0.34,-0.97,0.76,0.41,-0.66,1.88,0.07,-0.09,1005.95
7.155,0.02,-0.34,-0.97,0.19,0.55,-0.09,1.88,0.07,-0.09,1005.95
7.16,0.02,-0.34,-0.97,0.19,0.55,-0.09,1.88,0.07,-0.09,1005.95
7.211,0.09,-0.47,-0.82,0.19,0.55,-0.09,1.88,0.07,-0.09,1005.95
7.215,0.09,-0.47,-0.82,0.19,0.55,-0.09,2.33,0.43,0.01,1005.95
7.217,0.09,-0.47,-0.82,-0.49,1.38,-0.93,2.33,0.43,0.01,1005.95
7.262,0.09,-0.47,-0.82,-0.49,1.38,-0.93,2.33,0.43,0.01,1005.95
7.271,0.17,-0.60,-0.79,-0.49,1.38,-0.93,2.33,0.43,0.01,1005.95
7.272,0.09,-0.63,-0.90,-0.49,1.38,-0.93,2.33,0.43,0.01,1005.95
7.273,0.09,-0.63,-0.90,-0.49,1.38,-0.93,2.51,0.46,-0.14,1005.95
7.274,0.09,-0.63,-0.90,-0.49,1.38,-0.93,1.92,-0.36,-0.22,1005.95
7.275,0.09,-0.63,-0.90,0.16,0.76,0.13,1.92,-0.36,-0.22,1005.95
7.276,0.09,-0.63,-0.90,0.60,0.29,-0.25,1.92,-0.36,-0.22,1005.95
7.329,0.06,-0.65,-0.74,0.60,0.29,-0.25,1.92,-0.36,-0.22,1005.95
7.331,0.06,-0.65,-0.74,0.60,0.29,-0.25,1.98,0.35,0.08,1005.95
7.332,0.06,-0.65,-0.74,-0.16,0.62,-1.72,1.98,0.35,0.08,1005.95
7.359,0.06,-0.65,-0.74,-0.16,0.62,-1.72,1.98,0.35,0.08,1005.95
7.388,0.10,-0.69,-0.73,-0.16,0.62,-1.72,1.98,0.35,0.08,1005.95
7.391,0.13,-0.78,-0.79,-0.16,0.62,-1.72,1.98,0.35,0.08,1005.95
7.392,0.13,-0.78,-0.79,-0.16,0.62,-1.72,1.85,0.37,0.13,1005.95
7.393,0.13,-0.78,-0.79,-0.16,0.62,-1.72,1.37,0.13,0.15,1005.95
7.394,0.13,-0.78,-0.79,-0.40,0.93,-0.77,1.37,0.13,0.15,1005.95
7.395,0.13,-0.78,-0.79,-0.06,0.89,-1.33,1.37,0.13,0.15,1005.95
7.445,0.12,-0.80,-0.55,-0.06,0.89,-1.33,1.37,0.13,0.15,1005.95
7.447,0.12,-0.80,-0.55,-0.06,0.89,-1.33,1.16,0.02,0.12,1005.95
7.447,0.12,-0.80,-0.55,0.18,0.47,-2.10,1.16,0.02,0.12,1005.95
7.458,0.12,-0.80,-0.55,0.18,0.47,-2.10,1.16,0.02,0.12,1005.95
7.506,0.15,-0.81,-0.33,0.18,0.47,-2.10,1.16,0.02,0.12,1005.95
7.508,0.11,-0.85,-0.50,0.18,0.47,-2.10,1.16,0.02,0.12,1005.95
7.509,0.11,-0.85,-0.50,0.18,0.47,-2.10,1.68,-0.23,0.00,1005.95
7.511,0.11,-0.85,-0.50,0.18,0.47,-2.10,1.71,0.03,0.00,1005.95
7.512,0.11,-0.85,-0.50,0.16,0.54,-0.15,1.71,0.03,0.00,1005.95
7.512,0.11,-0.85,-0.50,0.41,0.64,1.01,1.71,0.03,0.00,1005.95
7.558,0.11,-0.85,-0.50,0.41,0.64,1.01,1.71,0.03,0.00,1005.94
7.564,0.07,-0.88,-0.49,0.41,0.64,1.01,1.71,0.03,0.00,1005.94
7.565,0.07,-0.88,-0.49,0.41,0.64,1.01,1.50,0.02,0.13,1005.94
7.566,0.07,-0.88,-0.49,0.05,0.56,-0.98,1.50,0.02,0.13,1005.94
7.625,0.19,-0.93,-0.32,0.05,0.56,-0.98,1.50,0.02,0.13,1005.94
7.627,0.13,-0.94,-0.28,0.05,0.56,-0.98,1.50,0.02,0.13,1005.94
7.629,0.13,-0.94,-0.28,0.05,0.56,-0.98,1.72,0.18,-0.08,1005.94
7.63,0.13,-0.94,-0.28,0.05,0.56,-0.98,1.58,0.12,-0.09,1005.94
7.632,0.13,-0.94,-0.28,-0.03,0.44,-1.12,1.58,0.12,-0.09,1005.94
7.634,0.13,-0.94,-0.28,0.74,0.21,-0.27,1.58,0.12,-0.09,1005.94
7.657,0.13,-0.94,-0.28,0.74,0.21,-0.27,1.58,0.12,-0.09,1005.95
7.681,0.11,-0.94,-0.27,0.74,0.21,-0.27,1.58,0.12,-0.09,1005.95
7.683,0.11,-0.94,-0.27,0.74,0.21,-0.27,1.37,0.22,-0.10,1005.95
7.685,0.11,-0.94,-0.27,0.22,0.32,-0.56,1.37,0.22,-0.10,1005.95
7.742,0.13,-0.95,-0.14,0.22,0.32,-0.56,1.37,0.22,-0.10,1005.95
7.744,0.11,-0.94,-0.03,0.22,0.32,-0.56,1.37,0.22,-0.10,1005.95
7.744,0.11,-0.94,-0.03,0.22,0.32,-0.56,1.50,0.14,-0.15,1005.95
7.745,0.11,-0.94,-0.03,0.22,0.32,-0.56,1.78,-0.06,-0.06,1005.95
7.745,0.11,-0.94,-0.03,0.01,0.42,-0.75,1.78,-0.06,-0.06,1005.95
7.746,0.11,-0.94,-0.03,0.08,0.42,-0.09,1.78,-0.06,-0.06,1005.95
7.758,0.11,-0.94,-0.03,0.08,0.42,-0.09,1.78,-0.06,-0.06,1005.95
7.799,0.11,-0.94,-0.03,0.08,0.42,-0.09,1.70,-0.18,-0.03,1005.95
7.802,0.12,-0.95,-0.03,0.08,0.42,-0.09,1.70,-0.18,-0.03,1005.95
7.807,0.12,-0.95,-0.03,-0.06,0.46,0.06,1.70,-0.18,-0.03,1005.95
7.866,0.10,-0.94,0.03,-0.06,0.46,0.06,1.70,-0.18,-0.03,1005.95
7.869,0.16,-0.96,0.02,-0.06,0.46,0.06,1.70,-0.18,-0.03,1005.95
7.87,0.16,-0.96,0.02,-0.06,0.46,0.06,1.57,-0.32,0.04,1005.95
7.873,0.16,-0.96,0.02,-0.06,0.46,0.06,1.35,-0.25,-0.01,1005.95
7.874,0.16,-0.96,0.02,-0.06,0.46,0.06,1.35,-0.25,-0.01,1005.94
7.875,0.16,-0.96,0.02,-0.05,0.43,-0.43,1.35,-0.25,-0.01,1005.94
7.877,0.16,-0.96,0.02,-0.03,0.45,-0.66,1.35,-0.25,-0.01,1005.94
7.918,0.12,-0.96,0.10,-0.03,0.45,-0.66,1.35,-0.25,-0.01,1005.94
7.919,0.12,-0.96,0.10,-0.03,0.45,-0.66,1.33,-0.16,-0.05,1005.94
7.92,0.12,-0.96,0.10,0.28,0.20,-1.02,1.33,-0.16,-0.05,1005.94
7.957,0.12,-0.96,0.10,0.28,0.20,-1.02,1.33,-0.16,-0.05,1005.94
7.978,0.12,-0.93,0.17,0.28,0.20,-1.02,1.33,-0.16,-0.05,1005.94
7.981,0.13,-0.91,0.24,0.28,0.20,-1.02,1.33,-0.16,-0.05,1005.94
7.981,0.13,-0.91,0.24,0.28,0.20,-1.02,1.31,-0.01,0.08,1005.94
7.982,0.13,-0.91,0.24,0.28,0.20,-1.02,1.42,-0.04,0.20,1005.94
7.982,0.13,-0.91,0.24,-0.02,0.18,-0.75,1.42,-0.04,0.20,1005.94
7.983,0.13,-0.91,0.24,0.03,0.36,-0.53,1.42,-0.04,0.20,1005.94
8.037,0.19,-0.93,0.27,0.03,0.36,-0.53,1.42,-0.04,0.20,1005.94
8.038,0.19,-0.93,0.27,0.03,0.36,-0.53,1.20,-0.15,-0.16,1005.94
8.039,0.19,-0.93,0.27,0.36,0.29,-0.53,1.20,-0.15,-0.16,1005.94
8.058,0.19,-0.93,0.27,0.36,0.29,-0.53,1.20,-0.15,-0.16,1005.94
8.097,0.21,-0.95,0.29,0.36,0.29,-0.53,1.20,-0.15,-0.16,1005.94
8.099,0.08,-0.87,0.38,0.36,0.29,-0.53,1.20,-0.15,-0.16,1005.94
8.1,0.08,-0.87,0.38,0.36,0.29,-0.53,1.06,-0.06,-0.64,1005.94
8.1,0.08,-0.87,0.38,0.36,0.29,-0.53,1.25,0.08,-0.27,1005.94
8.101,0.08,-0.87,0.38,0.71,-0.06,-0.70,1.25,0.08,-0.27,1005.94
8.102,0.08,-0.87,0.38,0.15,-0.08,-0.58,1.25,0.08,-0.27,1005.94
8.154,0.06,-0.84,0.44,0.15,-0.08,-0.58,1.25,0.08,-0.27,1005.94
8.156,0.06,-0.84,0.44,0.15,-0.08,-0.58,1.30,0.10,-0.01,1005.94
8.157,0.06,-0.84,0.44,-0.78,0.30,-0.29,1.30,0.10,-0.01,1005.94
8.158,0.06,-0.84,0.44,-0.78,0.30,-0.29,1.30,0.10,-0.01,1005.93
8.214,0.17,-0.83,0.48,-0.78,0.30,-0.29,1.30,0.10,-0.01,1005.93
8.216,0.20,-0.77,0.51,-0.78,0.30,-0.29,1.30,0.10,-0.01,1005.93
8.217,0.20,-0.77,0.51,-0.78,0.30,-0.29,1.32,-0.04,-0.05,1005.93
8.217,0.20,-0.77,0.51,-0.78,0.30,-0.29,1.32,0.05,-0.03,1005.93
8.218,0.20,-0.77,0.51,-0.44,0.26,-0.25,1.32,0.05,-0.03,1005.93
8.218,0.20,-0.77,0.51,0.30,0.31,-0.32,1.32,0.05,-0.03,1005.93
8.256,0.20,-0.77,0.51,0.30,0.31,-0.32,1.32,0.05,-0.03,1005.94
8.283,0.24,-0.74,0.58,0.30,0.31,-0.32,1.32,0.05,-0.03,1005.94
8.286,0.24,-0.74,0.58,0.30,0.31,-0.32,1.46,-0.08,-0.33,1005.94
8.287,0.24,-0.74,0.58,0.59,0.51,-0.30,1.46,-0.08,-0.33,1005.94
8.332,0.15,-0.72,0.59,0.59,0.51,-0.30,1.46,-0.08,-0.33,1005.94
8.334,0.18,-0.68,0.63,0.59,0.51,-0.30,1.46,-0.08,-0.33,1005.94
8.334,0.18,-0.68,0.63,0.59,0.51,-0.30,1.48,-0.09,-0.27,1005.94
8.335,0.18,-0.68,0.63,0.59,0.51,-0.30,1.40,-0.26,-0.20,1005.94
8.336,0.18,-0.68,0.63,0.27,0.38,-0.29,1.40,-0.26,-0.20,1005.94
8.336,0.18,-0.68,0.63,-0.15,0.30,-0.45,1.40,-0.26,-0.20,1005.94
8.355,0.18,-0.68,0.63,-0.15,0.30,-0.45,1.40,-0.26,-0.20,1005.94
8.391,0.20,-0.63,0.59,-0.15,0.30,-0.45,1.40,-0.26,-0.20,1005.94
8.394,0.20,-0.63,0.59,-0.15,0.30,-0.45,0.93,-0.39,-0.09,1005.94
8.395,0.20,-0.63,0.59,-0.07,0.38,-0.83,0.93,-0.39,-0.09,1005.94
8.451,0.21,-0.57,0.61,-0.07,0.38,-0.83,0.93,-0.39,-0.09,1005.94
8.454,0.31,-0.54,0.79,-0.07,0.38,-0.83,0.93,-0.39,-0.09,1005.94
8.455,0.31,-0.54,0.79,-0.07,0.38,-0.83,0.80,-0.09,-0.09,1005.94
8.456,0.31,-0.54,0.79,-0.07,0.38,-0.83,1.05,-0.16,-0.42,1005.94
8.457,0.31,-0.54,0.79,-0.02,0.63,-1.13,1.05,-0.16,-0.42,1005.94
8.458,0.31,-0.54,0.79,0.48,0.82,-0.30,1.05,-0.16,-0.42,1005.94
8.459,0.31,-0.54,0.79,0.48,0.82,-0.30,1.05,-0.16,-0.42,1005.94
8.51,0.17,-0.56,0.69,0.48,0.82,-0.30,1.05,-0.16,-0.42,1005.94
8.512,0.17,-0.56,0.69,0.48,0.82,-0.30,0.95,-0.06,-0.17,1005.94
8.512,0.17,-0.56,0.69,0.09,0.52,-0.25,0.95,-0.06,-0.17,1005.94
8.555,0.17,-0.56,0.69,0.09,0.52,-0.25,0.95,-0.06,-0.17,1005.95
8.567,0.23,-0.50,0.59,0.09,0.52,-0.25,0.95,-0.06,-0.17,1005.95
8.568,0.34,-0.50,0.68,0.09,0.52,-0.25,0.95,-0.06,-0.17,1005.95
8.571,0.34,-0.50,0.68,0.09,0.52,-0.25,0.55,0.17,-0.04,1005.95
8.572,0.34,-0.50,0.68,0.09,0.52,-0.25,0.37,0.27,-0.38,1005.95
8.573,0.34,-0.50,0.68,-0.25,0.49,-1.47,0.37,0.27,-0.38,1005.95
8.574,0.34,-0.50,0.68,0.67,0.58,-1.55,0.37,0.27,-0.38,1005.95
8.627,0.08,-0.48,0.83,0.67,0.58,-1.55,0.37,0.27,-0.38,1005.95
8.629,0.08,-0.48,0.83,0.67,0.58,-1.55,0.34,0.23,-0.16,1005.95
8.629,0.08,-0.48,0.83,-0.34,0.55,-0.42,0.34,0.23,-0.16,1005.95
8.654,0.08,-0.48,0.83,-0.34,0.55,-0.42,0.34,0.23,-0.16,1005.94
8.699,0.07,-0.48,0.97,-0.34,0.55,-0.42,0.34,0.23,-0.16,1005.94
8.702,0.53,-0.52,0.86,-0.34,0.55,-0.42,0.34,0.23,-0.16,1005.94
8.703,0.53,-0.52,0.86,-0.34,0.55,-0.42,0.84,0.18,0.83,1005.94
8.705,0.53,-0.52,0.86,-0.34,0.55,-0.42,1.02,0.24,-0.30,1005.94
8.706,0.53,-0.52,0.86,-1.36,0.50,0.91,1.02,0.24,-0.30,1005.94
8.708,0.53,-0.52,0.86,1.58,0.02,0.57,1.02,0.24,-0.30,1005.94
8.746,0.17,-0.37,0.78,1.58,0.02,0.57,1.02,0.24,-0.30,1005.94
8.748,0.17,-0.37,0.78,1.58,0.02,0.57,0.82,0.05,-0.53,1005.94
8.749,0.17,-0.37,0.78,1.05,0.43,-0.54,0.82,0.05,-0.53,1005.94
8.754,0.17,-0.37,0.78,1.05,0.43,-0.54,0.82,0.05,-0.53,1005.94
8.803,0.17,-0.37,0.78,1.05,0.43,-0.54,1.14,0.11,0.96,1005.94
8.806,0.17,-0.37,0.78,1.05,0.43,-0.54,1.01,0.38,0.19,1005.94
8.812,-0.25,-0.27,0.94,1.05,0.43,-0.54,1.01,0.38,0.19,1005.94
8.813,0.40,-0.41,0.82,1.05,0.43,-0.54,1.01,0.38,0.19,1005.94
8.814,0.40,-0.41,0.82,-2.88,1.26,0.03,1.01,0.38,0.19,1005.94
8.815,0.40,-0.41,0.82,0.11,0.36,-0.41,1.01,0.38,0.19,1005.94
8.854,0.40,-0.41,0.82,0.11,0.36,-0.41,1.01,0.38,0.19,1005.94
8.862,0.43,-0.40,0.80,0.11,0.36,-0.41,1.01,0.38,0.19,1005.94
8.862,0.43,-0.40,0.80,0.11,0.36,-0.41,0.71,0.23,-0.58,1005.94
8.863,0.43,-0.40,0.80,2.33,-0.28,-1.00,0.71,0.23,-0.58,1005.94
8.923,-0.09,-0.24,0.89,2.33,-0.28,-1.00,0.71,0.23,-0.58,1005.94
8.925,-0.04,-0.24,0.93,2.33,-0.28,-1.00,0.71,0.23,-0.58,1005.94
8.925,-0.04,-0.24,0.93,2.33,-0.28,-1.00,0.59,0.19,0.10,1005.94
8.926,-0.04,-0.24,0.93,2.33,-0.28,-1.00,0.66,0.38,0.66,1005.94
8.926,-0.04,-0.24,0.93,-1.10,0.55,-0.56,0.66,0.38,0.66,1005.94
8.927,-0.04,-0.24,0.93,-2.14,0.81,-0.12,0.66,0.38,0.66,1005.94
8.958,-0.04,-0.24,0.93,-2.14,0.81,-0.12,0.66,0.38,0.66,1005.93
8.98,0.29,-0.31,1.03,-2.14,0.81,-0.12,0.66,0.38,0.66,1005.93
8.982,0.29,-0.31,1.03,-2.14,0.81,-0.12,1.13,0.44,0.02,1005.93
8.983,0.29,-0.31,1.03,0.51,0.05,0.56,1.13,0.44,0.02,1005.93
9.041,0.22,-0.24,0.95,0.51,0.05,0.56,1.13,0.44,0.02,1005.93
9.042,0.04,-0.17,0.79,0.51,0.05,0.56,1.13,0.44,0.02,1005.93
9.043,0.04,-0.17,0.79,0.51,0.05,0.56,1.16,0.31,-0.16,1005.93
9.043,0.04,-0.17,0.79,0.51,0.05,0.56,0.44,0.19,0.10,1005.93
9.044,0.04,-0.17,0.79,1.04,-0.05,0.08,0.44,0.19,0.10,1005.93
9.044,0.04,-0.17,0.79,-0.41,0.33,-1.36,0.44,0.19,0.10,1005.93
9.052,0.04,-0.17,0.79,-0.41,0.33,-1.36,0.44,0.19,0.10,1005.93
9.109,0.03,-0.21,0.92,-0.41,0.33,-1.36,0.44,0.19,0.10,1005.93
9.111,0.03,-0.21,0.92,-0.41,0.33,-1.36,0.27,0.22,0.10,1005.93
9.113,0.03,-0.21,0.92,-0.78,0.07,-0.79,0.27,0.22,0.10,1005.93
9.151,0.03,-0.21,0.92,-0.78,0.07,-0.79,0.27,0.22,0.10,1005.93
9.158,0.04,-0.22,1.05,-0.78,0.07,-0.79,0.27,0.22,0.10,1005.93
9.159,0.18,-0.16,0.92,-0.78,0.07,-0.79,0.27,0.22,0.10,1005.93
9.16,0.18,-0.16,0.92,-0.78,0.07,-0.79,0.54,0.17,0.31,1005.93
9.16,0.18,-0.16,0.92,-0.78,0.07,-0.79,0.30,0.17,-0.01,1005.93
9.16,0.18,-0.16,0.92,-0.69,-0.24,0.42,0.30,0.17,-0.01,1005.93
9.161,0.18,-0.16,0.92,0.57,0.06,-0.36,0.30,0.17,-0.01,1005.93
9.217,0.15,-0.11,0.92,0.57,0.06,-0.36,0.30,0.17,-0.01,1005.93
9.218,0.15,-0.11,0.92,0.57,0.06,-0.36,0.10,0.10,-0.29,1005.93
9.219,0.15,-0.11,0.92,0.58,0.51,-0.63,0.10,0.10,-0.29,1005.93
9.257,0.15,-0.11,0.92,0.58,0.51,-0.63,0.10,0.10,-0.29,1005.93
9.275,-0.12,-0.08,1.00,0.58,0.51,-0.63,0.10,0.10,-0.29,1005.93
9.277,0.08,-0.11,0.99,0.58,0.51,-0.63,0.10,0.10,-0.29,1005.93
9.278,0.08,-0.11,0.99,0.58,0.51,-0.63,0.21,0.25,0.26,1005.93
9.278,0.08,-0.11,0.99,0.58,0.51,-0.63,0.23,0.22,0.20,1005.93
9.283,0.08,-0.11,0.99,-1.50,0.73,0.04,0.23,0.22,0.20,1005.93
9.284,0.08,-0.11,0.99,-0.08,0.41,0.08,0.23,0.22,0.20,1005.93
9.335,0.22,-0.12,0.98,-0.08,0.41,0.08,0.23,0.22,0.20,1005.93
9.336,0.22,-0.12,0.98,-0.08,0.41,0.08,0.24,0.23,-0.34,1005.93
9.339,0.22,-0.12,0.98,1.34,0.18,-0.08,0.24,0.23,-0.34,1005.93
9.351,0.22,-0.12,0.98,1.34,0.18,-0.08,0.24,0.23,-0.34,1005.93
9.395,0.05,-0.07,0.97,1.34,0.18,-0.08,0.24,0.23,-0.34,1005.93
9.396,-0.07,-0.08,0.98,1.34,0.18,-0.08,0.24,0.23,-0.34,1005.93
9.397,-0.07,-0.08,0.98,1.34,0.18,-0.08,0.10,0.07,-0.31,1005.93
9.397,-0.07,-0.08,0.98,1.34,0.18,-0.08,0.15,-0.02,-0.24,1005.93
9.397,-0.07,-0.08,0.98,0.08,0.49,-0.23,0.15,-0.02,-0.24,1005.93
9.398,-0.07,-0.08,0.98,-1.13,0.42,-0.08,0.15,-0.02,-0.24,1005.93
9.451,-0.07,-0.08,0.98,-1.13,0.42,-0.08,0.15,-0.02,-0.24,1005.93
9.452,-0.21,-0.03,1.10,-1.13,0.42,-0.08,0.15,-0.02,-0.24,1005.93
9.454,-0.21,-0.03,1.10,-1.13,0.42,-0.08,0.79,0.21,0.53,1005.93
9.454,-0.21,-0.03,1.10,-2.47,0.69,0.93,0.79,0.21,0.53,1005.93
9.512,0.34,-0.12,0.89,-2.47,0.69,0.93,0.79,0.21,0.53,1005.93
9.515,0.20,-0.09,0.82,-2.47,0.69,0.93,0.79,0.21,0.53,1005.93
9.515,0.20,-0.09,0.82,-2.47,0.69,0.93,0.37,0.15,-0.20,1005.93
9.516,0.20,-0.09,0.82,-2.47,0.69,0.93,-0.34,-0.09,-0.89,1005.93
9.516,0.20,-0.09,0.82,2.51,-0.39,-0.93,-0.34,-0.09,-0.89,1005.93
9.517,0.20,-0.09,0.82,1.50,-0.07,-1.73,-0.34,-0.09,-0.89,1005.93
9.55,0.20,-0.09,0.82,1.50,-0.07,-1.73,-0.34,-0.09,-0.89,1005.93
9.571,-0.38,0.06,1.10,1.50,-0.07,-1.73,-0.34,-0.09,-0.89,1005.93
9.573,-0.38,0.06,1.10,1.50,-0.07,-1.73,0.16,0.14,0.50,1005.93
9.574,-0.38,0.06,1.10,-4.07,1.34,0.96,0.16,0.14,0.50,1005.93
9.631,0.24,-0.07,1.01,-4.07,1.34,0.96,0.16,0.14,0.50,1005.93
9.634,0.03,-0.04,0.97,-4.07,1.34,0.96,0.16,0.14,0.50,1005.93
9.635,0.03,-0.04,0.97,-4.07,1.34,0.96,0.03,0.07,-0.21,1005.93
9.635,0.03,-0.04,0.97,-4.07,1.34,0.96,0.02,0.08,-0.24,1005.93
9.636,0.03,-0.04,0.97,1.83,0.09,0.13,0.02,0.08,-0.24,1005.93
9.636,0.03,-0.04,0.97,-0.13,0.41,-0.27,0.02,0.08,-0.24,1005.93
9.65,0.03,-0.04,0.97,-0.13,0.41,-0.27,0.02,0.08,-0.24,1005.94
9.688,-0.19,0.04,0.99,-0.13,0.41,-0.27,0.02,0.08,-0.24,1005.94
9.689,-0.19,0.04,0.99,-0.13,0.41,-0.27,0.11,0.21,0.39,1005.94
9.749,0.21,-0.06,0.95,-0.13,0.41,-0.27,0.11,0.21,0.39,1005.94
9.751,0.05,-0.04,0.97,-0.13,0.41,-0.27,0.11,0.21,0.39,1005.94
9.752,0.05,-0.04,0.97,-0.13,0.41,-0.27,-0.10,-0.01,-0.12,1005.94
9.752,0.05,-0.04,0.97,-0.13,0.41,-0.27,-0.15,0.01,-0.22,1005.94
9.752,0.05,-0.04,0.97,-2.04,1.06,-0.06,-0.15,0.01,-0.22,1005.94
9.753,0.05,-0.04,0.97,1.79,0.14,-0.51,-0.15,0.01,-0.22,1005.94
9.754,0.05,-0.04,0.97,1.79,0.14,-0.51,-0.15,0.01,-0.22,1005.95
9.807,0.05,-0.04,0.97,1.79,0.14,-0.51,-0.25,0.08,0.07,1005.95
9.808,-0.10,-0.05,0.99,1.79,0.14,-0.51,-0.25,0.08,0.07,1005.95
9.812,-0.10,-0.05,0.99,0.13,0.29,-0.26,-0.25,0.08,0.07,1005.95
9.849,-0.10,-0.05,0.99,0.13,0.29,-0.26,-0.25,0.08,0.07,1005.95
9.869,0.12,-0.06,1.08,0.13,0.29,-0.26,-0.25,0.08,0.07,1005.95
9.869,0.01,0.00,1.03,0.13,0.29,-0.26,-0.25,0.08,0.07,1005.95
9.87,0.01,0.00,1.03,0.13,0.29,-0.26,-0.04,-0.02,-0.21,1005.95
9.87,0.01,0.00,1.03,0.13,0.29,-0.26,0.16,-0.03,-0.08,1005.95
9.871,0.01,0.00,1.03,-1.10,0.34,-0.01,0.16,-0.03,-0.08,1005.95
9.871,0.01,0.00,1.03,0.87,0.30,0.81,0.16,-0.03,-0.08,1005.95
9.926,-0.02,-0.05,0.95,0.87,0.30,0.81,0.16,-0.03,-0.08,1005.95
9.927,-0.02,-0.05,0.95,0.87,0.30,0.81,0.07,-0.15,0.05,1005.95
9.928,-0.02,-0.05,0.95,-0.18,0.79,0.21,0.07,-0.15,0.05,1005.95
9.948,-0.02,-0.05,0.95,-0.18,0.79,0.21,0.07,-0.15,0.05,1005.95
9.986,0.01,-0.03,1.00,-0.18,0.79,0.21,0.07,-0.15,0.05,1005.95
9.987,0.07,-0.03,0.98,-0.18,0.79,0.21,0.07,-0.15,0.05,1005.95
9.988,0.07,-0.03,0.98,-0.18,0.79,0.21,0.15,-0.20,0.05,1005.95
9.988,0.07,-0.03,0.98,-0.18,0.79,0.21,0.16,-0.31,-0.10,1005.95
9.988,0.07,-0.03,0.98,-0.48,0.32,-0.42,0.16,-0.31,-0.10,1005.95
9.989,0.07,-0.03,0.98,-0.14,0.43,-0.04,0.16,-0.31,-0.10,1005.95
10.043,0.01,-0.03,0.98,-0.14,0.43,-0.04,0.16,-0.31,-0.10,1005.95
10.045,0.01,-0.03,0.98,-0.14,0.43,-0.04,0.16,-0.18,-0.09,1005.95
10.045,0.01,-0.03,0.98,0.17,0.34,-0.17,0.16,-0.18,-0.09,1005.95
10.048,0.01,-0.03,0.98,0.17,0.34,-0.17,0.16,-0.18,-0.09,1005.95
10.104,0.05,-0.03,0.98,0.17,0.34,-0.17,0.16,-0.18,-0.09,1005.95
10.105,0.04,-0.01,0.98,0.17,0.34,-0.17,0.16,-0.18,-0.09,1005.95
10.106,0.04,-0.01,0.98,0.17,0.34,-0.17,0.15,-0.18,-0.16,1005.95
10.106,0.04,-0.01,0.98,0.17,0.34,-0.17,0.15,-0.12,-0.11,1005.95
10.107,0.04,-0.01,0.98,-0.36,0.33,-0.21,0.15,-0.12,-0.11,1005.95
10.107,0.04,-0.01,0.98,-0.18,0.28,-0.19,0.15,-0.12,-0.11,1005.95
10.148,0.04,-0.01,0.98,-0.18,0.28,-0.19,0.15,-0.12,-0.11,1005.95
10.167,0.06,-0.01,0.97,-0.18,0.28,-0.19,0.15,-0.12,-0.11,1005.95
10.168,0.06,-0.01,0.97,-0.18,0.28,-0.19,0.10,-0.04,-0.06,1005.95
10.168,0.06,-0.01,0.97,-0.23,0.37,-0.21,0.10,-0.04,-0.06,1005.95
10.222,0.07,0.01,0.94,-0.23,0.37,-0.21,0.10,-0.04,-0.06,1005.95
10.223,0.04,0.01,1.01,-0.23,0.37,-0.21,0.10,-0.04,-0.06,1005.95
10.224,0.04,0.01,1.01,-0.23,0.37,-0.21,0.28,0.64,0.02,1005.95
10.224,0.04,0.01,1.01,-0.23,0.37,-0.21,0.18,0.01,0.04,1005.95
10.224,0.04,0.01,1.01,-0.09,0.42,-0.33,0.18,0.01,0.04,1005.95
10.225,0.04,0.01,1.01,0.05,0.46,-0.38,0.18,0.01,0.04,1005.95
10.248,0.04,0.01,1.01,0.05,0.46,-0.38,0.18,0.01,0.04,1005.95
10.281,0.04,0.00,0.99,0.05,0.46,-0.38,0.18,0.01,0.04,1005.95
10.282,0.04,0.00,0.99,0.05,0.46,-0.38,0.14,-0.04,0.01,1005.95
10.282,0.04,0.00,0.99,-0.13,0.38,0.09,0.14,-0.04,0.01,1005.95
10.34,0.11,0.00,0.97,-0.13,0.38,0.09,0.14,-0.04,0.01,1005.95
10.341,0.04,0.03,0.98,-0.13,0.38,0.09,0.14,-0.04,0.01,1005.95
10.342,0.04,0.03,0.98,-0.13,0.38,0.09,0.12,0.04,-0.15,1005.95
10.342,0.04,0.03,0.98,-0.13,0.38,0.09,0.10,0.02,-0.13,1005.95
10.342,0.04,0.03,0.98,-0.01,0.29,-0.16,0.10,0.02,-0.13,1005.95
10.343,0.04,0.03,0.98,0.36,0.31,-0.26,0.10,0.02,-0.13,1005.95
10.347,0.04,0.03,0.98,0.36,0.31,-0.26,0.10,0.02,-0.13,1005.94
10.399,-0.01,0.04,0.99,0.36,0.31,-0.26,0.10,0.02,-0.13,1005.94
10.401,-0.01,0.04,0.99,0.36,0.31,-0.26,0.11,0.04,-0.04,1005.94
10.402,-0.01,0.04,0.99,-0.31,0.49,-0.16,0.11,0.04,-0.04,1005.94
10.447,-0.01,0.04,0.99,-0.31,0.49,-0.16,0.11,0.04,-0.04,1005.94
10.459,0.05,0.03,0.98,-0.31,0.49,-0.16,0.11,0.04,-0.04,1005.94
10.46,0.06,0.05,0.97,-0.31,0.49,-0.16,0.11,0.04,-0.04,1005.94
10.461,0.06,0.05,0.97,-0.31,0.49,-0.16,0.12,0.06,0.02,1005.94
10.463,0.06,0.05,0.97,-0.31,0.49,-0.16,0.16,0.21,-0.04,1005.94
10.464,0.06,0.05,0.97,-0.45,0.49,-0.15,0.16,0.21,-0.04,1005.94
10.464,0.06,0.05,0.97,0.03,0.43,-0.24,0.16,0.21,-0.04,1005.94
10.517,0.02,0.04,0.99,0.03,0.43,-0.24,0.16,0.21,-0.04,1005.94
10.519,0.02,0.04,0.99,0.03,0.43,-0.24,0.09,0.08,0.00,1005.94
10.519,0.02,0.04,0.99,0.03,0.41,-0.23,0.09,0.08,0.00,1005.94
10.546,0.02,0.04,0.99,0.03,0.41,-0.23,0.09,0.08,0.00,1005.93
10.577,0.02,0.06,0.99,0.03,0.41,-0.23,0.09,0.08,0.00,1005.93
10.578,0.03,0.06,0.98,0.03,0.41,-0.23,0.09,0.08,0.00,1005.93
10.579,0.03,0.06,0.98,0.03,0.41,-0.23,0.08,0.01,-0.00,1005.93
10.579,0.03,0.06,0.98,0.03,0.41,-0.23,0.09,-0.00,-0.02,1005.93
10.58,0.03,0.06,0.98,-0.16,0.37,-0.10,0.09,-0.00,-0.02,1005.93
10.58,0.03,0.06,0.98,-0.10,0.49,-0.13,0.09,-0.00,-0.02,1005.93
10.636,0.03,0.05,0.98,-0.10,0.49,-0.13,0.09,-0.00,-0.02,1005.93
10.639,0.03,0.05,0.98,-0.10,0.49,-0.13,0.09,0.03,-0.06,1005.93
10.64,0.03,0.05,0.98,-0.08,0.40,-0.19,0.09,0.03,-0.06,1005.93
10.646,0.03,0.05,0.98,-0.08,0.40,-0.19,0.09,0.03,-0.06,1005.93
10.695,0.02,0.07,0.98,-0.08,0.40,-0.19,0.09,0.03,-0.06,1005.93
10.698,0.03,0.06,0.98,-0.08,0.40,-0.19,0.09,0.03,-0.06,1005.93
10.7,0.03,0.06,0.98,-0.08,0.40,-0.19,0.07,-0.01,-0.03,1005.93
10.701,0.03,0.06,0.98,-0.08,0.40,-0.19,0.06,-0.01,-0.00,1005.93
10.702,0.03,0.06,0.98,-0.07,0.36,-0.18,0.06,-0.01,-0.00,1005.93
10.704,0.03,0.06,0.98,-0.09,0.44,-0.16,0.06,-0.01,-0.00,1005.93
10.747,0.03,0.06,0.98,-0.09,0.44,-0.16,0.06,-0.01,-0.00,1005.93
10.781,0.03,0.06,0.98,-0.09,0.44,-0.16,0.06,-0.01,-0.00,1005.93
10.783,0.03,0.06,0.98,-0.09,0.44,-0.16,0.03,0.02,-0.03,1005.93
10.784,0.03,0.06,0.98,-0.08,0.40,-0.19,0.03,0.02,-0.03,1005.93
10.81,0.03,0.06,0.98,-0.08,0.40,-0.19,0.02,0.03,0.00,1005.93
10.812,0.03,0.06,0.98,-0.08,0.40,-0.19,0.03,0.07,0.00,1005.93
10.814,0.02,0.07,0.98,-0.08,0.40,-0.19,0.03,0.07,0.00,1005.93
10.815,0.02,0.07,0.98,-0.08,0.40,-0.19,0.03,0.07,0.00,1005.93
10.818,0.02,0.07,0.98,-0.08,0.41,-0.21,0.03,0.07,0.00,1005.93
10.82,0.02,0.07,0.98,-0.08,0.42,-0.20,0.03,0.07,0.00,1005.93
10.845,0.02,0.07,0.98,-0.08,0.42,-0.20,0.03,0.07,0.00,1005.93
10.878,0.02,0.07,0.98,-0.08,0.42,-0.20,0.03,0.07,0.00,1005.93
10.88,0.02,0.07,0.98,-0.08,0.42,-0.20,0.01,0.05,-0.00,1005.93
10.881,0.02,0.07,0.98,-0.06,0.40,-0.19,0.01,0.05,-0.00,1005.93
10.932,0.02,0.07,0.98,-0.06,0.40,-0.19,0.01,0.05,-0.00,1005.93
10.934,0.01,0.07,0.98,-0.06,0.40,-0.19,0.01,0.05,-0.00,1005.93
10.935,0.01,0.07,0.98,-0.06,0.40,-0.19,0.01,0.01,0.00,1005.93
10.937,0.01,0.07,0.98,-0.06,0.40,-0.19,0.00,0.00,-0.00,1005.93
10.938,0.01,0.07,0.98,-0.08,0.42,-0.16,0.00,0.00,-0.00,1005.93
10.938,0.01,0.07,0.98,-0.10,0.44,-0.17,0.00,0.00,-0.00,1005.93
10.946,0.01,0.07,0.98,-0.10,0.44,-0.17,0.00,0.00,-0.00,1005.93
10.99,0.02,0.07,0.98,-0.10,0.44,-0.17,0.00,0.00,-0.00,1005.93
10.993,0.02,0.07,0.98,-0.10,0.44,-0.17,0.00,0.00,-0.00,1005.93
10.994,0.02,0.07,0.98,-0.09,0.43,-0.18,0.00,0.00,-0.00,1005.93
11.044,0.02,0.07,0.98,-0.09,0.43,-0.18,0.00,0.00,-0.00,1005.93
11.048,0.02,0.07,0.98,-0.09,0.43,-0.18,0.00,0.00,-0.00,1005.93
11.049,0.02,0.07,0.98,-0.09,0.43,-0.18,0.00,0.00,-0.00,1005.93
11.05,0.02,0.07,0.98,-0.09,0.43,-0.18,-0.00,0.00,-0.00,1005.93
11.051,0.02,0.07,0.98,-0.09,0.43,-0.18,-0.00,0.00,0.00,1005.93
11.052,0.02,0.07,0.98,-0.09,0.44,-0.17,-0.00,0.00,0.00,1005.93
11.052,0.02,0.07,0.98,-0.09,0.43,-0.17,-0.00,0.00,0.00,1005.93
11.107,0.02,0.07,0.98,-0.09,0.43,-0.17,-0.00,0.00,0.00,1005.93
11.109,0.02,0.07,0.98,-0.09,0.43,-0.17,0.00,0.00,0.00,1005.93
11.109,0.02,0.07,0.98,-0.08,0.41,-0.18,0.00,0.00,0.00,1005.93
11.146,0.02,0.07,0.98,-0.08,0.41,-0.18,0.00,0.00,0.00,1005.93
11.166,0.02,0.07,0.98,-0.08,0.41,-0.18,0.00,0.00,0.00,1005.93
11.169,0.02,0.07,0.98,-0.08,0.41,-0.18,0.00,0.00,0.00,1005.93
11.169,0.02,0.07,0.98,-0.08,0.41,-0.18,-0.00,0.00,0.00,1005.93
11.17,0.02,0.07,0.98,-0.08,0.41,-0.18,-0.00,0.00,-0.00,1005.93
11.171,0.02,0.07,0.98,-0.08,0.42,-0.17,-0.00,0.00,-0.00,1005.93
11.171,0.02,0.07,0.98,-0.08,0.44,-0.17,-0.00,0.00,-0.00,1005.93
11.226,0.02,0.07,0.98,-0.08,0.44,-0.17,-0.00,0.00,-0.00,1005.93
11.227,0.02,0.07,0.98,-0.08,0.44,-0.17,0.00,-0.00,0.00,1005.93
11.228,0.02,0.07,0.98,-0.08,0.44,-0.17,0.00,-0.00,0.00,1005.93
11.245,0.02,0.07,0.98,-0.08,0.44,-0.17,0.00,-0.00,0.00,1005.93
11.287,0.02,0.07,0.98,-0.08,0.44,-0.17,0.00,-0.00,0.00,1005.93
11.29,0.02,0.07,0.98,-0.08,0.44,-0.17,0.00,-0.00,0.00,1005.93
11.293,0.02,0.07,0.98,-0.08,0.44,-0.17,0.00,0.00,-0.00,1005.93
11.295,0.02,0.07,0.98,-0.08,0.44,-0.17,-0.00,0.00,0.00,1005.93
11.295,0.02,0.07,0.98,-0.09,0.42,-0.17,-0.00,0.00,0.00,1005.93
11.296,0.02,0.07,0.98,-0.09,0.44,-0.17,-0.00,0.00,0.00,1005.93
11.345,0.02,0.07,0.98,-0.09,0.44,-0.17,-0.00,0.00,0.00,1005.93
11.349,0.02,0.07,0.98,-0.09,0.44,-0.17,0.00,-0.00,0.00,1005.93
11.351,0.02,0.07,0.98,-0.09,0.44,-0.17,0.00,-0.00,0.00,1005.93
11.352,0.02,0.07,0.98,-0.08,0.42,-0.18,0.00,-0.00,0.00,1005.93
11.404,0.02,0.07,0.98,-0.08,0.42,-0.18,0.00,-0.00,0.00,1005.93
11.406,0.01,0.07,0.98,-0.08,0.42,-0.18,0.00,-0.00,0.00,1005.93
11.407,0.01,0.07,0.98,-0.08,0.42,-0.18,-0.00,0.00,-0.00,1005.93
11.408,0.01,0.07,0.98,-0.08,0.42,-0.18,0.00,-0.00,0.00,1005.93
11.409,0.01,0.07,0.98,-0.09,0.43,-0.18,0.00,-0.00,0.00,1005.93
11.41,0.01,0.07,0.98,-0.09,0.44,-0.17,0.00,-0.00,0.00,1005.93
11.445,0.01,0.07,0.98,-0.09,0.44,-0.17,0.00,-0.00,0.00,1005.93
11.462,0.01,0.07,0.98,-0.09,0.44,-0.17,0.00,-0.00,0.00,1005.93
11.463,0.01,0.07,0.98,-0.09,0.44,-0.17,-0.00,0.00,0.00,1005.93
11.464,0.01,0.07,0.98,-0.10,0.43,-0.17,-0.00,0.00,0.00,1005.93
11.522,0.02,0.07,0.98,-0.10,0.43,-0.17,-0.00,0.00,0.00,1005.93
11.526,0.02,0.07,0.98,-0.10,0.43,-0.17,-0.00,0.00,0.00,1005.93
11.529,0.02,0.07,0.98,-0.10,0.43,-0.17,0.00,0.00,0.00,1005.93
11.531,0.02,0.07,0.98,-0.10,0.43,-0.17,0.00,0.00,0.00,1005.93
11.532,0.02,0.07,0.98,-0.08,0.44,-0.17,0.00,0.00,0.00,1005.93
11.532,0.02,0.07,0.98,-0.09,0.44,-0.17,0.00,0.00,0.00,1005.93
11.546,0.02,0.07,0.98,-0.09,0.44,-0.17,0.00,0.00,0.00,1005.94
11.58,0.02,0.07,0.98,-0.09,0.44,-0.17,0.00,0.00,0.00,1005.94
11.582,0.02,0.07,0.98,-0.09,0.44,-0.17,-0.00,0.00,-0.00,1005.94
11.583,0.02,0.07,0.98,-0.09,0.42,-0.19,-0.00,0.00,-0.00,1005.94
11.64,0.02,0.07,0.98,-0.09,0.42,-0.19,-0.00,0.00,-0.00,1005.94
11.643,0.02,0.07,0.98,-0.09,0.42,-0.19,-0.00,0.00,-0.00,1005.94
11.646,0.02,0.07,0.98,-0.09,0.42,-0.19,-0.00,0.00,-0.00,1005.94
11.648,0.02,0.07,0.98,-0.09,0.42,-0.19,0.00,-0.00,0.00,1005.94
11.649,0.02,0.07,0.98,-0.09,0.41,-0.19,0.00,-0.00,0.00,1005.94
11.65,0.02,0.07,0.98,-0.09,0.42,-0.18,0.00,-0.00,0.00,1005.94
11.651,0.02,0.07,0.98,-0.09,0.42,-0.18,0.00,-0.00,0.00,1005.95
11.699,0.02,0.07,0.98,-0.09,0.42,-0.18,0.00,-0.00,0.00,1005.95
11.7,0.02,0.07,0.98,-0.09,0.42,-0.18,-0.00,0.00,0.00,1005.95
11.701,0.02,0.07,0.98,-0.09,0.44,-0.17,-0.00,0.00,0.00,1005.95
11.743,0.02,0.07,0.98,-0.09,0.44,-0.17,-0.00,0.00,0.00,1005.96
11.759,0.02,0.07,0.98,-0.09,0.44,-0.17,-0.00,0.00,0.00,1005.96
11.76,0.01,0.07,0.98,-0.09,0.44,-0.17,-0.00,0.00,0.00,1005.96
11.761,0.01,0.07,0.98,-0.09,0.44,-0.17,-0.00,0.00,-0.00,1005.96
11.762,0.01,0.07,0.98,-0.09,0.44,-0.17,-0.00,0.00,0.00,1005.96
11.762,0.01,0.07,0.98,-0.09,0.46,-0.17,-0.00,0.00,0.00,1005.96
11.763,0.01,0.07,0.98,-0.09,0.41,-0.19,-0.00,0.00,0.00,1005.96
11.817,0.02,0.07,0.98,-0.09,0.41,-0.19,-0.00,0.00,0.00,1005.96
11.819,0.02,0.07,0.98,-0.09,0.41,-0.19,-0.00,-0.00,-0.00,1005.96
11.819,0.02,0.07,0.98,-0.08,0.42,-0.19,-0.00,-0.00,-0.00,1005.96
11.841,0.02,0.07,0.98,-0.08,0.42,-0.19,-0.00,-0.00,-0.00,1005.96
11.878,0.01,0.07,0.98,-0.08,0.42,-0.19,-0.00,-0.00,-0.00,1005.96
11.879,0.02,0.07,0.98,-0.08,0.42,-0.19,-0.00,-0.00,-0.00,1005.96
11.88,0.02,0.07,0.98,-0.08,0.42,-0.19,-0.00,-0.00,0.00,1005.96
11.88,0.02,0.07,0.98,-0.08,0.42,-0.19,0.00,0.00,0.00,1005.96
11.881,0.02,0.07,0.98,-0.09,0.43,-0.18,0.00,0.00,0.00,1005.96
11.881,0.02,0.07,0.98,-0.08,0.42,-0.19,0.00,0.00,0.00,1005.96
11.935,0.02,0.07,0.98,-0.08,0.42,-0.19,0.00,0.00,0.00,1005.96
11.938,0.02,0.07,0.98,-0.08,0.42,-0.19,-0.00,-0.00,-0.00,1005.96
11.94,0.02,0.07,0.98,-0.09,0.42,-0.19,-0.00,-0.00,-0.00,1005.96
11.941,0.02,0.07,0.98,-0.09,0.42,-0.19,-0.00,-0.00,-0.00,1005.96
11.994,0.02,0.07,0.98,-0.09,0.42,-0.19,-0.00,-0.00,-0.00,1005.96
11.995,0.02,0.07,0.98,-0.09,0.42,-0.19,-0.00,-0.00,-0.00,1005.96
11.996,0.02,0.07,0.98,-0.09,0.42,-0.19,0.00,0.00,-0.00,1005.96
11.996,0.02,0.07,0.98,-0.09,0.42,-0.19,0.00,-0.00,-0.00,1005.96
11.997,0.02,0.07,0.98,-0.09,0.43,-0.17,0.00,-0.00,-0.00,1005.96
11.997,0.02,0.07,0.98,-0.08,0.42,-0.18,0.00,-0.00,-0.00,1005.96
12.05,0.02,0.07,0.98,-0.08,0.42,-0.18,0.00,-0.00,-0.00,1005.96
12.054,0.02,0.07,0.98,-0.08,0.42,-0.18,0.00,-0.00,-0.00,1005.96
12.055,0.02,0.07,0.98,-0.08,0.42,-0.18,0.00,0.00,-0.00,1005.96
12.057,0.02,0.07,0.98,-0.09,0.42,-0.18,0.00,0.00,-0.00,1005.96
12.112,0.02,0.07,0.98,-0.09,0.42,-0.18,0.00,0.00,-0.00,1005.96
12.114,0.02,0.07,0.98,-0.09,0.42,-0.18,0.00,0.00,-0.00,1005.96
12.115,0.02,0.07,0.98,-0.09,0.42,-0.18,-0.00,-0.00,-0.00,1005.96
12.116,0.02,0.07,0.98,-0.09,0.42,-0.18,-0.00,0.00,-0.00,1005.96
12.116,0.02,0.07,0.98,-0.09,0.44,-0.18,-0.00,0.00,-0.00,1005.96
12.117,0.02,0.07,0.98,-0.08,0.42,-0.18,-0.00,0.00,-0.00,1005.96
12.149,0.02,0.07,0.98,-0.08,0.42,-0.18,-0.00,0.00,-0.00,1005.96
12.169,0.02,0.07,0.98,-0.08,0.42,-0.18,-0.00,0.00,-0.00,1005.96
12.17,0.02,0.07,0.98,-0.08,0.42,-0.18,-0.00,0.05,-0.00,1005.96
12.171,0.02,0.07,0.98,-0.07,0.43,-0.24,-0.00,0.05,-0.00,1005.96
12.229,0.01,0.07,0.99,-0.07,0.43,-0.24,-0.00,0.05,-0.00,1005.96
12.232,0.01,0.07,0.98,-0.07,0.43,-0.24,-0.00,0.05,-0.00,1005.96
12.233,0.01,0.07,0.98,-0.07,0.43,-0.24,0.00,-0.01,0.00,1005.96
12.234,0.01,0.07,0.98,-0.07,0.43,-0.24,0.00,-0.03,0.00,1005.96
12.234,0.01,0.07,0.98,-0.10,0.43,-0.13,0.00,-0.03,0.00,1005.96
12.242,0.01,0.07,0.98,-0.10,0.43,-0.13,0.00,-0.03,0.00,1005.96
